"Category (Stationary, Drug, Non Phamaceutical / Consumable, Dialysis Product, )","Store (Pharmaceutical Store, Procurement Store , Catering Store , General Store , Theatre Store , Laboratory, Optical Store, )",Product Code,Drud,Unit of measure (),"Activate (Yes, No)",amount,amount,Pack Size,Opening Quantity,Min Reorder Level,Description,Max Reorder Level,Posting Group,Category Code,Vatable (Yes/ No),Group Code
Drug,Pharmaceutical Store,,ESOP 40mg Tablets 30s,,Yes,599,599,1,0,5,,,,,No,
Drug,Pharmaceutical Store,,Esose Tablets 20mg  10s,,Yes,270,270,1,0,5,,,,,No,
Drug,Pharmaceutical Store,,Esose Tablets 40mg  10s,,Yes,488,488,1,0,5,,,,,No,
Drug,Pharmaceutical Store,,"Essneurofit Tablets 10s (Combination VIT B1, B6, B12)",,Yes,99,99,1,0,5,,,,,No,
Drug,Pharmaceutical Store,,Falcidin Tablets 75s (SP),,Yes,399,399,1,0,5,,,,,No,
Drug,Pharmaceutical Store,,FANLAR anti-malaral Tablets 25x3's,,Yes,435,435,1,0,5,,,,,No,
Drug,Pharmaceutical Store,,Farm Liniment   5Ltr.,,Yes,599,599,1,0,5,,,,,No,
Drug,Pharmaceutical Store,,Farm Liniment  500ml.,,Yes,99,99,1,0,5,,,,,No,
Drug,Pharmaceutical Store,,Fastum Gel 30gm.,,Yes,499,499,1,0,5,,,,,No,
Drug,Pharmaceutical Store,,Femiject KIT  (Femiplan Injection) Vial,,Yes,59.9,59.9,1,0,5,,,,,No,
Drug,Pharmaceutical Store,,Femiplan Tablets TRICYCLE = 3 *28s,,Yes,129,129,1,0,5,,,,,No,
Drug,Pharmaceutical Store,,Fenpar tablets 400/325mg.,,Yes,88,88,1,0,5,,,,,No,
Drug,Pharmaceutical Store,,Ferro B Complex Syrup. 100ml.,,Yes,46.9,46.9,1,0,5,,,,,No,
Drug,Pharmaceutical Store,,Ferro B Complex Syrup. 60ml,,Yes,35.9,35.9,1,0,5,,,,,No,
Drug,Pharmaceutical Store,,Ferrolic Tablets 1000s (FERROUS + FOLIC),,Yes,599,599,1,0,5,,,,,No,
Drug,Pharmaceutical Store,,Ferrous Sulphate Tablets 1000s,,Yes,330,330,1,0,5,,,,,No,
Drug,Pharmaceutical Store,,Ferrous Sulphate Tablets 100s,,Yes,99,99,1,0,5,,,,,No,
Drug,Pharmaceutical Store,,Flagentyl Tablets 500mg  4s.,,Yes,315,315,1,0,5,,,,,No,
Drug,Pharmaceutical Store,,Flamoryl S Tablets  10s,,Yes,129,129,1,0,5,,,,,No,
Drug,Pharmaceutical Store,,Flamox Capsules 500mg  20s ( cosmos),,Yes,299,299,1,0,5,,,,,No,
Drug,Pharmaceutical Store,,Flamox Dry Suspension 100ml. (cosmos),,Yes,249,249,1,0,5,,,,,No,
Drug,Pharmaceutical Store,,Flemnil Suspension,,Yes,195,195,1,0,5,,,,,No,
Drug,Pharmaceutical Store,,Flucloxacillin 250mg Capsules 100s,,Yes,399,399,1,0,5,,,,,No,
Drug,Pharmaceutical Store,,Flucloxacillin Capsules 500mg 100s (BLISTER PACK),,Yes,699,699,1,0,5,,,,,No,
Drug,Pharmaceutical Store,,Flucloxacillin Injection 500mg ** High Stength,,Yes,55,55,1,0,5,,,,,No,
Drug,Pharmaceutical Store,,Flucloxacillin Syrup 100ml.,,Yes,79.9,79.9,1,0,5,,,,,No,
Drug,Pharmaceutical Store,,Fluconazole (GENERIC) Tablets 150mg 1s,,Yes,9.9,9.9,1,0,5,,,,,No,
Drug,Pharmaceutical Store,,Fluconazole 200mg Capsules - Criptocan - 10s,,Yes,277,277,1,0,5,,,,,No,
Drug,Pharmaceutical Store,,Fluconazole Oral Suspension 50mg 35ml,,Yes,299,299,1,0,5,,,,,No,
Drug,Pharmaceutical Store,,Flugone Capsules 10s,,Yes,88,88,1,0,5,,,,,No,
Drug,Pharmaceutical Store,,Flugone DM Cough Syrup 60ml.,,Yes,119,119,1,0,5,,,,,No,
Drug,Pharmaceutical Store,,Flugone DM Syrup 120ml large,,Yes,179,179,1,0,5,,,,,No,
Drug,Pharmaceutical Store,,Flugone P Syrup 120ml  (LARGE),,Yes,169,169,1,0,5,,,,,No,
Drug,Pharmaceutical Store,,Flugone P Syrup 60ml.,,Yes,119,119,1,0,5,,,,,No,
Drug,Pharmaceutical Store,,Folic Acid Tablets 1000s,,Yes,399,399,1,0,5,,,,,No,
Drug,Pharmaceutical Store,,Folic Acid Tabs 100s - BLISTER PACK,,Yes,66,66,1,0,5,,,,,No,
Drug,Pharmaceutical Store,,Folley Catheters G16,,Yes,49,49,1,0,5,,,,,No,
Drug,Pharmaceutical Store,,Folley Catheters G18,,Yes,49,49,1,0,5,,,,,No,
Drug,Pharmaceutical Store,,Formaldehyde 40% 500ml.,,Yes,95,95,1,0,5,,,,,No,
Drug,Pharmaceutical Store,,"Franol ""generic"" Tabs 100s***Blister Pack ***",,Yes,240,240,1,0,5,,,,,No,
Drug,Pharmaceutical Store,,Franol Tablets (Generic) 1000s,,Yes,1350,1350,1,0,5,,,,,No,
Drug,Pharmaceutical Store,,Frusemide Injection Amp - INDIA,,Yes,8.8,8.8,1,0,5,,,,,No,
Drug,Pharmaceutical Store,,Frusemide(Lasix Generic) Tablets 40mg  100s,,Yes,85,85,1,0,5,,,,,No,
Drug,Pharmaceutical Store,,Frusemide(Lasix Generic) Tablets 40mg  100s,,Yes,330,330,1,0,5,,,,,No,
Drug,Pharmaceutical Store,,Funbact-A Cream ( Clotrimzole + Betamethasone + Neomycin),,Yes,120,120,1,0,5,,,,,No,
Drug,Pharmaceutical Store,,Futsil Solution 15ml.,,Yes,218,218,1,0,5,,,,,No,
Drug,Pharmaceutical Store,,Gabboral Tablets 12s,,Yes,699,699,1,0,5,,,,,No,
Drug,Pharmaceutical Store,,G-Alfenac P Tablets,,Yes,99,99,1,0,5,,,,,No,
Drug,Pharmaceutical Store,,Gauze Roll 750gms ***** MEDIUM SIZE,,Yes,599,599,1,0,5,,,,,No,
Drug,Pharmaceutical Store,,Gauze Rolls 1.5kg**LARGE SIZE,,Yes,1250,1250,1,0,5,,,,,No,
Drug,Pharmaceutical Store,,Gaviscon Suspension 200ml,,Yes,566,566,1,0,5,,,,,No,
Drug,Pharmaceutical Store,,Gentamycin Injection Amp.,,Yes,4.4,4.4,1,0,5,,,,,No,
Drug,Pharmaceutical Store,,Gentamycine Eye Ear Drops 10ml  - INDIA,,Yes,14.9,14.9,1,0,5,,,,,No,
Drug,Pharmaceutical Store,,Gentian Violet Solution (GV) 30ml.,,Yes,19.9,19.9,1,0,5,,,,,No,
Drug,Pharmaceutical Store,,Glibenclamide 5mg Tablets 100s,,Yes,99,99,1,0,5,,,,,No,
Drug,Pharmaceutical Store,,Glimepiride 2mg Tablets - Glypin -PINK GL,,Yes,440,440,1,0,5,,,,,No,
Drug,Pharmaceutical Store,,Glucomet N Tablets 28s,,Yes,199,199,1,0,5,,,,,No,
Drug,Pharmaceutical Store,,Glucomet Tablets 500mg 28s,,Yes,87,87,1,0,5,,,,,No,
Drug,Pharmaceutical Store,,Glucomet Tablets 500mg 56s,,Yes,199,199,1,0,5,,,,,No,
Drug,Pharmaceutical Store,,Glucomet tablets 850mg. 28s,,Yes,199,199,1,0,5,,,,,No,
Drug,Pharmaceutical Store,,Glucophage 1gm Tablets,,Yes,899,899,1,0,5,,,,,No,
Drug,Pharmaceutical Store,,Glucophage Original Tablets 500mg 90s,,Yes,599,599,1,0,5,,,,,No,
Drug,Pharmaceutical Store,,Glucophage Original Tablets 850mg. 60s,,Yes,730,730,1,0,5,,,,,No,
Drug,Pharmaceutical Store,,Glucose Powder 50gm Packet,,Yes,9.9,9.9,1,0,5,,,,,No,
Drug,Pharmaceutical Store,,Glutamin Plus Tablets,,Yes,320,320,1,0,5,,,,,No,
Drug,Pharmaceutical Store,,Glutamin Tablets. 30s,,Yes,288,288,1,0,5,,,,,No,
Drug,Pharmaceutical Store,,Glycerine pure 50ml.,,Yes,39.9,39.9,1,0,5,,,,,No,
Drug,Pharmaceutical Store,,Glykof Cough Syrup,,Yes,199,199,1,0,5,,,,,No,
Drug,Pharmaceutical Store,,Good Morning Lung Tonic  60ml.,,Yes,75,75,1,0,5,,,,,No,
Drug,Pharmaceutical Store,,Grabacin 3 (Triple Antibiotic Ointment)20gm.,,Yes,169,169,1,0,5,,,,,No,
Drug,Pharmaceutical Store,,Grabacin Powder 10gm.,,Yes,66.9,66.9,1,0,5,,,,,No,
Drug,Pharmaceutical Store,,Gripe Water 100ml,,Yes,36.9,36.9,1,0,5,,,,,No,
Drug,Pharmaceutical Store,,Gripe Water 60ml - SMALL SIZE BOTTLE,,Yes,28.9,28.9,1,0,5,,,,,No,
Drug,Pharmaceutical Store,,Griseofulvin Tablets 125mg.100s,,Yes,199,199,1,0,5,,,,,No,
Drug,Pharmaceutical Store,,Griseofulvin Tablets 250mg. 100s,,Yes,366,366,1,0,5,,,,,No,
Drug,Pharmaceutical Store,,Griseofulvin Tablets 500mg 100s,,Yes,575,575,1,0,5,,,,,No,
Drug,Pharmaceutical Store,,Gvither forte Injection - 80mg 6s,,Yes,220,220,1,0,5,,,,,No,
Drug,Pharmaceutical Store,,Gvither Injection 40mg 10s**LOW STENGTH,,Yes,269,269,1,0,5,,,,,No,
Drug,Pharmaceutical Store,,H Pylori Kit ( 7 Kits),,Yes,599,599,1,0,5,,,,,No,
Drug,Pharmaceutical Store,,Hartmans Solution (Ringers Lactate) 500ml,,Yes,44.9,44.9,1,0,5,,,,,No,
Drug,Pharmaceutical Store,,Hartmans Solution 500ml - Exp Nov 2018 -,,Yes,10,10,1,0,5,,,,,No,
Drug,Pharmaceutical Store,,Hedex Caplets 100s,,Yes,399,399,1,0,5,,,,,No,
Drug,Pharmaceutical Store,,Hemovit Syrup 200ml - Blood Builder with ZINC,,Yes,199,199,1,0,5,,,,,No,
Drug,Pharmaceutical Store,,Histalin Cough Syrup GREEN 60ml,,Yes,39.9,39.9,1,0,5,,,,,No,
Drug,Pharmaceutical Store,,Hydrochlorothiazide Tablets 50mg 100s - COSMOS,,Yes,88,88,1,0,5,,,,,No,
Drug,Pharmaceutical Store,,Hydrocortisone  Ointment 15gm,,Yes,29.9,29.9,1,0,5,,,,,No,
Drug,Pharmaceutical Store,,Hydrocortisone Cream 15gm,,Yes,29.9,29.9,1,0,5,,,,,No,
Drug,Pharmaceutical Store,,Hydrocortisone Eye Drops 5ml.,,Yes,54.5,54.5,1,0,5,,,,,No,
Drug,Pharmaceutical Store,,Hydrocortisone Injection CHINA,,Yes,29.9,29.9,1,0,5,,,,,No,
Drug,Pharmaceutical Store,,Hydrocortisone Injection Vial - INDIA,,Yes,29.9,29.9,1,0,5,,,,,No,
Drug,Pharmaceutical Store,,Hydrogen Peroxide 200ml.,,Yes,36.9,36.9,1,0,5,,,,,No,
Drug,Pharmaceutical Store,,Hyoscine Injection Amp (Buscopan Generic),,Yes,36,36,1,0,5,,,,,No,
Drug,Pharmaceutical Store,,Hyoscine Syrup (Buscopan Generic) 60ml.,,Yes,59.9,59.9,1,0,5,,,,,No,
Drug,Pharmaceutical Store,,Hyoscine Tablets 100s (Buscopan Generic),,Yes,599,599,1,0,5,,,,,No,
Drug,Pharmaceutical Store,,Ibumex Suspension 100ml,,Yes,79.9,79.9,1,0,5,,,,,No,
Drug,Pharmaceutical Store,,Ibumex Suspension 60ml.,,Yes,55,55,1,0,5,,,,,No,
Drug,Pharmaceutical Store,,Ibupar Suspension - Para + ibuprofen,,Yes,33,33,1,0,5,,,,,No,
Drug,Pharmaceutical Store,,Ibupar Tablets (Para+Ibuprofen) 10s,,Yes,33,33,1,0,5,,,,,No,
Drug,Pharmaceutical Store,,Ibuprofen Syrup 100ml,,Yes,35,35,1,0,5,,,,,No,
Drug,Pharmaceutical Store,,Ibuprofen Syrup 100ml,,Yes,9.9,9.9,1,0,5,,,,,No,
Drug,Pharmaceutical Store,,Ibuprofen Syrup 60ml,,Yes,21.9,21.9,1,0,5,,,,,No,
Drug,Pharmaceutical Store,,Ibuprofen Tablets 200mg 1000s,,Yes,588,588,1,0,5,,,,,No,
Drug,Pharmaceutical Store,,Ibuprofen Tablets 200mg 100s,,Yes,77,77,1,0,5,,,,,No,
Drug,Pharmaceutical Store,,Ibuprofen Tablets 400mg  500s,,Yes,599,599,1,0,5,,,,,No,
Drug,Pharmaceutical Store,,Ibuprofen Tablets 400mg 100s,,Yes,139,139,1,0,5,,,,,No,
Drug,Pharmaceutical Store,,Imodium Original Capsules 6s,,Yes,199,199,1,0,5,,,,,No,
Drug,Pharmaceutical Store,,Indomethacin Caps 100s 25mg,,Yes,89,89,1,0,5,,,,,No,
Drug,Pharmaceutical Store,,Indomethacin Capsules 25mg. 1000s,,Yes,455,455,1,0,5,,,,,No,
Drug,Pharmaceutical Store,,Infacol 50ml 100 doses,,Yes,688,688,1,0,5,,,,,No,
Drug,Pharmaceutical Store,,Intamine  Cream 25gm.,,Yes,82,82,1,0,5,,,,,No,
Drug,Pharmaceutical Store,,Irovel H Tablets 30s,,Yes,1600,1600,1,0,5,,,,,No,
Drug,Pharmaceutical Store,,IV Giving Sets,,Yes,10,10,1,0,5,,,,,No,
Drug,Pharmaceutical Store,,Ivydexgent Eye Drops 5ml,,Yes,99,99,1,0,5,,,,,No,
Drug,Pharmaceutical Store,,Kaluma Balm 9gm - Dozen,,Yes,315,315,1,0,5,,,,,No,
Drug,Pharmaceutical Store,,Kaluma King Lozenges 100s,,Yes,322,322,1,0,5,,,,,No,
Drug,Pharmaceutical Store,,Kaluma Strong Tablets,,Yes,279,279,1,0,5,,,,,No,
Drug,Pharmaceutical Store,,Ketoconazole Cream - Konazol,,Yes,55,55,1,0,5,,,,,No,
Drug,Pharmaceutical Store,,Ketoconazole Tablets 10s - NEW PACK,,Yes,39,39,1,0,5,,,,,No,
Drug,Pharmaceutical Store,,Ketoconazole Tablets 200mg 100s,,Yes,299,299,1,0,5,,,,,No,
Drug,Pharmaceutical Store,,Ketoconazole Tablets 30s - LONG EXPIRY,,Yes,29,29,1,0,5,,,,,No,
Drug,Pharmaceutical Store,,Kleen Enema,,Yes,188,188,1,0,5,,,,,No,
Drug,Pharmaceutical Store,,KLY Lubricating Jelly  42gm.,,Yes,160,160,1,0,5,,,,,No,
Drug,Pharmaceutical Store,,Knac 75mg Tablets 30s GL,,Yes,299,299,1,0,5,,,,,No,
Drug,Pharmaceutical Store,,Lactulose  (Lactulac/Lactulin) Syrup 100ml,,Yes,179,179,1,0,5,,,,,No,
Drug,Pharmaceutical Store,,Larither Injection 40mg 6s GREEN pack,,Yes,133,133,1,0,5,,,,,No,
Drug,Pharmaceutical Store,,Larither Injection 80mg 6s,,Yes,166,166,1,0,5,,,,,No,
Drug,Pharmaceutical Store,,Latex Examination Gloves (medium) 100s -,,Yes,355,355,1,0,5,,,,,No,
Drug,Pharmaceutical Store,,Levamisole 40mg Tablets 1000s (lab and Allied),,Yes,355,355,1,0,5,,,,,No,
Drug,Pharmaceutical Store,,Levamisole Syrup 15ml,,Yes,318,318,1,0,5,,,,,No,
Drug,Pharmaceutical Store,,Levamisole Tablets 40mg 500s,,Yes,199,199,1,0,5,,,,,No,
Drug,Pharmaceutical Store,,Levamisole Tablets 75s,,Yes,99,99,1,0,5,,,,,No,
Drug,Pharmaceutical Store,,Levobact 750mg Tablets BLUE PACK 10s,,Yes,799,799,1,0,5,,,,,No,
Drug,Pharmaceutical Store,,Levofloxacin  Tablets 500mg 10s,,Yes,88,88,1,0,5,,,,,No,
Drug,Pharmaceutical Store,,Levofloxacin (LEVOZ) 500mg,,Yes,88,88,1,0,5,,,,,No,
Drug,Pharmaceutical Store,,Levofloxacin IV 100ml,,Yes,200,200,1,0,5,,,,,No,
Drug,Pharmaceutical Store,,Levofloxacin Tabs 750mg 10s  - Livota,,Yes,400,400,1,0,5,,,,,No,
Drug,Pharmaceutical Store,,Lignocaine Injection 30ml,,Yes,30,30,1,0,5,,,,,No,
Drug,Pharmaceutical Store,,Lignocaine with Adrenaline Injection 30ml,,Yes,40,40,1,0,5,,,,,No,
Drug,Pharmaceutical Store,,Lincomycin 500mg Tablets.,,Yes,1200,1200,1,0,5,,,,,No,
Drug,Pharmaceutical Store,,Liquid parafin 100ml.,,Yes,60,60,1,0,5,,,,,No,
Drug,Pharmaceutical Store,,Lofnac Gel,,Yes,133,133,1,0,5,,,,,No,
Drug,Pharmaceutical Store,,Lofnac MR Tablets 10s,,Yes,145,145,1,0,5,,,,,No,
Drug,Pharmaceutical Store,,Lonart DS Tablets 6s,,Yes,199,199,1,0,5,,,,,No,
Drug,Pharmaceutical Store,,Lonart Suspension 60ml,,Yes,239,239,1,0,5,,,,,No,
Drug,Pharmaceutical Store,,LOPERAMIDE- Capsules (Imodium Generic) 6s,,Yes,8.8,8.8,1,0,5,,,,,No,
Drug,Pharmaceutical Store,,Loratidine Syrup 60m - Lorvic Syrup 60ml,,Yes,77,77,1,0,5,,,,,No,
Drug,Pharmaceutical Store,,Loratidine Tablets 10mg 30s- Lorvic Tablets 10mg 30s,,Yes,80,80,1,0,5,,,,,No,
Drug,Pharmaceutical Store,,Losartan HT Tablets INTAS 30s  - PINK Pkt,,Yes,899,899,1,0,5,,,,,No,
Drug,Pharmaceutical Store,,Losartas  50mg Tablets 28s -Orange Pkt,,Yes,699,699,1,0,5,,,,,No,
Drug,Pharmaceutical Store,,Losatal HL Tablets 10s,,Yes,88,88,1,0,5,,,,,No,
Drug,Pharmaceutical Store,,Lubricating Jelly - Veri-Lube 42gm,,Yes,112,112,1,0,5,,,,,No,
Drug,Pharmaceutical Store,,Lumartem Forte Tabs 6s (480/80),,Yes,99,99,1,0,5,,,,,No,
Drug,Pharmaceutical Store,,Lunahist Expectorant 100ml,,Yes,49.9,49.9,1,0,5,,,,,No,
Drug,Pharmaceutical Store,,Lunahist Expectorant 60ml,,Yes,36,36,1,0,5,,,,,No,
Drug,Pharmaceutical Store,,Malafin Tablets 500mg 30s,,Yes,349,349,1,0,5,,,,,No,
Drug,Pharmaceutical Store,,MALARIA TEST KITS 25s -  HRP2,,Yes,999,999,1,0,5,,,,,No,
Drug,Pharmaceutical Store,,Malodar Tablets 3s,,Yes,23.9,23.9,1,0,5,,,,,No,
Drug,Pharmaceutical Store,,Maramoja Tablets 100s,,Yes,388,388,1,0,5,,,,,No,
Drug,Pharmaceutical Store,,Maxidex Eye Drops 5ml.,,Yes,299,299,1,0,5,,,,,No,
Drug,Pharmaceutical Store,,Maxitrol Eye Drops 5ml.,,Yes,299,299,1,0,5,,,,,No,
Drug,Pharmaceutical Store,,Mebendazole Syrup 30ml.,,Yes,23.9,23.9,1,0,5,,,,,No,
Drug,Pharmaceutical Store,,Mebendazole Tablets 100mg 1000s,,Yes,499,499,1,0,5,,,,,No,
Drug,Pharmaceutical Store,,Medical Envelopes 1000s -VAT,,Yes,275,275,1,0,5,,,,,No,
Drug,Pharmaceutical Store,,Medikeel Lozenges Honey Lemon 16,,Yes,275,275,1,0,5,,,,,No,
Drug,Pharmaceutical Store,,Medistop Syrup 60ml,,Yes,39.9,39.9,1,0,5,,,,,No,
Drug,Pharmaceutical Store,,Mediven Cream 15Gm,,Yes,46,46,1,0,5,,,,,No,
Drug,Pharmaceutical Store,,Mediven Ointment 15gm,,Yes,47.5,47.5,1,0,5,,,,,No,
Drug,Pharmaceutical Store,,Mediven S Ointment 15gm.,,Yes,120,120,1,0,5,,,,,No,
Drug,Pharmaceutical Store,,Mefenamic Acid Capsules 250mg 100s,,Yes,89.9,89.9,1,0,5,,,,,No,
Drug,Pharmaceutical Store,,Mefnac Suspensions 60ml,,Yes,125,125,1,0,5,,,,,No,
Drug,Pharmaceutical Store,,Meloxicam - Uxim 7.5mg  Tablets 20s,,Yes,88,88,1,0,5,,,,,No,
Drug,Pharmaceutical Store,,Meloxicam 7.5mg 100s***Blister Pack ***,,Yes,295,295,1,0,5,,,,,No,
Drug,Pharmaceutical Store,,Meloxicam Tablets 15mg 50s,,Yes,279,279,1,0,5,,,,,No,
Drug,Pharmaceutical Store,,Meloxicam Tablets 7.5mg 30s - Melonac,,Yes,99,99,1,0,5,,,,,No,
Drug,Pharmaceutical Store,,Menthoplus Pain Balm 9gm,,Yes,372,372,1,0,5,,,,,No,
Drug,Pharmaceutical Store,,Metformin Tablets 500mg 100s,,Yes,79,79,1,0,5,,,,,No,
Drug,Pharmaceutical Store,,Methylated Spirit 100ml **SMALL SIZE**,,Yes,36,36,1,0,5,,,,,No,
Drug,Pharmaceutical Store,,Methylated Spirit 500 ML,,Yes,88,88,1,0,5,,,,,No,
Drug,Pharmaceutical Store,,Methyldopa Tablets 250mg 100s,,Yes,299,299,1,0,5,,,,,No,
Drug,Pharmaceutical Store,,Metoclopramide  Injection,,Yes,8.8,8.8,1,0,5,,,,,No,
Drug,Pharmaceutical Store,,Metoclopramide (Metcos) Tablets 100s,,Yes,66,66,1,0,5,,,,,No,
Drug,Pharmaceutical Store,,Metoclopramide Emeton (Anti-Vomiting) Syrup.60ml.,,Yes,59.9,59.9,1,0,5,,,,,No,
Drug,Pharmaceutical Store,,Metronidazole 200mg 100s Blister Pack,,Yes,66,66,1,0,5,,,,,No,
Drug,Pharmaceutical Store,,Metronidazole 400mg 1000s **LARGE,,Yes,699,699,1,0,5,,,,,No,
Drug,Pharmaceutical Store,,Metronidazole 400MG HIGH,,Yes,135,135,1,0,5,,,,,No,
Drug,Pharmaceutical Store,,Metronidazole Injection 100ml**IV,,Yes,26.9,26.9,1,0,5,,,,,No,
Drug,Pharmaceutical Store,,Metronidazole Suspension 60ml,,Yes,21.9,21.9,1,0,5,,,,,No,
Drug,Pharmaceutical Store,,Metronidazole syrup 100ml,,Yes,32,32,1,0,5,,,,,No,
Drug,Pharmaceutical Store,,Metronidazole Tablets 200mg 1000s,,Yes,375,375,1,0,5,,,,,No,
Drug,Pharmaceutical Store,,Metronidazole Tablets 400mg 500s,,Yes,399,399,1,0,5,,,,,No,
Drug,Pharmaceutical Store,,Miclocin MIXI Cream - MCG: Miconazole,,Yes,49.9,49.9,1,0,5,,,,,No,
Drug,Pharmaceutical Store,,Microgynon Fe Tablets 28s,,Yes,99,99,1,0,5,,,,,No,
