"Category (Stationary, Drug, Non Phamaceutical / Consumable, Dialysis Product, )","Store (Pharmaceutical Store, Procurement Store , Catering Store , General Store , Theatre Store , Laboratory, Optical Store, )",Product Code,Product Name,Unit of measure (),"Activate (Yes, No)",Charge,Charge,Pack Size,Opening Quantity,Min Reorder Level,Description,Max Reorder Level,Posting Group,Category Code,Vatable (Yes/ No),Group Code
Drug,Pharmaceutical Store,,3AM / G-Cure Kit (Azithromycin),,Yes,199,199,1,0,5,,,,,No,
Drug,Pharmaceutical Store,,Aceclofenac : PACE Tablets 10,,Yes,60,60,1,0,5,,,,,No,
Drug,Pharmaceutical Store,,Aceclofenac 100mg Tablets 10s - ACEFEN,,Yes,36,36,1,0,5,,,,,No,
Drug,Pharmaceutical Store,,Aceclofenac Tablets 30s,,Yes,77,77,1,0,5,,,,,No,
Drug,Pharmaceutical Store,,Acepar Caplets 10S,,Yes,175,175,1,0,5,,,,,No,
Drug,Pharmaceutical Store,,Acepar MR Tablets 10s,,Yes,269,269,1,0,5,,,,,No,
Drug,Pharmaceutical Store,,Acepar SP Tablets - DARK BLUE PACKET,,Yes,266,266,1,0,5,,,,,No,
Drug,Pharmaceutical Store,,Aclofre P - Aceclofenac + Paracetamol 30s,,Yes,180,180,1,0,5,,,,,No,
Drug,Pharmaceutical Store,,Acnesol Cream Tube,,Yes,199,199,1,0,5,,,,,No,
Drug,Pharmaceutical Store,,Actal Tums 100s,,Yes,399,399,1,0,5,,,,,No,
Drug,Pharmaceutical Store,,Actifed GREEN WET Expectorant,,Yes,366,366,1,0,5,,,,,No,
Drug,Pharmaceutical Store,,Actifed RED  DRYCompound Linctus,,Yes,399,399,1,0,5,,,,,No,
Drug,Pharmaceutical Store,,Action Tablets 110s,,Yes,388,388,1,0,5,,,,,No,
Drug,Pharmaceutical Store,,ACTm A-L 6s,,Yes,24,24,1,0,5,,,,,No,
Drug,Pharmaceutical Store,,Acyclovir Cream - (Davir) 10 gm,,Yes,79,79,1,0,5,,,,,No,
Drug,Pharmaceutical Store,,Acyclovir Tablets 30's - Davir 200mg,,Yes,99,99,1,0,5,,,,,No,
Drug,Pharmaceutical Store,,Acyclovir Tablets 400mg 30s,,Yes,299,299,1,0,5,,,,,No,
Drug,Pharmaceutical Store,,Adrenaline Injection Amp,,Yes,8,8,1,0,5,,,,,No,
Drug,Pharmaceutical Store,,Aerius Syrup 60 ml  SMALL SIZE BOTTLE,,Yes,399,399,1,0,5,,,,,No,
Drug,Pharmaceutical Store,,Aerius Tablets 30s,,Yes,1990,1990,1,0,5,,,,,No,
Drug,Pharmaceutical Store,,AL ACTM Tabs 24s - [GAME- AL],,Yes,90,90,1,0,5,,,,,No,
Drug,Pharmaceutical Store,,AL Syrup (Lufanart)Lufenart 60ml,,Yes,99,99,1,0,5,,,,,No,
Drug,Pharmaceutical Store,,Albasol  Tablets 2s,,Yes,30,30,1,0,5,,,,,No,
Drug,Pharmaceutical Store,,Albasol Suspension 10ml.,,Yes,30,30,1,0,5,,,,,No,
Drug,Pharmaceutical Store,,ALBEN **suspension**ALBEN SB 10ml.,,Yes,55,55,1,0,5,,,,,No,
Drug,Pharmaceutical Store,,ALBEN SB (albendazole) Tablets 400mg 1s,,Yes,55,55,1,0,5,,,,,No,
Drug,Pharmaceutical Store,,Albendazole - ABZ Suspension 400mg 10ml,,Yes,30,30,1,0,5,,,,,No,
Drug,Pharmaceutical Store,,Albendazole -- ABZ Tablets 400mg 1s,,Yes,17,17,1,0,5,,,,,No,
Drug,Pharmaceutical Store,,Albendazole  Suspension 10ml Bottle,,Yes,15,15,1,0,5,,,,,No,
Drug,Pharmaceutical Store,,Albendazole  UBENZOLE Tabs 400mg 1s,,Yes,8,8,1,0,5,,,,,No,
Drug,Pharmaceutical Store,,Allopurinol (Aleze)Tablets 100mg. 30s,,Yes,120,120,1,0,5,,,,,No,
Drug,Pharmaceutical Store,,Allopurinol Tablets 300mg,,Yes,155,155,1,0,5,,,,,No,
Drug,Pharmaceutical Store,,Alugel Suspension 100ml.,,Yes,55,55,1,0,5,,,,,No,
Drug,Pharmaceutical Store,,AM Nebilong AM Tablets - Nebivolol,,Yes,1482,1482,1,0,5,,,,,No,
Drug,Pharmaceutical Store,,Ambroxol - Ambrodil Syrup,,Yes,139,139,1,0,5,,,,,No,
Drug,Pharmaceutical Store,,Amikacin 500mg Injection,,Yes,77,77,1,0,5,,,,,No,
Drug,Pharmaceutical Store,,Aminophylline Injection amp.,,Yes,10,10,1,0,5,,,,,No,
Drug,Pharmaceutical Store,,Amlodipine 5mg Tabs Hetero,,Yes,99,99,1,0,5,,,,,No,
Drug,Pharmaceutical Store,,Amlodipine Tablets 10mg 30s (BluePack),,Yes,149,149,1,0,5,,,,,No,
Drug,Pharmaceutical Store,,Amlodipine Tablets 5mg 30s (Brown Pack),,Yes,115,115,1,0,5,,,,,No,
Drug,Pharmaceutical Store,,Amlodipine Varinil 10mg Tablets  28s,,Yes,199,199,1,0,5,,,,,No,
Drug,Pharmaceutical Store,,Amlodipine Varinil 5mg Tablets 28s,,Yes,124,124,1,0,5,,,,,No,
Drug,Pharmaceutical Store,,AMLOzaar H Tablets - GREEN Stripe 30s,,Yes,1350,1350,1,0,5,,,,,No,
Drug,Pharmaceutical Store,,AMLOzaar Tablets - Red Stripe 30s,,Yes,1250,1250,1,0,5,,,,,No,
Drug,Pharmaceutical Store,,Amoxicillin Capsules 250mg 1000s BULK,,Yes,1390,1390,1,0,5,,,,,No,
Drug,Pharmaceutical Store,,Amoxicillin Capsules 250mg 100s,,Yes,149,149,1,0,5,,,,,No,
Drug,Pharmaceutical Store,,Amoxicillin Capsules 500mg 100s,,Yes,233,233,1,0,5,,,,,No,
Drug,Pharmaceutical Store,,Amoxicillin Capsules 500mg 500s**BULK,,Yes,1290,1290,1,0,5,,,,,No,
Drug,Pharmaceutical Store,,Amoxicillin Syrup 100ml - INDIA,,Yes,35,35,1,0,5,,,,,No,
Drug,Pharmaceutical Store,,Amoxicillin Syrup 60ml - INDIA,,Yes,26,26,1,0,5,,,,,No,
Drug,Pharmaceutical Store,,Amoxil Original Syrup 125mg/5ml 100ml.,,Yes,249,249,1,0,5,,,,,No,
Drug,Pharmaceutical Store,,Ampicillin Capsules 250mg 100s,,Yes,220,220,1,0,5,,,,,No,
Drug,Pharmaceutical Store,,Ampicillin Capsules 500mg. 100s,,Yes,319,319,1,0,5,,,,,No,
Drug,Pharmaceutical Store,,Ampicillin Dry Syrup 60ml,,Yes,28,28,1,0,5,,,,,No,
Drug,Pharmaceutical Store,,Ampiclox Capsules 500mg 100s - INDIA,,Yes,339,339,1,0,5,,,,,No,
Drug,Pharmaceutical Store,,Ampiclox Generic Capsules 500mg,,Yes,1690,1690,1,0,5,,,,,No,
Drug,Pharmaceutical Store,,Ampiclox Generic Neonatal Drops 10ML,,Yes,43,43,1,0,5,,,,,No,
Drug,Pharmaceutical Store,,Ampiclox Suspension 100ml INDIA,,Yes,53,53,1,0,5,,,,,No,
Drug,Pharmaceutical Store,,Ampiclox Suspension 60ml INDIA,,Yes,33,33,1,0,5,,,,,No,
Drug,Pharmaceutical Store,,ANGIzaar 50mg Tablets 30s,,Yes,490,490,1,0,5,,,,,No,
Drug,Pharmaceutical Store,,ANGIzaar H Tablets,,Yes,269,269,1,0,5,,,,,No,
Drug,Pharmaceutical Store,,Anomex Suppositories,,Yes,199,199,1,0,5,,,,,No,
Drug,Pharmaceutical Store,,Antacid Mixture 500ml.,,Yes,88,88,1,0,5,,,,,No,
Drug,Pharmaceutical Store,,Antacid Mixture 5Ltr.,,Yes,480,480,1,0,5,,,,,No,
Drug,Pharmaceutical Store,,Antacid Suspension 100ml,,Yes,30,30,1,0,5,,,,,No,
Drug,Pharmaceutical Store,,Antacid Tablets 1000s,,Yes,269,269,1,0,5,,,,,No,
Drug,Pharmaceutical Store,,Antihistamine Cream -  (Histargan/Antihist),,Yes,30,30,1,0,5,,,,,No,
Drug,Pharmaceutical Store,,Antirabies - VACCINE  Vial,,Yes,699,699,1,0,5,,,,,No,
Drug,Pharmaceutical Store,,Anusol Ointment 25gm,,Yes,699,699,1,0,5,,,,,No,
Drug,Pharmaceutical Store,,Anusol Suppositories 10s,,Yes,699,699,1,0,5,,,,,No,
Drug,Pharmaceutical Store,,APC Tablets *100s **BLISTER PACK**,,Yes,80,80,1,0,5,,,,,No,
Drug,Pharmaceutical Store,,APC Tablets 500s,,Yes,239,239,1,0,5,,,,,No,
Drug,Pharmaceutical Store,,Artemether 40mg Inj.6s - GENERIC,,Yes,133,133,1,0,5,,,,,No,
Drug,Pharmaceutical Store,,Artemether Injection 80mg 6s,,Yes,99,99,1,0,5,,,,,No,
Drug,Pharmaceutical Store,,Artequick Tablets 4s,,Yes,379,379,1,0,5,,,,,No,
Drug,Pharmaceutical Store,,Artesun 120mg Injection,,Yes,2150,2150,1,0,5,,,,,No,
Drug,Pharmaceutical Store,,Artesun 30mg Injection *****,,Yes,840,840,1,0,5,,,,,No,
Drug,Pharmaceutical Store,,Artesun Injection 60mg 5amps,,Yes,1195,1195,1,0,5,,,,,No,
Drug,Pharmaceutical Store,,Artesunate 60mg Injection - Lysunate,,Yes,149,149,1,0,5,,,,,No,
Drug,Pharmaceutical Store,,ASAQ (25/67.5mg) Infant: PINK 3s  ACTm,,Yes,27,27,1,0,5,,,,,No,
Drug,Pharmaceutical Store,,ASAQ (50/135) Toddler: PURPLE 3s ACTm,,Yes,30,30,1,0,5,,,,,No,
Drug,Pharmaceutical Store,,ASAQ (Artesunate/Amodiaq),,Yes,50,50,1,0,5,,,,,No,
Drug,Pharmaceutical Store,,ASAQ (Artesunate/Amodiaq) Child: BLUE,,Yes,40,40,1,0,5,,,,,No,
Drug,Pharmaceutical Store,,Ascard 75 Tablets 30s,,Yes,82,82,1,0,5,,,,,No,
Drug,Pharmaceutical Store,,Ascoril **D** Expectorant 100ml,,Yes,291,291,1,0,5,,,,,No,
Drug,Pharmaceutical Store,,Ascoril Expectorant Syrup 100ml.,,Yes,177,177,1,0,5,,,,,No,
Drug,Pharmaceutical Store,,Ashtons and Parsons Powder  20s,,Yes,369,369,1,0,5,,,,,No,
Drug,Pharmaceutical Store,,Aspirin Tablets 300mg.1000s,,Yes,299,299,1,0,5,,,,,No,
Drug,Pharmaceutical Store,,Astymin Syrup 200ml,,Yes,360,360,1,0,5,,,,,No,
Drug,Pharmaceutical Store,,Atenolol Tablets 50mg- UK  28s (alpharma),,Yes,99,99,1,0,5,,,,,No,
Drug,Pharmaceutical Store,,ATM Tablets 500mg (Azithromycin) 3s,,Yes,233,233,1,0,5,,,,,No,
Drug,Pharmaceutical Store,,Atorvastatin 10mg Tabs 30s - Lipideal,,Yes,149,149,1,0,5,,,,,No,
Drug,Pharmaceutical Store,,Atorvastatin 20mg : Lolip 20mg Tablets 30s,,Yes,399,399,1,0,5,,,,,No,
Drug,Pharmaceutical Store,,Atorvastatin 20mg Tablets (AVAS) 30s,,Yes,299,299,1,0,5,,,,,No,
Drug,Pharmaceutical Store,,Atorvastatin Tablets 20mg 30s -,,Yes,169,169,1,0,5,,,,,No,
Drug,Pharmaceutical Store,,Augmentin 228mg/5ml Syrup (GSK)70ml,,Yes,569,569,1,0,5,,,,,No,
Drug,Pharmaceutical Store,,Augmentin Tablets  625mg 14s,,Yes,1270,1270,1,0,5,,,,,No,
Drug,Pharmaceutical Store,,Axe Oil (Chapa Shoka) Dozen,,Yes,999,999,1,0,5,,,,,No,
Drug,Pharmaceutical Store,,Azithromycin Suspension 15ml - Azilin,,Yes,50,50,1,0,5,,,,,No,
Drug,Pharmaceutical Store,,Azithromycin Suspension 15ml Aziagio,,Yes,28,28,1,0,5,,,,,No,
Drug,Pharmaceutical Store,,Azithromycin Tablets 500mg 3s (Zerocin,,Yes,34,34,1,0,5,,,,,No,
Drug,Pharmaceutical Store,,Beclomin Ointment 15gm.,,Yes,144,144,1,0,5,,,,,No,
Drug,Pharmaceutical Store,,Benylin 4 Flu Syrup 200ml,,Yes,640,640,1,0,5,,,,,No,
Drug,Pharmaceutical Store,,Benylin Chesty syrup. 100ml BLUE,,Yes,399,399,1,0,5,,,,,No,
Drug,Pharmaceutical Store,,Benylin Dry Cough 100ml. GREEN,,Yes,399,399,1,0,5,,,,,No,
Drug,Pharmaceutical Store,,Benylin Original 100ml. PURPLE,,Yes,399,399,1,0,5,,,,,No,
Drug,Pharmaceutical Store,,Benylin Paediatric Syrup 100ml.ORANGE,,Yes,399,399,1,0,5,,,,,No,
Drug,Pharmaceutical Store,,Benylin With Codeine syrup.100ml.RED,,Yes,449,449,1,0,5,,,,,No,
Drug,Pharmaceutical Store,,Benzathine  2.4 Injection Vial,,Yes,23,23,1,0,5,,,,,No,
Drug,Pharmaceutical Store,,Benzyl Benzoate 25% 100ml   SCABSOL,,Yes,40,40,1,0,5,,,,,No,
Drug,Pharmaceutical Store,,Beta Gripe 50ml - NON RETURNABLE -,,Yes,10,10,1,0,5,,,,,No,
Drug,Pharmaceutical Store,,Beta Gripe Water  50ml.,,Yes,70,70,1,0,5,,,,,No,
Drug,Pharmaceutical Store,,Beta Gripe Water 100ml.,,Yes,80,80,1,0,5,,,,,No,
Drug,Pharmaceutical Store,,Betacor Plus Tablets 30s ( Betamethasone,,Yes,199,199,1,0,5,,,,,No,
Drug,Pharmaceutical Store,,Betadine Antiseptic Solution.125ml.,,Yes,399,399,1,0,5,,,,,No,
Drug,Pharmaceutical Store,,Betadine Mouthwash. 125ml.,,Yes,499,499,1,0,5,,,,,No,
Drug,Pharmaceutical Store,,Betapyn generic -- Pynstop Tabs 20's,,Yes,180,180,1,0,5,,,,,No,
Drug,Pharmaceutical Store,,Betapyn Tablets 18s,,Yes,277,277,1,0,5,,,,,No,
Drug,Pharmaceutical Store,,Betason Cream 15gm.,,Yes,30,30,1,0,5,,,,,No,
Drug,Pharmaceutical Store,,Betason Ointment 15gm.,,Yes,30,30,1,0,5,,,,,No,
Drug,Pharmaceutical Store,,Bio Oil  60ml.,,Yes,575,575,1,0,5,,,,,No,
Drug,Pharmaceutical Store,,Biogras 10*10cm.,,Yes,399,399,1,0,5,,,,,No,
Drug,Pharmaceutical Store,,Bisacodyl Tablets 100s,,Yes,99,99,1,0,5,,,,,No,
Drug,Pharmaceutical Store,,Blood Giving Set,,Yes,20,20,1,0,5,,,,,No,
Drug,Pharmaceutical Store,,Bonisan Syrup 120ml,,Yes,249,249,1,0,5,,,,,No,
Drug,Pharmaceutical Store,,Bromsal Expectorant 100ml,,Yes,99,99,1,0,5,,,,,No,
Drug,Pharmaceutical Store,,Broxol Syrup,,Yes,149,149,1,0,5,,,,,No,
Drug,Pharmaceutical Store,,Brozedex Syrup 100ml.,,Yes,160,160,1,0,5,,,,,No,
Drug,Pharmaceutical Store,,Brozelin Expectorant Syrup 100ml,,Yes,220,220,1,0,5,,,,,No,
Drug,Pharmaceutical Store,,Brustan Suspension 100ml,,Yes,255,255,1,0,5,,,,,No,
Drug,Pharmaceutical Store,,Brustan Tablets 10s,,Yes,99,99,1,0,5,,,,,No,
Drug,Pharmaceutical Store,,Bulkot B Cream,,Yes,36,36,1,0,5,,,,,No,
Drug,Pharmaceutical Store,,Bulkot Cream 20gm,,Yes,22,22,1,0,5,,,,,No,
Drug,Pharmaceutical Store,,Bulkot Mixi Cream  20gm.,,Yes,99,99,1,0,5,,,,,No,
Drug,Pharmaceutical Store,,Buscopan PLUS Tablets 50s,,Yes,1299,1299,1,0,5,,,,,No,
Drug,Pharmaceutical Store,,Byofer Blood Builder 200ml,,Yes,159,159,1,0,5,,,,,No,
Drug,Pharmaceutical Store,,Cadiphen Syrup 100ml.,,Yes,129,129,1,0,5,,,,,No,
Drug,Pharmaceutical Store,,Cadistin Expectorant Syrup 100ml.,,Yes,129,129,1,0,5,,,,,No,
Drug,Pharmaceutical Store,,Calamine Lotion  100ml.,,Yes,30,30,1,0,5,,,,,No,
Drug,Pharmaceutical Store,,CALCIGARD Retard 20mg,,Yes,199,199,1,0,5,,,,,No,
Drug,Pharmaceutical Store,,Calpol Infant Suspension. 60ml.,,Yes,175,175,1,0,5,,,,,No,
Drug,Pharmaceutical Store,,Calpol Infant Suspension.100ml,,Yes,259,259,1,0,5,,,,,No,
Drug,Pharmaceutical Store,,Candid  V3 Pessaries 3s,,Yes,299,299,1,0,5,,,,,No,
Drug,Pharmaceutical Store,,Candid  V6 Pessaries 6s,,Yes,341,341,1,0,5,,,,,No,
Drug,Pharmaceutical Store,,Candid B Cream 15gm,,Yes,161,161,1,0,5,,,,,No,
Drug,Pharmaceutical Store,,Candid Mouth Paint  15ml.,,Yes,150,150,1,0,5,,,,,No,
Drug,Pharmaceutical Store,,Candid Powder 30gm,,Yes,204,204,1,0,5,,,,,No,
Drug,Pharmaceutical Store,,Candid V1 Pessaries 1s,,Yes,240,240,1,0,5,,,,,No,
Drug,Pharmaceutical Store,,Candizole 150mg Capsules ( Fluconazole ),,Yes,33,33,1,0,5,,,,,No,
Drug,Pharmaceutical Store,,Canullas G18 Piece ( GREEN ),,Yes,13,13,1,0,5,,,,,No,
Drug,Pharmaceutical Store,,Canullas G20 Piece ( PINK ),,Yes,13,13,1,0,5,,,,,No,
Drug,Pharmaceutical Store,,Canullas G22 Piece (BLUE),,Yes,13,13,1,0,5,,,,,No,
Drug,Pharmaceutical Store,,Canullas G24 Piece ( YELLOW),,Yes,14,14,1,0,5,,,,,No,
Drug,Pharmaceutical Store,,Carbamazepine Tablets 200mg 100s,,Yes,199,199,1,0,5,,,,,No,
Drug,Pharmaceutical Store,,Cardinol Tablets  50mg 28s,,Yes,99,99,1,0,5,,,,,No,
Drug,Pharmaceutical Store,,Cardisprin Tablets 75mg.,,Yes,77,77,1,0,5,,,,,No,
Drug,Pharmaceutical Store,,Carditan 50mg Tablets 28s -Losartan,,Yes,129,129,1,0,5,,,,,No,
Drug,Pharmaceutical Store,,Carditan H Tablets 28s,,Yes,139,139,1,0,5,,,,,No,
Drug,Pharmaceutical Store,,CARVEDILOL 6.25mg Tabs ( Vidol) 28s,,Yes,199,199,1,0,5,,,,,No,
Drug,Pharmaceutical Store,,Castor Oil 50ml,,Yes,49,49,1,0,5,,,,,No,
Drug,Pharmaceutical Store,,Cataflam 50mg Tablets 10s,,Yes,475,475,1,0,5,,,,,No,
Drug,Pharmaceutical Store,,Catgut  Chromic RB 2/0 per DOZEN,,Yes,399,399,1,0,5,,,,,No,
Drug,Pharmaceutical Store,,Catgut Chromic  2/0 Reverse cutting 35mm.,,Yes,399,399,1,0,5,,,,,No,
Drug,Pharmaceutical Store,,CatoxyMag N Syrup 200ml,,Yes,189,189,1,0,5,,,,,No,
Drug,Pharmaceutical Store,,Caustic Pencil 40% - RED,,Yes,140,140,1,0,5,,,,,No,
Drug,Pharmaceutical Store,,Caustic Pencil 95% - BLUE,,Yes,188,188,1,0,5,,,,,No,
Drug,Pharmaceutical Store,,Cefadroxil 125mg/5ml Syrup ( Cexil /,,Yes,199,199,1,0,5,,,,,No,
Drug,Pharmaceutical Store,,Cefixime (Ceebay) Syrup  100ml,,Yes,299,299,1,0,5,,,,,No,
Drug,Pharmaceutical Store,,Cefixime Tablets 200mg 10s,,Yes,220,220,1,0,5,,,,,No,
Drug,Pharmaceutical Store,,Cefixime Tablets 400mg 10s,,Yes,199,199,1,0,5,,,,,No,
Drug,Pharmaceutical Store,,Ceftriaxone Injection 1gm - INDIA,,Yes,30,30,1,0,5,,,,,No,
Drug,Pharmaceutical Store,,Ceftriaxone Injection and Salbactam 0.5gm,,Yes,150,150,1,0,5,,,,,No,
Drug,Pharmaceutical Store,,Ceftriaxone LOOSE PACK Injection,,Yes,27,27,1,0,5,,,,,No,
Drug,Pharmaceutical Store,,Cefuroxime 750mg Injection  INJroxime,,Yes,99,99,1,0,5,,,,,No,
Drug,Pharmaceutical Store,,Cefuroxime Suspension 125MG/5ML,,Yes,299,299,1,0,5,,,,,No,
Drug,Pharmaceutical Store,,Cefuroxime Syrup 125mg / 5ml 60ml,,Yes,299,299,1,0,5,,,,,No,
Drug,Pharmaceutical Store,,Cefuroxime Tablets 250mg 10s,,Yes,199,199,1,0,5,,,,,No,
Drug,Pharmaceutical Store,,Cefuroxime Tabs 500mg 10s,,Yes,199,199,1,0,5,,,,,No,
Drug,Pharmaceutical Store,,Celcoxx Capsules 200mg. 50s,,Yes,1770,1770,1,0,5,,,,,No,
Drug,Pharmaceutical Store,,Celestamine Tablets 30s,,Yes,399,399,1,0,5,,,,,No,
Drug,Pharmaceutical Store,,Cephalexin Capsules 250mg 100S,,Yes,399,399,1,0,5,,,,,No,
Drug,Pharmaceutical Store,,Cephalexin Capsules 500mg 100s,,Yes,566,566,1,0,5,,,,,No,
Drug,Pharmaceutical Store,,Cephalexin Dry Syrup 100ml,,Yes,74,74,1,0,5,,,,,No,
Drug,Pharmaceutical Store,,Ceprolen D eye ear drop.,,Yes,279,279,1,0,5,,,,,No,
Drug,Pharmaceutical Store,,Cetamol syrup 100ml,,Yes,70,70,1,0,5,,,,,No,
Drug,Pharmaceutical Store,,Cetamol Syrup 60ml.,,Yes,50,50,1,0,5,,,,,No,
Drug,Pharmaceutical Store,,Cetrizine Syrup 60ML - CETRIZ,,Yes,26,26,1,0,5,,,,,No,
Drug,Pharmaceutical Store,,Cetrizine Tablets 100s  LARGE PACK,,Yes,45,45,1,0,5,,,,,No,
Drug,Pharmaceutical Store,,Cezen Tablets 10mg 10s,,Yes,32,32,1,0,5,,,,,No,
Drug,Pharmaceutical Store,,Chloramphenicol Capsules 250mg 100s,,Yes,325,325,1,0,5,,,,,No,
Drug,Pharmaceutical Store,,Chloramphenicol Ear drops 10ml,,Yes,36,36,1,0,5,,,,,No,
Drug,Pharmaceutical Store,,Chloramphenicol Eye drops 10ml,,Yes,20,20,1,0,5,,,,,No,
Drug,Pharmaceutical Store,,Chloramphenicol Injection,,Yes,59,59,1,0,5,,,,,No,
Drug,Pharmaceutical Store,,Chloramphenicol Suspension  60ml,,Yes,38,38,1,0,5,,,,,No,
Drug,Pharmaceutical Store,,Chloramphenicol Suspension 100ml,,Yes,65,65,1,0,5,,,,,No,
Drug,Pharmaceutical Store,,Chlorpromazine Tablets 100mg.,,Yes,188,188,1,0,5,,,,,No,
Drug,Pharmaceutical Store,,Cimetidine Tablets 400mg 100s,,Yes,166,166,1,0,5,,,,,No,
Drug,Pharmaceutical Store,,Ciprofloxacin 500mg Tablets 10s -,,Yes,22,22,1,0,5,,,,,No,
Drug,Pharmaceutical Store,,Ciprofloxacin Eye Drops (Generic) 5ml,,Yes,99,99,1,0,5,,,,,No,
Drug,Pharmaceutical Store,,Ciprofloxacin I V 100ml Injection,,Yes,60,60,1,0,5,,,,,No,
Drug,Pharmaceutical Store,,Ciprofloxacin Tablets 500mg 100s,,Yes,229,229,1,0,5,,,,,No,
Drug,Pharmaceutical Store,,Ciprointa Tablets 500mg 10s,,Yes,88,88,1,0,5,,,,,No,
Drug,Pharmaceutical Store,,Cital Syrup 100ml.,,Yes,205,205,1,0,5,,,,,No,
Drug,Pharmaceutical Store,,Clarithromycin - Clariwin tablets 500mg.,,Yes,266,266,1,0,5,,,,,No,
Drug,Pharmaceutical Store,,Clindamycin 150mg Capsules 100s,,Yes,699,699,1,0,5,,,,,No,
Drug,Pharmaceutical Store,,Clindamycin 300mg Capsules 100s,,Yes,1299,1299,1,0,5,,,,,No,
Drug,Pharmaceutical Store,,Clith 500mg 10s,,Yes,299,299,1,0,5,,,,,No,
Drug,Pharmaceutical Store,,Clob B Cream 15gm.,,Yes,69,69,1,0,5,,,,,No,
Drug,Pharmaceutical Store,,Clopidogrel - Cosgrel 75mg Tabs,,Yes,299,299,1,0,5,,,,,No,
Drug,Pharmaceutical Store,,Clotrimazole Cream Tube,,Yes,16,16,1,0,5,,,,,No,
Drug,Pharmaceutical Store,,Clotrimazole Mouth Paint 15ml -  Labesten,,Yes,40,40,1,0,5,,,,,No,
Drug,Pharmaceutical Store,,Clotrimazole Pessaries 6s (Generic),,Yes,20,20,1,0,5,,,,,No,
Drug,Pharmaceutical Store,,Clotrine B Cream 20gm,,Yes,37,37,1,0,5,,,,,No,
Drug,Pharmaceutical Store,,Clotrine Mouthpaint 10ml,,Yes,40,40,1,0,5,,,,,No,
Drug,Pharmaceutical Store,,Cloxacillin Capsules 250mg 100s,,Yes,199,199,1,0,5,,,,,No,
Drug,Pharmaceutical Store,,Cloxacillin Syrup 100ml,,Yes,48,48,1,0,5,,,,,No,
Drug,Pharmaceutical Store,,Clozole  B Cream 15gm ORANGE,,Yes,70,70,1,0,5,,,,,No,
Drug,Pharmaceutical Store,,Co-Amoxicalv 1.2gm Inj Injmentin  Vial,,Yes,180,180,1,0,5,,,,,No,
Drug,Pharmaceutical Store,,Co-Amoxiclav - BACTOCLAV Tabs,,Yes,222,222,1,0,5,,,,,No,
Drug,Pharmaceutical Store,,Co-Amoxiclav 228mg Syrup  70ml,,Yes,122,122,1,0,5,,,,,No,
Drug,Pharmaceutical Store,,Co-Amoxiclav 625mg 10s - Blue Pack,,Yes,110,110,1,0,5,,,,,No,
Drug,Pharmaceutical Store,,Co-Amoxiclav: Bactoclav Tabs,,Yes,299,299,1,0,5,,,,,No,
Drug,Pharmaceutical Store,,Co-Amoxiclav: Dioclav 1GM Tablets,,Yes,66,66,1,0,5,,,,,No,
Drug,Pharmaceutical Store,,Co-Arinate FDC  Tablets ADULT 3s,,Yes,399,399,1,0,5,,,,,No,
Drug,Pharmaceutical Store,,Cofrid Tablets 100s,,Yes,185,185,1,0,5,,,,,No,
Drug,Pharmaceutical Store,,Cofta Tabs,,Yes,435,435,1,0,5,,,,,No,
Drug,Pharmaceutical Store,,COLD FLU Capsules 12s - ELYS-,,Yes,40,40,1,0,5,,,,,No,
Drug,Pharmaceutical Store,,ColdCap ORIGINAL 12s,,Yes,80,80,1,0,5,,,,,No,
Drug,Pharmaceutical Store,,Coldcap Syrup 100ml,,Yes,75,75,1,0,5,,,,,No,
Drug,Pharmaceutical Store,,Coldflu TINS -PINK-  Capsules. 500s,,Yes,760,760,1,0,5,,,,,No,
Drug,Pharmaceutical Store,,Cord Clamps Umblical,,Yes,7,7,1,0,5,,,,,No,
Drug,Pharmaceutical Store,,Coscof C Linctus Syrup. 100ml. CD,,Yes,149,149,1,0,5,,,,,No,
Drug,Pharmaceutical Store,,Coscof C Linctus Syrup. 60ml.  CD,,Yes,99,99,1,0,5,,,,,No,
Drug,Pharmaceutical Store,,Cotrimoxazole DOUBLE STRENGTH 100s,,Yes,239,239,1,0,5,,,,,No,
Drug,Pharmaceutical Store,,Cotrimoxazole Syrup 100ml.,,Yes,32,32,1,0,5,,,,,No,
Drug,Pharmaceutical Store,,Cotrimoxazole Syrup 5 Ltrs,,Yes,880,880,1,0,5,,,,,No,
Drug,Pharmaceutical Store,,Cotrimoxazole Syrup 500ml.,,Yes,120,120,1,0,5,,,,,No,
Drug,Pharmaceutical Store,,Cotrimoxazole Syrup 50ml.,,Yes,22,22,1,0,5,,,,,No,
Drug,Pharmaceutical Store,,Cotrimoxazole Tablets 1000s,,Yes,888,888,1,0,5,,,,,No,
Drug,Pharmaceutical Store,,Cotrimoxazole Tablets 100s** small pack**,,Yes,110,110,1,0,5,,,,,No,
Drug,Pharmaceutical Store,,Cotton Wool 100gms -  GREEN,,Yes,45,45,1,0,5,,,,,No,
Drug,Pharmaceutical Store,,Cotton Wool 200gms - BLUE,,Yes,80,80,1,0,5,,,,,No,
Drug,Pharmaceutical Store,,Cotton Wool 400gms - PINK,,Yes,166,166,1,0,5,,,,,No,
Drug,Pharmaceutical Store,,Cotton Wool 50gms -YELLOW,,Yes,22,22,1,0,5,,,,,No,
Drug,Pharmaceutical Store,,Cough Syrup 500ml -BLACK,,Yes,55,55,1,0,5,,,,,No,
Drug,Pharmaceutical Store,,Cough Syrup 500ml -GREEN - 500ml,,Yes,55,55,1,0,5,,,,,No,
Drug,Pharmaceutical Store,,Cough Syrup 5Ltr - BLACK,,Yes,410,410,1,0,5,,,,,No,
Drug,Pharmaceutical Store,,Cough Syrup Syrup 5 Ltr - Green,,Yes,410,410,1,0,5,,,,,No,
Drug,Pharmaceutical Store,,CPM Syrup  5L,,Yes,288,288,1,0,5,,,,,No,
Drug,Pharmaceutical Store,,CPM Syrup ( BIG BOTTLE) 100ml,,Yes,30,30,1,0,5,,,,,No,
Drug,Pharmaceutical Store,,CPM Syrup 500ml,,Yes,50,50,1,0,5,,,,,No,
Drug,Pharmaceutical Store,,CPM Syrup 60ml.,,Yes,19,19,1,0,5,,,,,No,
Drug,Pharmaceutical Store,,CPM Tablets1000s,,Yes,70,70,1,0,5,,,,,No,
Drug,Pharmaceutical Store,,Crepe bandages 2 Inch  - RED  5cm,,Yes,15,15,1,0,5,,,,,No,
Drug,Pharmaceutical Store,,Crepe Bandages 3 Inch - GREEN 7.5 cm,,Yes,20,20,1,0,5,,,,,No,
Drug,Pharmaceutical Store,,Crepe Bandages 4 Inch. - ORANGE 10cm,,Yes,25,25,1,0,5,,,,,No,
Drug,Pharmaceutical Store,,Crepe bandages 6 Inch - BLUE 15cm,,Yes,50,50,1,0,5,,,,,No,
Drug,Pharmaceutical Store,,Cyclopam P Tablets 20s,,Yes,188,188,1,0,5,,,,,No,
Drug,Pharmaceutical Store,,Cyclopam Suspension.,,Yes,140,140,1,0,5,,,,,No,
Drug,Pharmaceutical Store,,Cypon Syrup 100ml  - RED BOTTLES,,Yes,139,139,1,0,5,,,,,No,
Drug,Pharmaceutical Store,,Daboral syrup - AMINOSIDINE,,Yes,199,199,1,0,5,,,,,No,
Drug,Pharmaceutical Store,,Dacof dry BLUE syrup. 100ml,,Yes,118,118,1,0,5,,,,,No,
Drug,Pharmaceutical Store,,Dacof expectorant GREEN syrup.,,Yes,118,118,1,0,5,,,,,No,
Drug,Pharmaceutical Store,,Dacof mucolytic RED syrup. 100ml,,Yes,129,129,1,0,5,,,,,No,
Drug,Pharmaceutical Store,,Dacof Paediatric PINK syrup. 100ml,,Yes,118,118,1,0,5,,,,,No,
Drug,Pharmaceutical Store,,Dacold Capsules 10s- For Cold and Flu,,Yes,38,38,1,0,5,,,,,No,
Drug,Pharmaceutical Store,,Daflon 500mg Tablets 30s,,Yes,660,660,1,0,5,,,,,No,
Drug,Pharmaceutical Store,,Darrows Half Strength Solution 500ml.,,Yes,59,59,1,0,5,,,,,No,
Drug,Pharmaceutical Store,,D-Artep Tabs 40mg/320mg 9s -,,Yes,199,199,1,0,5,,,,,No,
Drug,Pharmaceutical Store,,Dawahist suspension 100ml.,,Yes,45,45,1,0,5,,,,,No,
Drug,Pharmaceutical Store,,Dawahist syrup 60ml.,,Yes,34,34,1,0,5,,,,,No,
Drug,Pharmaceutical Store,,Dawanol Tablets 100s,,Yes,319,319,1,0,5,,,,,No,
Drug,Pharmaceutical Store,,Dazole B Cream  ( Clotrimazole Cream +,,Yes,50,50,1,0,5,,,,,No,
Drug,Pharmaceutical Store,,Deep Heat Rub 15gm,,Yes,179,179,1,0,5,,,,,No,
Drug,Pharmaceutical Store,,Deep Heat Rub 35gm,,Yes,225,225,1,0,5,,,,,No,
Drug,Pharmaceutical Store,,Deep Heat Spray 150ml.,,Yes,479,479,1,0,5,,,,,No,
Drug,Pharmaceutical Store,,Deflam Pain relief Rub  Tube,,Yes,75,75,1,0,5,,,,,No,
Drug,Pharmaceutical Store,,Delased CHESTY Non Drowsy 100ml,,Yes,99,99,1,0,5,,,,,No,
Drug,Pharmaceutical Store,,Delased Chesty Syrup 100ml PINK,,Yes,99,99,1,0,5,,,,,No,
Drug,Pharmaceutical Store,,Delased DRY Non Drowsy 100ml,,Yes,99,99,1,0,5,,,,,No,
Drug,Pharmaceutical Store,,Delased Dry Syrup 100ml BLUE,,Yes,99,99,1,0,5,,,,,No,
Drug,Pharmaceutical Store,,Delased Paediatric Syrup 100ml LIGHT,,Yes,99,99,1,0,5,,,,,No,
Drug,Pharmaceutical Store,,Dexamethasone Injection Amp - INDIA,,Yes,10,10,1,0,5,,,,,No,
Drug,Pharmaceutical Store,,Dextracin Eye Drops. 5ml,,Yes,169,169,1,0,5,,,,,No,
Drug,Pharmaceutical Store,,Dextrose 10% 500ml.,,Yes,55,55,1,0,5,,,,,No,
Drug,Pharmaceutical Store,,Dextrose 5%  500ml.,,Yes,44,44,1,0,5,,,,,No,
Drug,Pharmaceutical Store,,Dextrose 50% 100ml.,,Yes,79,79,1,0,5,,,,,No,
Drug,Pharmaceutical Store,,Diagone Kits (ORS + ZINC),,Yes,33,33,1,0,5,,,,,No,
Drug,Pharmaceutical Store,,Diamicron MR 60mg. Tablets.,,Yes,1470,1470,1,0,5,,,,,No,
Drug,Pharmaceutical Store,,Dibonis Tablets 112s **LARGE PACK,,Yes,335,335,1,0,5,,,,,No,
Drug,Pharmaceutical Store,,Diclofenac Gel 20gm,,Yes,20,20,1,0,5,,,,,No,
Drug,Pharmaceutical Store,,Diclofenac Injection ** LONG EXPIRY **,,Yes,7,7,1,0,5,,,,,No,
Drug,Pharmaceutical Store,,Diclofenac SR Tabs 100mg  100s,,Yes,67,67,1,0,5,,,,,No,
Drug,Pharmaceutical Store,,Diclofenac Tablets 50mg 100s,,Yes,37,37,1,0,5,,,,,No,
Drug,Pharmaceutical Store,,Diclofenac Tablets EC 100 mg,,Yes,60,60,1,0,5,,,,,No,
Drug,Pharmaceutical Store,,Diclomol SR tablets 100mg 100s,,Yes,375,375,1,0,5,,,,,No,
Drug,Pharmaceutical Store,,DIGOXIN 250mcg 100s LARGE PACK,,Yes,260,260,1,0,5,,,,,No,
Drug,Pharmaceutical Store,,Diloxanide + Metronidazole (Eflaron Plus /,,Yes,99,99,1,0,5,,,,,No,
Drug,Pharmaceutical Store,,Dinac Tablets 50mg - Diclofenac,,Yes,40,40,1,0,5,,,,,No,
Drug,Pharmaceutical Store,,Diprofos Injection Amp 2ml,,Yes,625,625,1,0,5,,,,,No,
Drug,Pharmaceutical Store,,Dira Cip M Suspension,,Yes,149,149,1,0,5,,,,,No,
Drug,Pharmaceutical Store,,Dira DS Diracip - M- DS Tabs 15s,,Yes,159,159,1,0,5,,,,,No,
Drug,Pharmaceutical Store,,Dira-Cip M Tablets 30s,,Yes,149,149,1,0,5,,,,,No,
Drug,Pharmaceutical Store,,Doloact MR Tablets 800mg 100s,,Yes,1990,1990,1,0,5,,,,,No,
Drug,Pharmaceutical Store,,Domperidone Suspension.30ml.,,Yes,120,120,1,0,5,,,,,No,
Drug,Pharmaceutical Store,,Doxycycline Capsules 100s,,Yes,160,160,1,0,5,,,,,No,
Drug,Pharmaceutical Store,,Drez Ointment,,Yes,125,125,1,0,5,,,,,No,
Drug,Pharmaceutical Store,,DTS-Z Combipack ( ORS + Zinc),,Yes,45,45,1,0,5,,,,,No,
Drug,Pharmaceutical Store,,Duo Cotecxin Tabs 9s,,Yes,349,349,1,0,5,,,,,No,
Drug,Pharmaceutical Store,,DuoTab ( Generic Duo Cotecxin) 9s,,Yes,159,159,1,0,5,,,,,No,
Drug,Pharmaceutical Store,,Dyrasun Suspension 100ml - (Metronidazole,,Yes,99,99,1,0,5,,,,,No,
Drug,Pharmaceutical Store,,E Emergency Pill,,Yes,20,20,1,0,5,,,,,No,
Drug,Pharmaceutical Store,,E.ntamaxin Suspension 100ml.,,Yes,88,88,1,0,5,,,,,No,
Drug,Pharmaceutical Store,,Ecee 2 Tablets 2s - Emergency Pill,,Yes,34,34,1,0,5,,,,,No,
Drug,Pharmaceutical Store,,Elastoplast- Fabric Plasters Generic,,Yes,99,99,1,0,5,,,,,No,
Drug,Pharmaceutical Store,,Elycort (Hydrocortisone) Cream 15gm,,Yes,55,55,1,0,5,,,,,No,
Drug,Pharmaceutical Store,,Elyvate Cream 15gm.,,Yes,50,50,1,0,5,,,,,No,
Drug,Pharmaceutical Store,,Enalapril 10mg Tablets 100s,,Yes,120,120,1,0,5,,,,,No,
Drug,Pharmaceutical Store,,Enalapril 5mg Tablets 100s,,Yes,110,110,1,0,5,,,,,No,
Drug,Pharmaceutical Store,,Eno Lemon. 48s,,Yes,499,499,1,0,5,,,,,No,
Drug,Pharmaceutical Store,,Entamaxin 60ml Suspension,,Yes,63,63,1,0,5,,,,,No,
Drug,Pharmaceutical Store,,Entamaxin Capsules 30s,,Yes,199,199,1,0,5,,,,,No,
Drug,Pharmaceutical Store,,Ephedrine Adult Nasal Drops 10ml.,,Yes,40,40,1,0,5,,,,,No,
Drug,Pharmaceutical Store,,Ephedrine Paediatric Nasal Drops 10ml.,,Yes,40,40,1,0,5,,,,,No,
Drug,Pharmaceutical Store,,Epibalin Caps 75mg 30s,,Yes,799,799,1,0,5,,,,,No,
Drug,Pharmaceutical Store,,Erostin 10mg Tablets 10s,,Yes,299,299,1,0,5,,,,,No,
Drug,Pharmaceutical Store,,Erostin Syrup 60ml,,Yes,429,429,1,0,5,,,,,No,
Drug,Pharmaceutical Store,,Erythromycin 250mg Tablets 100s,,Yes,255,255,1,0,5,,,,,No,
Drug,Pharmaceutical Store,,Erythromycin 500mg Tablets 100s,,Yes,466,466,1,0,5,,,,,No,
Drug,Pharmaceutical Store,,Erythromycin Dry Syrup 100ml,,Yes,50,50,1,0,5,,,,,No,
Drug,Pharmaceutical Store,,Erythromycin Dry Syrup 60ml,,Yes,40,40,1,0,5,,,,,No,
Drug,Pharmaceutical Store,,Esclam Tablets -Red/White CIPLA,,Yes,2544,2544,1,0,5,,,,,No,
Drug,Pharmaceutical Store,,Esomeprazole 20 mg Caps 30s,,Yes,199,199,1,0,5,,,,,No,
Drug,Pharmaceutical Store,,Esomeprazole 20mg 10s -PINK PACK ****,,Yes,49,49,1,0,5,,,,,No,
Drug,Pharmaceutical Store,,Esomeprazole 40mg Tablets 30s,,Yes,199,199,1,0,5,,,,,No,
Drug,Pharmaceutical Store,,Flutrox  - Fluconazole --- Tablets,,Yes,240,240,1,0,5,,,,,No,
Drug,Pharmaceutical Store,,Needles G21 100s (GREEN),,Yes,105,105,1,0,5,,,,,No,
Drug,Pharmaceutical Store,,Needles G23 100s (BLUE),,Yes,105,105,1,0,5,,,,,No,
Drug,Pharmaceutical Store,,Nelgra 100mg Tab ( Viagra generic) 4s,,Yes,40,40,1,0,5,,,,,No,
Drug,Pharmaceutical Store,,Nelgra 50mg Tab ( Viagra generic) 4s,,Yes,27,27,1,0,5,,,,,No,
Drug,Pharmaceutical Store,,Neocidol (Diazinon)  28ml.,,Yes,95,95,1,0,5,,,,,No,
Drug,Pharmaceutical Store,,Neogadine Elixir 150ml,,Yes,299,299,1,0,5,,,,,No,
Drug,Pharmaceutical Store,,Neuro Forte tablets 20s**CENTAUR,,Yes,249,249,1,0,5,,,,,No,
Drug,Pharmaceutical Store,,Neurorubine Forte Tablets 20s**MEPHA,,Yes,399,399,1,0,5,,,,,No,
Drug,Pharmaceutical Store,,Neurotrol Tablets 200mg,,Yes,199,199,1,0,5,,,,,No,
Drug,Pharmaceutical Store,,Nexium tablets 40mg. 14s,,Yes,2150,2150,1,0,5,,,,,No,
Drug,Pharmaceutical Store,,Nicof Syrup 100ml,,Yes,38,38,1,0,5,,,,,No,
Drug,Pharmaceutical Store,,Nicof Syrup 60ML - SMALL SIZE,,Yes,30,30,1,0,5,,,,,No,
Drug,Pharmaceutical Store,,Nifedipine - Nefdin SR 20mg Tablets,,Yes,149,149,1,0,5,,,,,No,
Drug,Pharmaceutical Store,,Nifedipine - Nepin SR 20mg 100s,,Yes,120,120,1,0,5,,,,,No,
Drug,Pharmaceutical Store,,Nilol Tablets 30s,,Yes,670,670,1,0,5,,,,,No,
Drug,Pharmaceutical Store,,Nitrofurantoin Tablets 1000s,,Yes,750,750,1,0,5,,,,,No,
Drug,Pharmaceutical Store,,Nitrofurantoin Tablets 100s***Blister,,Yes,166,166,1,0,5,,,,,No,
Drug,Pharmaceutical Store,,NO RASH Cream,,Yes,210,210,1,0,5,,,,,No,
Drug,Pharmaceutical Store,,Nogluc Tablets 112s **LARGE PACK **,,Yes,199,199,1,0,5,,,,,No,
Drug,Pharmaceutical Store,,Nogluc Tablets 5mg 28s,,Yes,69,69,1,0,5,,,,,No,
Drug,Pharmaceutical Store,,Norethisterone 5mg tablets 30s,,Yes,250,250,1,0,5,,,,,No,
Drug,Pharmaceutical Store,,Norfloxacin 400mg Tablets 100s,,Yes,239,239,1,0,5,,,,,No,
Drug,Pharmaceutical Store,,Normal Saline nasal drops 10ml.,,Yes,95,95,1,0,5,,,,,No,
Drug,Pharmaceutical Store,,Normal Saline Solution 500ml.,,Yes,44,44,1,0,5,,,,,No,
Drug,Pharmaceutical Store,,Nosic Tablets 20s,,Yes,315,315,1,0,5,,,,,No,
Drug,Pharmaceutical Store,,Novasept Ointment 10%,,Yes,129,129,1,0,5,,,,,No,
Drug,Pharmaceutical Store,,Nutrivita Syrup.100ml.,,Yes,125,125,1,0,5,,,,,No,
Drug,Pharmaceutical Store,,Nystatin 12ml Bottle - Small Size,,Yes,30,30,1,0,5,,,,,No,
Drug,Pharmaceutical Store,,Nystatin Oral Suspension 30ml.,,Yes,40,40,1,0,5,,,,,No,
Drug,Pharmaceutical Store,,Obrex Expectorant 100ml GL,,Yes,77,77,1,0,5,,,,,No,
Drug,Pharmaceutical Store,,Obrex Expectorant 60ml GL,,Yes,60,60,1,0,5,,,,,No,
Drug,Pharmaceutical Store,,Oflox OZ Tablets 10s Ofloxacin 200,,Yes,125,125,1,0,5,,,,,No,
Drug,Pharmaceutical Store,,Ofloxacin + Ornidazole OFLODAZ,,Yes,150,150,1,0,5,,,,,No,
Drug,Pharmaceutical Store,,Olfen SR Depo tablets 100mg 10s,,Yes,799,799,1,0,5,,,,,No,
Drug,Pharmaceutical Store,,Omeprazole Capsules 100s - INDIA,,Yes,90,90,1,0,5,,,,,No,
Drug,Pharmaceutical Store,,Omron Blood Pressure Monitor Machine,,Yes,4800,4800,1,0,5,,,,,No,
Drug,Pharmaceutical Store,,On Call Plus Test Strips 50s,,Yes,1150,1150,1,0,5,,,,,No,
Drug,Pharmaceutical Store,,Ornilox Tablets 10s,,Yes,590,590,1,0,5,,,,,No,
Drug,Pharmaceutical Store,,ORS Salts - Sachet 500ml,,Yes,5,5,1,0,5,,,,,No,
Drug,Pharmaceutical Store,,Osteo Norx Calcium 1.25 gm + Vitamin D,,Yes,220,220,1,0,5,,,,,No,
Drug,Pharmaceutical Store,,Osteo Vite Calcium 1.25 gm + Vitamin D,,Yes,399,399,1,0,5,,,,,No,
Drug,Pharmaceutical Store,,Osteocare Tablets,,Yes,599,599,1,0,5,,,,,No,
Drug,Pharmaceutical Store,,Otorex Ear Drops 10ml.,,Yes,199,199,1,0,5,,,,,No,
Drug,Pharmaceutical Store,,Oxytocin  Injection,,Yes,50,50,1,0,5,,,,,No,
Drug,Pharmaceutical Store,,P Alaxin Suspension 80ml,,Yes,159,159,1,0,5,,,,,No,
Drug,Pharmaceutical Store,,P Alaxin Tablets 9s,,Yes,229,229,1,0,5,,,,,No,
Drug,Pharmaceutical Store,,Panadol Advance 100s BLUE,,Yes,369,369,1,0,5,,,,,No,
Drug,Pharmaceutical Store,,Panadol Baby and Infant Syrup 100ml,,Yes,239,239,1,0,5,,,,,No,
Drug,Pharmaceutical Store,,Panadol Extra OPTIZORB Tablets,,Yes,437,437,1,0,5,,,,,No,
Drug,Pharmaceutical Store,,Pantoprazole 40mg Tablets -,,Yes,180,180,1,0,5,,,,,No,
Drug,Pharmaceutical Store,,PARACETAMOL (INFUSION) IV  100ml,,Yes,159,159,1,0,5,,,,,No,
Drug,Pharmaceutical Store,,Paracetamol HIGH STRENGTH,,Yes,155,155,1,0,5,,,,,No,
Drug,Pharmaceutical Store,,Paracetamol Injection VIAL 10ml,,Yes,40,40,1,0,5,,,,,No,
Drug,Pharmaceutical Store,,Paracetamol Suppositories 125mg,,Yes,140,140,1,0,5,,,,,No,
Drug,Pharmaceutical Store,,Paracetamol Syrup 100ml.,,Yes,30,30,1,0,5,,,,,No,
Drug,Pharmaceutical Store,,Paracetamol Syrup 500ml,,Yes,79,79,1,0,5,,,,,No,
Drug,Pharmaceutical Store,,Paracetamol Syrup 5Ltr.,,Yes,499,499,1,0,5,,,,,No,
Drug,Pharmaceutical Store,,Paracetamol Syrup 60ml.,,Yes,20,20,1,0,5,,,,,No,
Drug,Pharmaceutical Store,,Paracetamol Tablets 1000's - White,,Yes,520,520,1,0,5,,,,,No,
Drug,Pharmaceutical Store,,Paracetamol Tablets 500mg,,Yes,60,60,1,0,5,,,,,No,
Drug,Pharmaceutical Store,,Pen V Tablets 250mg 1000s,,Yes,1390,1390,1,0,5,,,,,No,
Drug,Pharmaceutical Store,,Pen V Tablets 250mg 100s ***Blister,,Yes,159,159,1,0,5,,,,,No,
Drug,Pharmaceutical Store,,Penamox 125mg/5ml Suspension 100ml.,,Yes,169,169,1,0,5,,,,,No,
Drug,Pharmaceutical Store,,Peptica Gel 200ml,,Yes,199,199,1,0,5,,,,,No,
Drug,Pharmaceutical Store,,Pharmasal Ointment 25gm.,,Yes,37,37,1,0,5,,,,,No,
Drug,Pharmaceutical Store,,Piriton Expectorant linctus 100ml.,,Yes,299,299,1,0,5,,,,,No,
Drug,Pharmaceutical Store,,Piriton Original Syrup 100ml.    YELLOW,,Yes,288,288,1,0,5,,,,,No,
Drug,Pharmaceutical Store,,Piriton Original Tablets 4mg - GSK,,Yes,2590,2590,1,0,5,,,,,No,
Drug,Pharmaceutical Store,,Piroxicam Capsules 100s,,Yes,60,60,1,0,5,,,,,No,
Drug,Pharmaceutical Store,,Plaster of Paris 6 Inch. (15cm),,Yes,66,66,1,0,5,,,,,No,
Drug,Pharmaceutical Store,,Plaster of Paris 8 Inch.,,Yes,77,77,1,0,5,,,,,No,
Drug,Pharmaceutical Store,,Postinor 2 Tablets 2s,,Yes,112,112,1,0,5,,,,,No,
Drug,Pharmaceutical Store,,Povidone Iodine 500ml**BULK PACK **,,Yes,260,260,1,0,5,,,,,No,
Drug,Pharmaceutical Store,,Povidone Iodine Mouth wash 100ml,,Yes,99,99,1,0,5,,,,,No,
Drug,Pharmaceutical Store,,POWERGRA TABLETS 100mg - PINK,,Yes,70,70,1,0,5,,,,,No,
Drug,Pharmaceutical Store,,POWERGRA TABLETS 50mg - BLUE,,Yes,70,70,1,0,5,,,,,No,
Drug,Pharmaceutical Store,,PPF 4 Mega (Procaine Penicillin) Vial.,,Yes,28,28,1,0,5,,,,,No,
Drug,Pharmaceutical Store,,Prednisolone Eye Drops 5ml,,Yes,70,70,1,0,5,,,,,No,
Drug,Pharmaceutical Store,,Prednisolone Syrup 50ml Solone/Predsol,,Yes,399,399,1,0,5,,,,,No,
Drug,Pharmaceutical Store,,Prednisolone Tablets 5mg 1000s,,Yes,599,599,1,0,5,,,,,No,
Drug,Pharmaceutical Store,,Prednisolone Tablets 5mg 100s,,Yes,70,70,1,0,5,,,,,No,
Drug,Pharmaceutical Store,,Pregabalin Akugabalin Capsules 75mg,,Yes,799,799,1,0,5,,,,,No,
Drug,Pharmaceutical Store,,Pregnancy Test Kit.,,Yes,5,5,1,0,5,,,,,No,
Drug,Pharmaceutical Store,,Primolut  N Tablets 5mg.,,Yes,897,897,1,0,5,,,,,No,
Drug,Pharmaceutical Store,,Probeta N Eye Drops 7.5ml.,,Yes,79,79,1,0,5,,,,,No,
Drug,Pharmaceutical Store,,Proguanil Tablets 56s,,Yes,299,299,1,0,5,,,,,No,
Drug,Pharmaceutical Store,,Promethazine 25mg Tabs,,Yes,68,68,1,0,5,,,,,No,
Drug,Pharmaceutical Store,,Promethazine Syrup 60ml,,Yes,20,20,1,0,5,,,,,No,
Drug,Pharmaceutical Store,,PromethazineTablets 25mg 1000s,,Yes,350,350,1,0,5,,,,,No,
Drug,Pharmaceutical Store,,Propranolol Tablets (Inderal Generic) 100s,,Yes,85,85,1,0,5,,,,,No,
Drug,Pharmaceutical Store,,Pulmocef 500mg Tablets - 10s,,Yes,299,299,1,0,5,,,,,No,
Drug,Pharmaceutical Store,,Purecal Chewable Tablets 30s,,Yes,899,899,1,0,5,,,,,No,
Drug,Pharmaceutical Store,,Pyridoxine 50mg Tablets. 100s,,Yes,138,138,1,0,5,,,,,No,
Drug,Pharmaceutical Store,,Quinine Injection - INDIA Per Amp,,Yes,24,24,1,0,5,,,,,No,
Drug,Pharmaceutical Store,,Quinine Mixture  60ml,,Yes,35,35,1,0,5,,,,,No,
Drug,Pharmaceutical Store,,Quinine Mixture 100ml,,Yes,47,47,1,0,5,,,,,No,
Drug,Pharmaceutical Store,,Quinine Tablets 300mg 100s -,,Yes,455,455,1,0,5,,,,,No,
Drug,Pharmaceutical Store,,Ranferon Capsules 30s,,Yes,399,399,1,0,5,,,,,No,
Drug,Pharmaceutical Store,,Ranferon Syrup 200ml,,Yes,309,309,1,0,5,,,,,No,
Drug,Pharmaceutical Store,,Ranitidine Injection (10 amps),,Yes,179,179,1,0,5,,,,,No,
Drug,Pharmaceutical Store,,Ranitidine Tablets 150mg 100s,,Yes,222,222,1,0,5,,,,,No,
Drug,Pharmaceutical Store,,Ranitidine tablets 300mg. 100s,,Yes,299,299,1,0,5,,,,,No,
Drug,Pharmaceutical Store,,Relcer Gel Suspension 180ml.,,Yes,255,255,1,0,5,,,,,No,
Drug,Pharmaceutical Store,,Remidin Mouthwash 100ml.,,Yes,212,212,1,0,5,,,,,No,
Drug,Pharmaceutical Store,,Rexe-Dine Mouth wash,,Yes,110,110,1,0,5,,,,,No,
Drug,Pharmaceutical Store,,Rhinathiol Expec/Adult Syrup 125ml. BLUE,,Yes,359,359,1,0,5,,,,,No,
Drug,Pharmaceutical Store,,Rhinathiol Promethazine Syrup 125ml,,Yes,299,299,1,0,5,,,,,No,
Drug,Pharmaceutical Store,,Rhizin Syrup 60ml.,,Yes,199,199,1,0,5,,,,,No,
Drug,Pharmaceutical Store,,Ridmal Tablets 40/320mg 9s GL,,Yes,199,199,1,0,5,,,,,No,
Drug,Pharmaceutical Store,,Rilif MR Tablets,,Yes,645,645,1,0,5,,,,,No,
Drug,Pharmaceutical Store,,Rilif Plus 600mg Tablets,,Yes,695,695,1,0,5,,,,,No,
Drug,Pharmaceutical Store,,Rinavit Syrup 100ml,,Yes,60,60,1,0,5,,,,,No,
Drug,Pharmaceutical Store,,Rinavit Syrup 60ml,,Yes,40,40,1,0,5,,,,,No,
Drug,Pharmaceutical Store,,Robb Ointment 4gm 12pcs DOZEN,,Yes,144,144,1,0,5,,,,,No,
Drug,Pharmaceutical Store,,Rohisol Suspension 15ml,,Yes,30,30,1,0,5,,,,,No,
Drug,Pharmaceutical Store,,Rubem Cream 25g - Rubefacient for Pain,,Yes,30,30,1,0,5,,,,,No,
Drug,Pharmaceutical Store,,S.trepsils Throat Lozenges 100s - LARGE,,Yes,999,999,1,0,5,,,,,No,
Drug,Pharmaceutical Store,,Salbutamol 4mg Tablets 1000s,,Yes,119,119,1,0,5,,,,,No,
Drug,Pharmaceutical Store,,Salbutamol 4mg Tablets 100s,,Yes,49,49,1,0,5,,,,,No,
Drug,Pharmaceutical Store,,Salbutamol Inhaler 200Doses,,Yes,149,149,1,0,5,,,,,No,
Drug,Pharmaceutical Store,,Salbutamol Syrup 100ml,,Yes,29,29,1,0,5,,,,,No,
Drug,Pharmaceutical Store,,Salbutamol Syrup 60ml,,Yes,20,20,1,0,5,,,,,No,
Drug,Pharmaceutical Store,,Salimia Liniment  50ml.,,Yes,90,90,1,0,5,,,,,No,
Drug,Pharmaceutical Store,,Scalp vein G21,,Yes,5,5,1,0,5,,,,,No,
Drug,Pharmaceutical Store,,Scalp vein G23,,Yes,5,5,1,0,5,,,,,No,
Drug,Pharmaceutical Store,,Scotts Emulsion Orange 100ml,,Yes,299,299,1,0,5,,,,,No,
Drug,Pharmaceutical Store,,Scotts Emulsion Regular (Original-,,Yes,299,299,1,0,5,,,,,No,
Drug,Pharmaceutical Store,,Secnidazole Tabs 1gm 2s,,Yes,20,20,1,0,5,,,,,No,
Drug,Pharmaceutical Store,,SEVEN SEAS 170ML (LARGE,,Yes,799,799,1,0,5,,,,,No,
Drug,Pharmaceutical Store,,Seven Seas Oil 100ml.,,Yes,499,499,1,0,5,,,,,No,
Drug,Pharmaceutical Store,,Sevin 100gm Dudu Dust 100gm,,Yes,80,80,1,0,5,,,,,No,
Drug,Pharmaceutical Store,,Sevin Dudu Dust  200gm.,,Yes,88,88,1,0,5,,,,,No,
Drug,Pharmaceutical Store,,Sevin Dudu Dust **50 GMS**,,Yes,58,58,1,0,5,,,,,No,
Drug,Pharmaceutical Store,,Sildenafil - Evagra Tablets 50mg 4s,,Yes,25,25,1,0,5,,,,,No,
Drug,Pharmaceutical Store,,Sildenafil 100mg - Astagra Tablets 100mg,,Yes,30,30,1,0,5,,,,,No,
Drug,Pharmaceutical Store,,SKDerm Cream 15gm,,Yes,88,88,1,0,5,,,,,No,
Drug,Pharmaceutical Store,,Sodium Chromoglycate Eye Drops 10ml -,,Yes,239,239,1,0,5,,,,,No,
Drug,Pharmaceutical Store,,Solvin Plus Expectorant 120ml,,Yes,214,214,1,0,5,,,,,No,
Drug,Pharmaceutical Store,,Solvin Plus Expectorant 60ml,,Yes,116,116,1,0,5,,,,,No,
Drug,Pharmaceutical Store,,SonaDOL Caplets 100s BLUE,,Yes,159,159,1,0,5,,,,,No,
Drug,Pharmaceutical Store,,SonaDOL EXTRA Caplets 100s RED,,Yes,179,179,1,0,5,,,,,No,
Drug,Pharmaceutical Store,,SonaMOJA tablets 100s ++ 2,,Yes,288,288,1,0,5,,,,,No,
Drug,Pharmaceutical Store,,Sonatec Mouthwash 250ml.,,Yes,149,149,1,0,5,,,,,No,
Drug,Pharmaceutical Store,,SSD Cream TUBE (Burn Cream) 15gm.,,Yes,25,25,1,0,5,,,,,No,
Drug,Pharmaceutical Store,,SSD Silver Sulphadiazine Jar SSD 250gm.,,Yes,330,330,1,0,5,,,,,No,
Drug,Pharmaceutical Store,,Streptomycin Injection Vial,,Yes,14,14,1,0,5,,,,,No,
Drug,Pharmaceutical Store,,Subsyde  CR Caps. 10s,,Yes,149,149,1,0,5,,,,,No,
Drug,Pharmaceutical Store,,Subsyde gel,,Yes,129,129,1,0,5,,,,,No,
Drug,Pharmaceutical Store,,Sulphur Ointment 20gm.,,Yes,18,18,1,0,5,,,,,No,
Drug,Pharmaceutical Store,,Surdex Syrup,,Yes,115,115,1,0,5,,,,,No,
Drug,Pharmaceutical Store,,Surgical Blades 23g 100s,,Yes,430,430,1,0,5,,,,,No,
Drug,Pharmaceutical Store,,Surgical Blades 24g 100s,,Yes,430,430,1,0,5,,,,,No,
Drug,Pharmaceutical Store,,Surgical Spirit 100ml.,,Yes,49,49,1,0,5,,,,,No,
Drug,Pharmaceutical Store,,Surgical Sterile Gloves 7.5 Inch Pair,,Yes,20,20,1,0,5,,,,,No,
Drug,Pharmaceutical Store,,Suture Nylon 2/0 Round Body,,Yes,250,250,1,0,5,,,,,No,
Drug,Pharmaceutical Store,,Suture nylon RC - Reverse Cutting,,Yes,250,250,1,0,5,,,,,No,
Drug,Pharmaceutical Store,,Suture Silk 2/0 Revese Cutting,,Yes,220,220,1,0,5,,,,,No,
Drug,Pharmaceutical Store,,Suture Silk 2/0 Round Body,,Yes,239,239,1,0,5,,,,,No,
Drug,Pharmaceutical Store,,Sylate Injection,,Yes,1199,1199,1,0,5,,,,,No,
Drug,Pharmaceutical Store,,Sylate Tablets. 18s,,Yes,965,965,1,0,5,,,,,No,
Drug,Pharmaceutical Store,,Sylent Injection,,Yes,750,750,1,0,5,,,,,No,
Drug,Pharmaceutical Store,,Sylent tablets 500mg,,Yes,544,544,1,0,5,,,,,No,
Drug,Pharmaceutical Store,,Syphilis Test Strips 50s,,Yes,999,999,1,0,5,,,,,No,
Drug,Pharmaceutical Store,,Syringes 10.ml W/O  100s,,Yes,499,499,1,0,5,,,,,No,
Drug,Pharmaceutical Store,,Syringes 10ml WITH NEEDLE,,Yes,550,550,1,0,5,,,,,No,
Drug,Pharmaceutical Store,,Syringes 20ml pkt 100s,,Yes,799,799,1,0,5,,,,,No,
Drug,Pharmaceutical Store,,Syringes 2ml W/N 100s.,,Yes,299,299,1,0,5,,,,,No,
Drug,Pharmaceutical Store,,Syringes 2ml Without Needle 100s,,Yes,199,199,1,0,5,,,,,No,
Drug,Pharmaceutical Store,,Syringes 5ml W/N 100s,,Yes,310,310,1,0,5,,,,,No,
Drug,Pharmaceutical Store,,Syringes 5ml Without Needle 100s,,Yes,220,220,1,0,5,,,,,No,
Drug,Pharmaceutical Store,,Tagera Forte Tablets 1gm. 2s,,Yes,55,55,1,0,5,,,,,No,
Drug,Pharmaceutical Store,,Tamedol Extra - (Ibuprofen+,,Yes,36,36,1,0,5,,,,,No,
Drug,Pharmaceutical Store,,Tegretol original Tablets 200mg 50s,,Yes,1590,1590,1,0,5,,,,,No,
Drug,Pharmaceutical Store,,Tetracycline Capsules 250mg 1000s,,Yes,2390,2390,1,0,5,,,,,No,
Drug,Pharmaceutical Store,,Tetracycline Eye Ointment  3.5gm.,,Yes,23,23,1,0,5,,,,,No,
Drug,Pharmaceutical Store,,Tetracycline Skin Ointment 15gm.,,Yes,20,20,1,0,5,,,,,No,
Drug,Pharmaceutical Store,,Timolol Maleate 0.5% Eye Drops 5ml,,Yes,99,99,1,0,5,,,,,No,
Drug,Pharmaceutical Store,,Tincture of Iodine 25ml.,,Yes,30,30,1,0,5,,,,,No,
Drug,Pharmaceutical Store,,Tinidazole (Tini 500) Tablets 4s,,Yes,7,7,1,0,5,,,,,No,
Drug,Pharmaceutical Store,,Tinidazole Tablets 4s T Zex,,Yes,7,7,1,0,5,,,,,No,
Drug,Pharmaceutical Store,,Touch & Go  7ml.,,Yes,182,182,1,0,5,,,,,No,
Drug,Pharmaceutical Store,,Tramadol 100mg Tablets,,Yes,777,777,1,0,5,,,,,No,
Drug,Pharmaceutical Store,,Tramadol 50mg Caspules 100s  CD,,Yes,266,266,1,0,5,,,,,No,
Drug,Pharmaceutical Store,,Tramadol Injection Ampoule (10 amps)  CD,,Yes,177,177,1,0,5,,,,,No,
Drug,Pharmaceutical Store,,Tresorix Syrup. 100ml.,,Yes,575,575,1,0,5,,,,,No,
Drug,Pharmaceutical Store,,Tribees Forte Tablets - Neuro GENERIC,,Yes,199,199,1,0,5,,,,,No,
Drug,Pharmaceutical Store,,Tricoff GREEN Expectorant 60ml.,,Yes,30,30,1,0,5,,,,,No,
Drug,Pharmaceutical Store,,Tricoff GREEN Expectorant LARGE  100ml,,Yes,40,40,1,0,5,,,,,No,
Drug,Pharmaceutical Store,,Tricoff RED Expectorant Syrup 100ml.,,Yes,40,40,1,0,5,,,,,No,
Drug,Pharmaceutical Store,,Tricoff RED Expectorant Syrup 60ml.,,Yes,30,30,1,0,5,,,,,No,
Drug,Pharmaceutical Store,,TriCOhist Expectorant 100ml.,,Yes,90,90,1,0,5,,,,,No,
Drug,Pharmaceutical Store,,Tridex Cough Mixture SMALL SIZE 60ml,,Yes,40,40,1,0,5,,,,,No,
Drug,Pharmaceutical Store,,Trimetabol Syrup 150ml.,,Yes,669,669,1,0,5,,,,,No,
Drug,Pharmaceutical Store,,Trimex Adult Syrup 100ml. BROWN,,Yes,109,109,1,0,5,,,,,No,
Drug,Pharmaceutical Store,,Trimex Diabetic 100ml. GREEN,,Yes,145,145,1,0,5,,,,,No,
Drug,Pharmaceutical Store,,Trimex Mucolytic Syrup 100ml PURPLE,,Yes,99,99,1,0,5,,,,,No,
Drug,Pharmaceutical Store,,Trimex Paediatric  Suspension,,Yes,109,109,1,0,5,,,,,No,
Drug,Pharmaceutical Store,,Triohist Expectorant 100ml,,Yes,77,77,1,0,5,,,,,No,
Drug,Pharmaceutical Store,,Triohist Expectorant 60ml,,Yes,60,60,1,0,5,,,,,No,
Drug,Pharmaceutical Store,,Triokit Set,,Yes,550,550,1,0,5,,,,,No,
Drug,Pharmaceutical Store,,Tripplepen  6.3.3 Injection,,Yes,19,19,1,0,5,,,,,No,
Drug,Pharmaceutical Store,,Trust CLASSIC Condoms 24s (BLUE),,Yes,399,399,1,0,5,,,,,No,
Drug,Pharmaceutical Store,,Trust Studded Condoms 24s,,Yes,899,899,1,0,5,,,,,No,
Drug,Pharmaceutical Store,,Tuspel Plus Syrup 100ml. -PINK,,Yes,139,139,1,0,5,,,,,No,
Drug,Pharmaceutical Store,,Tuspel Plus Syrup. 60ml - PINK,,Yes,90,90,1,0,5,,,,,No,
Drug,Pharmaceutical Store,,Tuspel Syrup 60ml. - YELLOW,,Yes,80,80,1,0,5,,,,,No,
Drug,Pharmaceutical Store,,Tuspel Syrup. 100ml. YELLOW,,Yes,129,129,1,0,5,,,,,No,
Drug,Pharmaceutical Store,,Tuspress Syrup 100ml. - BLUE,,Yes,139,139,1,0,5,,,,,No,
Drug,Pharmaceutical Store,,Tuspress Syrup 60ml - BLUE,,Yes,90,90,1,0,5,,,,,No,
Drug,Pharmaceutical Store,,Ulax Tablets (Laxative),,Yes,75,75,1,0,5,,,,,No,
Drug,Pharmaceutical Store,,Ulgicid CHERRY FLAVOUR,,Yes,279,279,1,0,5,,,,,No,
Drug,Pharmaceutical Store,,Ulgicid suspension (Mint flavour) 200ml,,Yes,279,279,1,0,5,,,,,No,
Drug,Pharmaceutical Store,,Ulgicid suspension (Pineapple Flavour),,Yes,279,279,1,0,5,,,,,No,
Drug,Pharmaceutical Store,,Ulzol Capsules 20s,,Yes,78,78,1,0,5,,,,,No,
Drug,Pharmaceutical Store,,Uniactin Syrup 100ml,,Yes,149,149,1,0,5,,,,,No,
Drug,Pharmaceutical Store,,Unisten HC Cream 20gm,,Yes,99,99,1,0,5,,,,,No,
Drug,Pharmaceutical Store,,Upacof Dry Syrup RED 100ml,,Yes,50,50,1,0,5,,,,,No,
Drug,Pharmaceutical Store,,Upacof Expectorant Syrup GREEN bottle,,Yes,50,50,1,0,5,,,,,No,
Drug,Pharmaceutical Store,,Upacof Paediatric Syrup BROWN 100ml,,Yes,50,50,1,0,5,,,,,No,
Drug,Pharmaceutical Store,,Urine Bags 2 ltr. Outlet,,Yes,30,30,1,0,5,,,,,No,
Drug,Pharmaceutical Store,,Vedrox Syrup 60ml,,Yes,159,159,1,0,5,,,,,No,
Drug,Pharmaceutical Store,,Ventolin Evohaler - Each,,Yes,259,259,1,0,5,,,,,No,
Drug,Pharmaceutical Store,,Ventolin Syrup 100ml.,,Yes,199,199,1,0,5,,,,,No,
Drug,Pharmaceutical Store,,Vifex Syrup,,Yes,110,110,1,0,5,,,,,No,
Drug,Pharmaceutical Store,,Viscid Gel 200ml.,,Yes,180,180,1,0,5,,,,,No,
Drug,Pharmaceutical Store,,Vitamin B Complex Inj. vial 10ml.,,Yes,36,36,1,0,5,,,,,No,
Drug,Pharmaceutical Store,,Vitamin B Complex Tablets 1000s,,Yes,125,125,1,0,5,,,,,No,
Drug,Pharmaceutical Store,,Volini Gel 30gm.,,Yes,169,169,1,0,5,,,,,No,
Drug,Pharmaceutical Store,,Voltaren Emugel 1% 20gm,,Yes,399,399,1,0,5,,,,,No,
Drug,Pharmaceutical Store,,Voltaren Retard 100mg (10s),,Yes,699,699,1,0,5,,,,,No,
Drug,Pharmaceutical Store,,Water For Injection 10ml.,,Yes,4,4,1,0,5,,,,,No,
Drug,Pharmaceutical Store,,Water For Injection 500ml. Exp Nov 2018,,Yes,22,22,1,0,5,,,,,No,
Drug,Pharmaceutical Store,,Waterguard Solution 150ml,,Yes,24,24,1,0,5,,,,,No,
Drug,Pharmaceutical Store,,Whitfields Ointment 20g.,,Yes,18,18,1,0,5,,,,,No,
Drug,Pharmaceutical Store,,Woodwards Gripe Water 100ml GL,,Yes,110,110,1,0,5,,,,,No,
Drug,Pharmaceutical Store,,WOW 2 Inch Bandages ( 5cm),,Yes,49,49,1,0,5,,,,,No,
Drug,Pharmaceutical Store,,WOW 3 Inch Bandages ( 7.5cm),,Yes,77,77,1,0,5,,,,,No,
Drug,Pharmaceutical Store,,WOW 4 Inch Bandages ( 10 cm),,Yes,99,99,1,0,5,,,,,No,
Drug,Pharmaceutical Store,,WOW 6 Inch Bandages ( 15 cm),,Yes,149,149,1,0,5,,,,,No,
Drug,Pharmaceutical Store,,X Beta N Eye/Ear/Nose Drops,,Yes,60,60,1,0,5,,,,,No,
Drug,Pharmaceutical Store,,Xpen Injection  1 Mega Vial **Crystapen,,Yes,8,8,1,0,5,,,,,No,
Drug,Pharmaceutical Store,,Xpen Injection **5 Mega***,,Yes,30,30,1,0,5,,,,,No,
Drug,Pharmaceutical Store,,X-Sone-N ( Dexamethasone+ Neomycin),,Yes,55,55,1,0,5,,,,,No,
Drug,Pharmaceutical Store,,Xtraderm Cream 20gm.,,Yes,129,129,1,0,5,,,,,No,
Drug,Pharmaceutical Store,,Zedex Syrup 100ml.,,Yes,145,145,1,0,5,,,,,No,
Drug,Pharmaceutical Store,,Zedgra 100mg tabs 4s,,Yes,35,35,1,0,5,,,,,No,
Drug,Pharmaceutical Store,,Zedgra 50mg Tabs 4s,,Yes,30,30,1,0,5,,,,,No,
Drug,Pharmaceutical Store,,Zeefee Liquid 200ml,,Yes,390,390,1,0,5,,,,,No,
Drug,Pharmaceutical Store,,Zefcolin Syrup 100ml,,Yes,229,229,1,0,5,,,,,No,
Drug,Pharmaceutical Store,,Zentel Original Tablets 1s,,Yes,169,169,1,0,5,,,,,No,
Drug,Pharmaceutical Store,,Zentel****  SUSPENSION *******20ml,,Yes,169,169,1,0,5,,,,,No,
Drug,Pharmaceutical Store,,Zinc Oxide plasters 1 Inch ( 2.5 cm),,Yes,26,26,1,0,5,,,,,No,
Drug,Pharmaceutical Store,,Zinc Oxide plasters 2 Inch ( 5cm),,Yes,55,55,1,0,5,,,,,No,
