Invoice Date,Invoice Number,Customer Name,Item Price,Quantity,Item Name,Customer ID
2018-07-02,OTCINV412,Mary kurgat,500,1,Nipro / All types bloodlines,101000
2018-07-02,OTCINV412,Mary kurgat,450,1,Nipro Bicarbonate Catridge,101000
2018-07-02,OTCINV412,Mary kurgat,500,1,Nipro/ other  Acid Concentrate 5L,101000
2018-07-02,OTCINV412,Mary kurgat,1300,1,Nipro/All types Dialysers,101000
2018-07-02,OTCINV412,Mary kurgat,1000,1,Nursing,101000
2018-07-02,OTCINV412,Mary kurgat,100,2,Normal saline,101000
2018-07-02,OTCINV412,Mary kurgat,200,1,Consumables,101000
2018-07-02,OTCINV412,Mary kurgat,10,10,Clean Gloves,101000
2018-07-02,OTCINV412,Mary kurgat,130,1,Primapore ( LEUKOMED),101000
2018-07-02,OTCINV412,Mary kurgat,400,1,Food,101000
2018-07-02,OTCINV412,Mary kurgat,10,3,syringes 10ml,101000
2018-07-02,OTCINV412,Mary kurgat,20,4,syringes 20ml,101000
2018-07-02,OTCINV412,Mary kurgat,5,2,Syringes 5ml,101000
2018-07-02,OTCINV412,Mary kurgat,2,2,Needle G23,101000
2018-07-02,OTCINV412,Mary kurgat,300,1,CitraLock 4% 5 ml vial,101000
2018-07-02,OTCINV412,Mary kurgat,400,1,Heparin 5000iu/ml I.M/I.V inj,101000
2018-07-02,OTCINV412,Mary kurgat,3896,1,Dialysis Outpatient,101000
2018-07-02,OTCINV548,Dr. kirui,500,1,Createnine - Serum,165000
2018-07-02,OTCINV548,Dr. kirui,500,1,Calcium Levels,165000
2018-07-02,OTCINV548,Dr. kirui,2000,1,PSA,165000
2018-07-02,OTCINV548,Dr. kirui,250,20,Cefuroxime Tabs 500 mg ( ZINNAT),165000
2018-07-02,OTCINV548,Dr. kirui,25,2,Myospaz Tabs,165000
2018-07-02,OTCINV548,Dr. kirui,15,1,Actal Tums Tabs,165000
2018-07-02,OTCINV548,Dr. kirui,1500,1,Consultation Dr. Kirui,165000
2018-07-02,OTCINV548,Dr. kirui,20,40,Neuro-Forte Tabs,165000
2018-07-05,OTCINV1074,David Kipkemboi Rotich,2,2,Needle G23,3040000
2018-07-05,OTCINV1074,David Kipkemboi Rotich,500,1,Nipro / All types bloodlines,3040000
2018-07-05,OTCINV1074,David Kipkemboi Rotich,450,1,Nipro Bicarbonate Catridge,3040000
2018-07-05,OTCINV1074,David Kipkemboi Rotich,500,1,Nipro/ other  Acid Concentrate 5L,3040000
2018-07-05,OTCINV1074,David Kipkemboi Rotich,1300,1,Nipro/All types Dialysers,3040000
2018-07-05,OTCINV1074,David Kipkemboi Rotich,1000,1,Nursing,3040000
2018-07-05,OTCINV1074,David Kipkemboi Rotich,100,2,Normal saline,3040000
2018-07-05,OTCINV1074,David Kipkemboi Rotich,130,1,Primapore ( LEUKOMED),3040000
2018-07-05,OTCINV1074,David Kipkemboi Rotich,200,1,Consumables,3040000
2018-07-05,OTCINV1074,David Kipkemboi Rotich,10,10,Clean Gloves,3040000
2018-07-05,OTCINV1074,David Kipkemboi Rotich,300,1,CitraLock 4% 5 ml vial,3040000
2018-07-05,OTCINV1074,David Kipkemboi Rotich,400,1,Heparin 5000iu/ml I.M/I.V inj,3040000
2018-07-05,OTCINV1074,David Kipkemboi Rotich,400,1,Food,3040000
2018-07-05,OTCINV1074,David Kipkemboi Rotich,100,1,Fistula Needles Pers,3040000
2018-07-05,OTCINV1074,David Kipkemboi Rotich,10,3,syringes 10ml,3040000
2018-07-05,OTCINV1074,David Kipkemboi Rotich,20,3,syringes 20ml,3040000
2018-07-05,OTCINV1074,David Kipkemboi Rotich,5,2,Syringes 5ml,3040000
2018-07-05,OTCINV1074,David Kipkemboi Rotich,3816,1,Dialysis Outpatient,3040000
2018-07-02,OTCINV2667,Ruth Nyegenye Peter,500,1,Nipro / All types bloodlines,76000
2018-07-02,OTCINV2667,Ruth Nyegenye Peter,450,1,Nipro Bicarbonate Catridge,76000
2018-07-02,OTCINV2667,Ruth Nyegenye Peter,500,1,Nipro/ other  Acid Concentrate 5L,76000
2018-07-02,OTCINV2667,Ruth Nyegenye Peter,1300,1,Nipro/All types Dialysers,76000
2018-07-02,OTCINV2667,Ruth Nyegenye Peter,1000,1,Nursing,76000
2018-07-02,OTCINV2667,Ruth Nyegenye Peter,100,3,Normal saline,76000
2018-07-02,OTCINV2667,Ruth Nyegenye Peter,200,1,Consumables,76000
2018-07-02,OTCINV2667,Ruth Nyegenye Peter,10,10,Clean Gloves,76000
2018-07-02,OTCINV2667,Ruth Nyegenye Peter,130,1,Primapore ( LEUKOMED),76000
2018-07-02,OTCINV2667,Ruth Nyegenye Peter,300,1,CitraLock 4% 5 ml vial,76000
2018-07-02,OTCINV2667,Ruth Nyegenye Peter,400,1,Heparin 5000iu/ml I.M/I.V inj,76000
2018-07-02,OTCINV2667,Ruth Nyegenye Peter,10,3,syringes 10ml,76000
2018-07-02,OTCINV2667,Ruth Nyegenye Peter,20,4,syringes 20ml,76000
2018-07-02,OTCINV2667,Ruth Nyegenye Peter,5,2,Syringes 5ml,76000
2018-07-02,OTCINV2667,Ruth Nyegenye Peter,2,2,Needle G23,76000
2018-07-02,OTCINV2667,Ruth Nyegenye Peter,4196,1,Dialysis Outpatient,76000
2018-07-03,OTCINV2873,Baiya Mariko Suter,500,1,Nipro / All types bloodlines,2486000
2018-07-03,OTCINV2873,Baiya Mariko Suter,450,1,Nipro Bicarbonate Catridge,2486000
2018-07-03,OTCINV2873,Baiya Mariko Suter,500,1,Nipro/ other  Acid Concentrate 5L,2486000
2018-07-03,OTCINV2873,Baiya Mariko Suter,1300,1,Nipro/All types Dialysers,2486000
2018-07-03,OTCINV2873,Baiya Mariko Suter,1000,1,Nursing,2486000
2018-07-03,OTCINV2873,Baiya Mariko Suter,100,2,Normal saline,2486000
2018-07-03,OTCINV2873,Baiya Mariko Suter,200,1,Consumables,2486000
2018-07-03,OTCINV2873,Baiya Mariko Suter,10,10,Clean Gloves,2486000
2018-07-03,OTCINV2873,Baiya Mariko Suter,130,1,Primapore ( LEUKOMED),2486000
2018-07-03,OTCINV2873,Baiya Mariko Suter,400,1,Food,2486000
2018-07-03,OTCINV2873,Baiya Mariko Suter,300,1,CitraLock 4% 5 ml vial,2486000
2018-07-03,OTCINV2873,Baiya Mariko Suter,10,3,syringes 10ml,2486000
2018-07-03,OTCINV2873,Baiya Mariko Suter,20,4,syringes 20ml,2486000
2018-07-03,OTCINV2873,Baiya Mariko Suter,5,2,Syringes 5ml,2486000
2018-07-03,OTCINV2873,Baiya Mariko Suter,2,2,Needle G23,2486000
2018-07-03,OTCINV2873,Baiya Mariko Suter,400,1,Heparin 5000iu/ml I.M/I.V inj,2486000
2018-07-03,OTCINV2873,Baiya Mariko Suter,1200,1,Erythropoietin 4000 IU (EPOFIT),2486000
2018-07-03,OTCINV2873,Baiya Mariko Suter,2696,1,Dialysis Outpatient,2486000
2018-07-03,OTCINV3323,Hellen Njeri Kamau,500,1,Nipro / All types bloodlines,1489000
2018-07-03,OTCINV3323,Hellen Njeri Kamau,450,1,Nipro Bicarbonate Catridge,1489000
2018-07-03,OTCINV3323,Hellen Njeri Kamau,500,1,Nipro/ other  Acid Concentrate 5L,1489000
2018-07-03,OTCINV3323,Hellen Njeri Kamau,1300,1,Nipro/All types Dialysers,1489000
2018-07-03,OTCINV3323,Hellen Njeri Kamau,1200,1,Erythropoietin 4000 IU (EPOFIT),1489000
2018-07-03,OTCINV3323,Hellen Njeri Kamau,400,1,Food,1489000
2018-07-03,OTCINV3323,Hellen Njeri Kamau,200,1,Consumables,1489000
2018-07-03,OTCINV3323,Hellen Njeri Kamau,10,10,Clean Gloves,1489000
2018-07-03,OTCINV3323,Hellen Njeri Kamau,130,1,Primapore ( LEUKOMED),1489000
2018-07-03,OTCINV3323,Hellen Njeri Kamau,1000,1,Nursing,1489000
2018-07-03,OTCINV3323,Hellen Njeri Kamau,300,1,CitraLock 4% 5 ml vial,1489000
2018-07-03,OTCINV3323,Hellen Njeri Kamau,10,3,syringes 10ml,1489000
2018-07-03,OTCINV3323,Hellen Njeri Kamau,20,4,syringes 20ml,1489000
2018-07-03,OTCINV3323,Hellen Njeri Kamau,5,2,Syringes 5ml,1489000
2018-07-03,OTCINV3323,Hellen Njeri Kamau,2,2,Needle G23,1489000
2018-07-03,OTCINV3323,Hellen Njeri Kamau,3296,1,Dialysis Outpatient,1489000
2018-07-02,OTCINV3576,Tomdila Kipkoech,500,1,Nipro / All types bloodlines,2463000
2018-07-02,OTCINV3576,Tomdila Kipkoech,450,1,Nipro Bicarbonate Catridge,2463000
2018-07-02,OTCINV3576,Tomdila Kipkoech,500,1,Nipro/ other  Acid Concentrate 5L,2463000
2018-07-02,OTCINV3576,Tomdila Kipkoech,1300,1,Nipro/All types Dialysers,2463000
2018-07-02,OTCINV3576,Tomdila Kipkoech,1000,1,Nursing,2463000
2018-07-02,OTCINV3576,Tomdila Kipkoech,100,3,Normal saline,2463000
2018-07-02,OTCINV3576,Tomdila Kipkoech,10,10,Clean Gloves,2463000
2018-07-02,OTCINV3576,Tomdila Kipkoech,200,1,Consumables,2463000
2018-07-02,OTCINV3576,Tomdila Kipkoech,130,1,Primapore ( LEUKOMED),2463000
2018-07-02,OTCINV3576,Tomdila Kipkoech,400,1,Food,2463000
2018-07-02,OTCINV3576,Tomdila Kipkoech,300,1,CitraLock 4% 5 ml vial,2463000
2018-07-02,OTCINV3576,Tomdila Kipkoech,400,1,Heparin 5000iu/ml I.M/I.V inj,2463000
2018-07-02,OTCINV3576,Tomdila Kipkoech,10,3,syringes 10ml,2463000
2018-07-02,OTCINV3576,Tomdila Kipkoech,20,4,syringes 20ml,2463000
2018-07-02,OTCINV3576,Tomdila Kipkoech,5,2,Syringes 5ml,2463000
2018-07-02,OTCINV3576,Tomdila Kipkoech,2,2,Needle G23,2463000
2018-07-02,OTCINV3576,Tomdila Kipkoech,3796,1,Dialysis Outpatient,2463000
2018-07-02,OTCINV3419,David Kipkemboi Rotich,500,1,Nipro / All types bloodlines,3040000
2018-07-02,OTCINV3419,David Kipkemboi Rotich,450,1,Nipro Bicarbonate Catridge,3040000
2018-07-02,OTCINV3419,David Kipkemboi Rotich,500,1,Nipro/ other  Acid Concentrate 5L,3040000
2018-07-02,OTCINV3419,David Kipkemboi Rotich,1300,1,Nipro/All types Dialysers,3040000
2018-07-02,OTCINV3419,David Kipkemboi Rotich,1000,1,Nursing,3040000
2018-07-02,OTCINV3419,David Kipkemboi Rotich,100,2,Normal saline,3040000
2018-07-02,OTCINV3419,David Kipkemboi Rotich,130,1,Primapore ( LEUKOMED),3040000
2018-07-02,OTCINV3419,David Kipkemboi Rotich,200,1,Consumables,3040000
2018-07-02,OTCINV3419,David Kipkemboi Rotich,10,10,Clean Gloves,3040000
2018-07-02,OTCINV3419,David Kipkemboi Rotich,130,1,Primapore ( LEUKOMED),3040000
2018-07-02,OTCINV3419,David Kipkemboi Rotich,300,1,CitraLock 4% 5 ml vial,3040000
2018-07-02,OTCINV3419,David Kipkemboi Rotich,400,1,Heparin 5000iu/ml I.M/I.V inj,3040000
2018-07-02,OTCINV3419,David Kipkemboi Rotich,400,1,Food,3040000
2018-07-02,OTCINV3419,David Kipkemboi Rotich,10,3,syringes 10ml,3040000
2018-07-02,OTCINV3419,David Kipkemboi Rotich,20,4,syringes 20ml,3040000
2018-07-02,OTCINV3419,David Kipkemboi Rotich,5,2,Syringes 5ml,3040000
2018-07-02,OTCINV3419,David Kipkemboi Rotich,2,2,Needle G23,3040000
2018-07-02,OTCINV3419,David Kipkemboi Rotich,625,1,MEGAFER Inj 100mg/5ml ( Iron Sucrose)),3040000
2018-07-02,OTCINV3419,David Kipkemboi Rotich,3041,1,Dialysis Outpatient,3040000
2018-07-02,OTCINV3419,David Kipkemboi Rotich,100,1,Fistula Needles Pers,3040000
2018-07-02,OTCINV3295,William Njoroge,900,1,Full Blood Count (FBC),7058000
2018-07-02,OTCINV3295,William Njoroge,500,1,HIV Test,7058000
2018-07-02,OTCINV3295,William Njoroge,1500,1,Hepatitis c - Elisa,7058000
2018-07-02,OTCINV3295,William Njoroge,500,1,Hepatitis BsAg - Rapid,7058000
2018-07-02,OTCINV3295,William Njoroge,500,1,VDRL,7058000
2018-07-02,OTCINV3296,George Naman Otura,3000,1,Serum electrophoresis,776000
2018-07-02,OTCINV3296,George Naman Otura,5000,1,CMV IgG/IgM antibodies,776000
2018-07-02,OTCINV3296,George Naman Otura,6000,1,Hb Eletrophroresis,776000
2018-07-02,OTCINV3296,George Naman Otura,14000,1,DSA,776000
2018-07-01,OTCINV3297,Rev Elisha K. Kimaiyo,1000,1,Consultation Dr. Maritim,80000
2018-07-01,OTCINV3297,Rev Elisha K. Kimaiyo,2000,1,Urea/Creatinine/Electrolytes(KFT),80000
2018-07-01,OTCINV3297,Rev Elisha K. Kimaiyo,900,1,Full Blood Count (FBC),80000
2018-07-01,OTCINV3297,Rev Elisha K. Kimaiyo,80,1,"Branulas G 18, 20, 22 BD Type",80000
2018-07-01,OTCINV3297,Rev Elisha K. Kimaiyo,20,12,Frusemide Inj 10MG/2ml,80000
2018-07-01,OTCINV3297,Rev Elisha K. Kimaiyo,48,30,Lasix Tabs 40m,80000
2018-07-01,OTCINV3297,Rev Elisha K. Kimaiyo,2,1,Needle G23,80000
2018-07-01,OTCINV3297,Rev Elisha K. Kimaiyo,20,1,syringes 20ml,80000
2018-07-01,OTCINV3297,Rev Elisha K. Kimaiyo,10,2,Clean Gloves,80000
2018-07-01,OTCINV3297,Rev Elisha K. Kimaiyo,82,15,Amtel 80/5 mg Tabs,80000
2018-07-01,OTCINV3297,Rev Elisha K. Kimaiyo,52,30,Ideos Chewable Tabs ( Calcium Bicarbonate),80000
2018-07-02,OTCINV3298,Fred Kipyegon Tonui,14000,1,DSA,4435000
2018-07-02,OTCINV3298,Fred Kipyegon Tonui,3000,1,G6PD,4435000
2018-07-02,OTCINV3298,Fred Kipyegon Tonui,6000,1,Hb Eletrophroresis,4435000
2018-07-02,OTCINV3298,Fred Kipyegon Tonui,5000,1,CMV IgG/IgM antibodies,4435000
2018-07-02,OTCINV3299,George Mukenya Mafura,500,1,Nipro / All types bloodlines,1701000
2018-07-02,OTCINV3299,George Mukenya Mafura,450,1,Nipro Bicarbonate Catridge,1701000
2018-07-02,OTCINV3299,George Mukenya Mafura,500,1,Nipro/ other  Acid Concentrate 5L,1701000
2018-07-02,OTCINV3299,George Mukenya Mafura,1300,1,Nipro/All types Dialysers,1701000
2018-07-02,OTCINV3299,George Mukenya Mafura,1000,1,Nursing,1701000
2018-07-02,OTCINV3299,George Mukenya Mafura,130,1,Primapore ( LEUKOMED),1701000
2018-07-02,OTCINV3299,George Mukenya Mafura,100,3,Normal saline,1701000
2018-07-02,OTCINV3299,George Mukenya Mafura,200,1,Consumables,1701000
2018-07-02,OTCINV3299,George Mukenya Mafura,10,10,Clean Gloves,1701000
2018-07-02,OTCINV3299,George Mukenya Mafura,300,1,CitraLock 4% 5 ml vial,1701000
2018-07-02,OTCINV3299,George Mukenya Mafura,400,1,Heparin 5000iu/ml I.M/I.V inj,1701000
2018-07-02,OTCINV3299,George Mukenya Mafura,400,1,Food,1701000
2018-07-02,OTCINV3299,George Mukenya Mafura,10,3,syringes 10ml,1701000
2018-07-02,OTCINV3299,George Mukenya Mafura,5,2,Syringes 5ml,1701000
2018-07-02,OTCINV3299,George Mukenya Mafura,20,4,syringes 20ml,1701000
2018-07-02,OTCINV3299,George Mukenya Mafura,2,2,Needle G23,1701000
2018-07-02,OTCINV3299,George Mukenya Mafura,3796,1,Dialysis Outpatient,1701000
2018-07-02,OTCINV3300,Vicotine  Jeruto Toroitich,1500,1,Consultation Dr. Maritim,7002000
2018-07-02,OTCINV3301,Joseph Langat,620,1,Lactulose(LACTULAC) SOL 200ml,148000
2018-07-02,OTCINV3301,Joseph Langat,10,30,Colchicine Tabs 500mcg ( GOUTNIL),148000
2018-07-02,OTCINV3302,Jepleting Kipkoech,1000,1,Uric Acid Levels,6099000
2018-07-02,OTCINV3302,Jepleting Kipkoech,41,30,Losartas 50 mg Tabs,6099000
2018-07-02,OTCINV3302,Jepleting Kipkoech,1500,1,Consultation Dr. Maritim,6099000
2018-07-02,OTCINV3302,Jepleting Kipkoech,580,1,Labetolol inj Stat dose,6099000
2018-07-02,OTCINV3302,Jepleting Kipkoech,10,1,syringes 10ml,6099000
2018-07-02,OTCINV3302,Jepleting Kipkoech,2,2,Needle G23,6099000
2018-07-02,OTCINV3302,Jepleting Kipkoech,80,1,"Branulas G 18, 20, 22 BD Type",6099000
2018-07-02,OTCINV3302,Jepleting Kipkoech,80,30,Ritor-SR,6099000
2018-07-02,OTCINV3302,Jepleting Kipkoech,90,30,Febuxostat 40 mg tabs (MEBUX 40),6099000
2018-07-02,OTCINV3302,Jepleting Kipkoech,10,30,Colchicine Tabs 500mcg ( GOUTNIL),6099000
2018-07-02,OTCINV3302,Jepleting Kipkoech,25,10,Myospaz Tabs,6099000
2018-07-02,OTCINV3302,Jepleting Kipkoech,25,30,Amlodipine 5 mg Tabs (AMLIBON),6099000
2018-07-02,OTCINV3303,Paul Kipkorir Ngeno,500,1,Calcium Levels,2788000
2018-07-02,OTCINV3303,Paul Kipkorir Ngeno,500,1,Phosphorus levels,2788000
2018-07-02,OTCINV3303,Paul Kipkorir Ngeno,1000,1,Uric Acid Levels,2788000
2018-07-02,OTCINV3303,Paul Kipkorir Ngeno,1000,1,Ldh,2788000
2018-07-02,OTCINV3303,Paul Kipkorir Ngeno,3500,1,Liver Funtion Test Full,2788000
2018-07-02,OTCINV3303,Paul Kipkorir Ngeno,2000,1,Lipid profile:full,2788000
2018-07-02,OTCINV3303,Paul Kipkorir Ngeno,1500,1,TSH,2788000
2018-07-02,OTCINV3303,Paul Kipkorir Ngeno,2000,1,Glycocylated Haemoglobin (Hba1c),2788000
2018-07-02,OTCINV3303,Paul Kipkorir Ngeno,6000,1,Hb Eletrophroresis,2788000
2018-07-02,OTCINV3303,Paul Kipkorir Ngeno,3000,1,G6PD,2788000
2018-07-02,OTCINV3303,Paul Kipkorir Ngeno,3500,1,ANA LANCET,2788000
2018-07-02,OTCINV3303,Paul Kipkorir Ngeno,8000,1,ANCA,2788000
2018-07-02,OTCINV3303,Paul Kipkorir Ngeno,2000,1,C3,2788000
2018-07-02,OTCINV3303,Paul Kipkorir Ngeno,2000,1,C-4,2788000
2018-07-02,OTCINV3303,Paul Kipkorir Ngeno,500,1,HIV Test,2788000
2018-07-02,OTCINV3303,Paul Kipkorir Ngeno,500,1,VDRL,2788000
2018-07-02,OTCINV3303,Paul Kipkorir Ngeno,500,1,Hepatitis BsAg - Rapid,2788000
2018-07-02,OTCINV3303,Paul Kipkorir Ngeno,500,1,Hepatitis C Test - Rapid,2788000
2018-07-02,OTCINV3303,Paul Kipkorir Ngeno,250,1,Urinalysis/microscopy,2788000
2018-07-02,OTCINV3303,Paul Kipkorir Ngeno,5000,1,CMV IgG/IgM antibodies,2788000
2018-07-02,OTCINV3303,Paul Kipkorir Ngeno,2000,1,Parathoid hormone,2788000
2018-07-02,OTCINV3303,Paul Kipkorir Ngeno,2500,1,Urine Protein Creatine Ratio,2788000
2018-07-02,OTCINV3303,Paul Kipkorir Ngeno,3000,1,Serum electrophoresis,2788000
2018-07-02,OTCINV3303,Paul Kipkorir Ngeno,2000,1,PSA,2788000
2018-07-02,OTCINV3304,philip,100,2,Nexium 20mg (Esomeprazole) tabs,108000
2018-07-02,OTCINV3304,philip,6,2,Panadol Advance Tabs,108000
2018-07-02,OTCINV3304,philip,5,10,Prednisolone Tabs 5mg (BLISTERED),108000
2018-07-02,OTCINV3304,philip,1,30,Metronidazole Tabs  200 mg.,108000
2018-07-02,OTCINV3305,Joel Chelimo,14000,1,DSA,1480000
2018-07-02,OTCINV3306,Sophie Chemisto,700,1,Non Re-breathable Mask Adult,3607000
2018-07-02,OTCINV3306,Sophie Chemisto,415,1,Nebulization Mask ADULT,3607000
2018-07-02,OTCINV3306,Sophie Chemisto,160,8,Combivent udv Nebulizer 2.5ml,3607000
2018-07-02,OTCINV3306,Sophie Chemisto,20,108,Frusemide Inj 10MG/2ml,3607000
2018-07-02,OTCINV3306,Sophie Chemisto,10,10,syringes 10ml,3607000
2018-07-02,OTCINV3306,Sophie Chemisto,20,3,syringes 20ml,3607000
2018-07-02,OTCINV3306,Sophie Chemisto,2,4,Needle G23,3607000
2018-07-02,OTCINV3306,Sophie Chemisto,80,2,"Branulas G 18, 20, 22 BD Type",3607000
2018-07-02,OTCINV3306,Sophie Chemisto,1500,1,ECG,3607000
2018-07-02,OTCINV3306,Sophie Chemisto,900,1,Full Blood Count (FBC),3607000
2018-07-02,OTCINV3306,Sophie Chemisto,2000,1,Urea/Creatinine/Electrolytes(KFT),3607000
2018-07-02,OTCINV3306,Sophie Chemisto,3500,1,Liver Funtion Test Full,3607000
2018-07-02,OTCINV3306,Sophie Chemisto,2500,1,Blood Gas Analysis,3607000
2018-07-02,OTCINV3306,Sophie Chemisto,100,1,Calcium gluconate Inj 1gm/ml,3607000
2018-07-02,OTCINV3306,Sophie Chemisto,105,1,Regular Human insulin Stat Dose,3607000
2018-07-02,OTCINV3306,Sophie Chemisto,150,1,Dextrose 50%,3607000
2018-07-02,OTCINV3306,Sophie Chemisto,20,1,INSULIN syringes 1ml 30gm,3607000
2018-07-02,OTCINV3306,Sophie Chemisto,3000,1,Admission fee,3607000
2018-07-02,OTCINV3306,Sophie Chemisto,4500,3,Bed charges,3607000
2018-07-02,OTCINV3306,Sophie Chemisto,1500,3,Nursing,3607000
2018-07-02,OTCINV3306,Sophie Chemisto,2,15,Needle G23,3607000
2018-07-02,OTCINV3306,Sophie Chemisto,5,7,Syringes 3ml,3607000
2018-07-02,OTCINV3306,Sophie Chemisto,20,20,syringes 20ml,3607000
2018-07-02,OTCINV3306,Sophie Chemisto,10,1,Water for injection,3607000
2018-07-02,OTCINV3306,Sophie Chemisto,30,3,Metoclopramide Injection(Metomed 10Mg/2ml,3607000
2018-07-02,OTCINV3306,Sophie Chemisto,2000,8,Nebulization,3607000
2018-07-02,OTCINV3306,Sophie Chemisto,250,5,Random Blood Sugar (RBS),3607000
2018-07-02,OTCINV3306,Sophie Chemisto,200,1,Bed Secure Zone (MACKING TOSH),3607000
2018-07-02,OTCINV3306,Sophie Chemisto,10,2,Surgical Blades,3607000
2018-07-02,OTCINV3306,Sophie Chemisto,35,1,Surgical gloves,3607000
2018-07-02,OTCINV3306,Sophie Chemisto,10,1,syringes 10ml,3607000
2018-07-02,OTCINV3306,Sophie Chemisto,20,1,syringes 20ml,3607000
2018-07-02,OTCINV3306,Sophie Chemisto,5,2,Syringes 5ml,3607000
2018-07-02,OTCINV3306,Sophie Chemisto,2,6,Needle G23,3607000
2018-07-02,OTCINV3306,Sophie Chemisto,100,1,Lignocaine 2% inj,3607000
2018-07-02,OTCINV3306,Sophie Chemisto,400,1,Heparin 5000iu/ml I.M/I.V inj,3607000
2018-07-02,OTCINV3306,Sophie Chemisto,200,1,Consumables,3607000
2018-07-02,OTCINV3306,Sophie Chemisto,100,1,Normal saline,3607000
2018-07-02,OTCINV3306,Sophie Chemisto,1000,1,Stitching pack,3607000
2018-07-02,OTCINV3306,Sophie Chemisto,1000,1,Ethilon Nylon Suture 1/0 R/C,3607000
2018-07-02,OTCINV3306,Sophie Chemisto,600,1,Vincryl 3/0 R/B,3607000
2018-07-02,OTCINV3306,Sophie Chemisto,600,1,Sterile Gown,3607000
2018-07-02,OTCINV3306,Sophie Chemisto,20000,1,Permanent Dialysis Catheter,3607000
2018-07-02,OTCINV3306,Sophie Chemisto,30000,1,Permcath. Insertion Doctor's fees,3607000
2018-07-02,OTCINV3306,Sophie Chemisto,10,2,Masks,3607000
2018-07-02,OTCINV3306,Sophie Chemisto,10,2,Surgeon  Caps,3607000
2018-07-02,OTCINV3306,Sophie Chemisto,10,1,Water for injection,3607000
2018-07-02,OTCINV3306,Sophie Chemisto,600,2,Clean gloves ( BOX),3607000
2018-07-02,OTCINV3306,Sophie Chemisto,200,1,Nosal Brongs,3607000
2018-07-02,OTCINV3306,Sophie Chemisto,500,3,Nipro / All types bloodlines,3607000
2018-07-02,OTCINV3306,Sophie Chemisto,450,3,Nipro Bicarbonate Catridge,3607000
2018-07-02,OTCINV3306,Sophie Chemisto,500,3,Nipro/ other  Acid Concentrate 5L,3607000
2018-07-02,OTCINV3306,Sophie Chemisto,1300,3,Nipro/All types Dialysers,3607000
2018-07-02,OTCINV3306,Sophie Chemisto,1000,3,Nursing,3607000
2018-07-02,OTCINV3306,Sophie Chemisto,100,6,Normal saline,3607000
2018-07-02,OTCINV3306,Sophie Chemisto,300,3,CitraLock 4% 5 ml vial,3607000
2018-07-02,OTCINV3306,Sophie Chemisto,400,3,Heparin 5000iu/ml I.M/I.V inj,3607000
2018-07-02,OTCINV3306,Sophie Chemisto,130,3,Primapore ( LEUKOMED),3607000
2018-07-02,OTCINV3306,Sophie Chemisto,200,3,Consumables,3607000
2018-07-02,OTCINV3306,Sophie Chemisto,10,9,syringes 10ml,3607000
2018-07-02,OTCINV3306,Sophie Chemisto,20,10,syringes 20ml,3607000
2018-07-02,OTCINV3306,Sophie Chemisto,5,6,Syringes 5ml,3607000
2018-07-02,OTCINV3306,Sophie Chemisto,2,6,Needle G23,3607000
2018-07-02,OTCINV3306,Sophie Chemisto,3752,3,Dialysis Outpatient,3607000
2018-07-02,OTCINV3306,Sophie Chemisto,1500,1,Consultation Dr. Maritim,3607000
2018-07-02,OTCINV3306,Sophie Chemisto,4000,2,Doctors Review - Dr. Koech,3607000
2018-07-02,OTCINV3306,Sophie Chemisto,36,34,Nebivolol 2.5 mg Tabs( NEBIRING),3607000
2018-07-02,OTCINV3306,Sophie Chemisto,35,31,Pregabalin Tabs 75mg ( PRENURA),3607000
2018-07-02,OTCINV3306,Sophie Chemisto,75,30,Treviamet 50/500mg Tabs,3607000
2018-07-02,OTCINV3306,Sophie Chemisto,250,2,Blood grouping/Du test,3607000
2018-07-02,OTCINV3306,Sophie Chemisto,48,60,Lasix Tabs 40m,3607000
2018-07-02,OTCINV3306,Sophie Chemisto,140,28,Rosuvastatin Tabs ( Crestor) 20mg,3607000
2018-07-02,OTCINV3306,Sophie Chemisto,6384,2,Oxygen per cylinder,3607000
2018-07-02,OTCINV3308,James Gachanja Thuku,14000,1,DSA,3907000
2018-07-02,OTCINV3310,Hellen Njeri Kamau,14000,1,DSA,1489000
2018-07-02,OTCINV3311,William Kariakei,14000,1,DSA,223000
2018-07-02,OTCINV3312,Tomdila Kipkoech,14000,1,DSA,2463000
2018-07-02,OTCINV3313,Sila Kemboi Samoei,14000,1,DSA,1105000
2018-07-02,OTCINV3314,Sila Kemboi Samoei,14000,1,DSA,1105000
2018-07-02,OTCINV3315,Baiya Mariko Suter,14000,1,DSA,2486000
2018-07-02,OTCINV3315,Baiya Mariko Suter,2500,1,Urine Protein Creatine Ratio,2486000
2018-07-02,OTCINV3315,Baiya Mariko Suter,5000,1,CMV IgG/IgM antibodies,2486000
2018-07-02,OTCINV3315,Baiya Mariko Suter,6000,1,Hb Eletrophroresis,2486000
2018-07-02,OTCINV3315,Baiya Mariko Suter,3000,1,G6PD,2486000
2018-07-02,OTCINV3317,Stephen  Chepkwony,1600,1,2 Way Catheter size 16 ( SILICONE),6197000
2018-07-02,OTCINV3317,Stephen  Chepkwony,35,1,Surgical gloves,6197000
2018-07-02,OTCINV3317,Stephen  Chepkwony,130,1,Urine Bag 2000ml ( Biolife),6197000
2018-07-02,OTCINV3317,Stephen  Chepkwony,20,2,syringes 20ml,6197000
2018-07-02,OTCINV3317,Stephen  Chepkwony,500,1,Nursing fee,6197000
2018-07-02,OTCINV3317,Stephen  Chepkwony,10,2,Water for injection,6197000
2018-07-02,OTCINV3317,Stephen  Chepkwony,10,2,Clean Gloves,6197000
2018-07-02,OTCINV3318,Elizabeth Nduku Mulu,900,1,Full Blood Count (FBC),2518000
2018-07-02,OTCINV3318,Elizabeth Nduku Mulu,2000,1,Urea/Creatinine/Electrolytes(KFT),2518000
2018-07-02,OTCINV3318,Elizabeth Nduku Mulu,250,1,Urinalysis/microscopy,2518000
2018-07-02,OTCINV3319,Lucy Cherop Sambu,14000,1,DSA,791000
2018-07-02,OTCINV3320,Job Kibiwot Sitienei,500,1,Nipro / All types bloodlines,3088000
2018-07-02,OTCINV3320,Job Kibiwot Sitienei,450,1,Nipro Bicarbonate Catridge,3088000
2018-07-02,OTCINV3320,Job Kibiwot Sitienei,500,1,Nipro/ other  Acid Concentrate 5L,3088000
2018-07-02,OTCINV3320,Job Kibiwot Sitienei,1300,1,Nipro/All types Dialysers,3088000
2018-07-02,OTCINV3320,Job Kibiwot Sitienei,1000,1,Nursing,3088000
2018-07-02,OTCINV3320,Job Kibiwot Sitienei,100,2,Normal saline,3088000
2018-07-02,OTCINV3320,Job Kibiwot Sitienei,200,1,Consumables,3088000
2018-07-02,OTCINV3320,Job Kibiwot Sitienei,10,10,Clean Gloves,3088000
2018-07-02,OTCINV3320,Job Kibiwot Sitienei,130,1,Primapore ( LEUKOMED),3088000
2018-07-02,OTCINV3320,Job Kibiwot Sitienei,300,1,CitraLock 4% 5 ml vial,3088000
2018-07-02,OTCINV3320,Job Kibiwot Sitienei,400,1,Heparin 5000iu/ml I.M/I.V inj,3088000
2018-07-02,OTCINV3320,Job Kibiwot Sitienei,400,1,Food,3088000
2018-07-02,OTCINV3320,Job Kibiwot Sitienei,1200,1,Erythropoietin 4000 IU (EPOFIT),3088000
2018-07-02,OTCINV3320,Job Kibiwot Sitienei,10,3,syringes 10ml,3088000
2018-07-02,OTCINV3320,Job Kibiwot Sitienei,20,4,syringes 20ml,3088000
2018-07-02,OTCINV3320,Job Kibiwot Sitienei,5,2,Syringes 5ml,3088000
2018-07-02,OTCINV3320,Job Kibiwot Sitienei,2,2,Needle G23,3088000
2018-07-02,OTCINV3320,Job Kibiwot Sitienei,2696,1,Dialysis Outpatient,3088000
2018-07-02,OTCINV3321,Esther Mutai,500,1,Nipro / All types bloodlines,76000
2018-07-02,OTCINV3321,Esther Mutai,450,1,Nipro Bicarbonate Catridge,76000
2018-07-02,OTCINV3321,Esther Mutai,500,1,Nipro/ other  Acid Concentrate 5L,76000
2018-07-02,OTCINV3321,Esther Mutai,1300,1,Nipro/All types Dialysers,76000
2018-07-02,OTCINV3321,Esther Mutai,1000,1,Nursing,76000
2018-07-02,OTCINV3321,Esther Mutai,100,2,Normal saline,76000
2018-07-02,OTCINV3321,Esther Mutai,200,1,Consumables,76000
2018-07-02,OTCINV3321,Esther Mutai,10,10,Clean Gloves,76000
2018-07-02,OTCINV3321,Esther Mutai,130,1,Primapore ( LEUKOMED),76000
2018-07-02,OTCINV3321,Esther Mutai,400,1,Food,76000
2018-07-02,OTCINV3321,Esther Mutai,10,3,syringes 10ml,76000
2018-07-02,OTCINV3321,Esther Mutai,20,4,syringes 20ml,76000
2018-07-02,OTCINV3321,Esther Mutai,5,2,Syringes 5ml,76000
2018-07-02,OTCINV3321,Esther Mutai,2,2,Needle G23,76000
2018-07-02,OTCINV3321,Esther Mutai,300,1,CitraLock 4% 5 ml vial,76000
2018-07-02,OTCINV3321,Esther Mutai,4296,1,Dialysis Outpatient,76000
2018-07-02,OTCINV3322,Joseph njuguna Kariuki,625,1,MEGAFER Inj 100mg/5ml ( Iron Sucrose)),803000
2018-07-02,OTCINV3322,Joseph njuguna Kariuki,500,1,Nipro / All types bloodlines,803000
2018-07-02,OTCINV3322,Joseph njuguna Kariuki,450,1,Nipro Bicarbonate Catridge,803000
2018-07-02,OTCINV3322,Joseph njuguna Kariuki,1300,1,Nipro/All types Dialysers,803000
2018-07-02,OTCINV3322,Joseph njuguna Kariuki,1000,1,Nursing,803000
2018-07-02,OTCINV3322,Joseph njuguna Kariuki,100,3,Normal saline,803000
2018-07-02,OTCINV3322,Joseph njuguna Kariuki,130,1,Primapore ( LEUKOMED),803000
2018-07-02,OTCINV3322,Joseph njuguna Kariuki,500,1,Nipro/ other  Acid Concentrate 5L,803000
2018-07-02,OTCINV3322,Joseph njuguna Kariuki,400,1,Food,803000
2018-07-02,OTCINV3322,Joseph njuguna Kariuki,200,1,Consumables,803000
2018-07-02,OTCINV3322,Joseph njuguna Kariuki,10,10,Clean Gloves,803000
2018-07-02,OTCINV3322,Joseph njuguna Kariuki,10,3,syringes 10ml,803000
2018-07-02,OTCINV3322,Joseph njuguna Kariuki,20,4,syringes 20ml,803000
2018-07-02,OTCINV3322,Joseph njuguna Kariuki,5,2,Syringes 5ml,803000
2018-07-02,OTCINV3322,Joseph njuguna Kariuki,2,2,Needle G23,803000
2018-07-02,OTCINV3322,Joseph njuguna Kariuki,3871,1,Dialysis Outpatient,803000
2018-07-02,OTCINV3324,Joseph Langat,500,1,Nipro / All types bloodlines,148000
2018-07-02,OTCINV3324,Joseph Langat,450,1,Nipro Bicarbonate Catridge,148000
2018-07-02,OTCINV3324,Joseph Langat,500,1,Nipro/ other  Acid Concentrate 5L,148000
2018-07-02,OTCINV3324,Joseph Langat,1300,1,Nipro/All types Dialysers,148000
2018-07-02,OTCINV3324,Joseph Langat,150,1,Nemiderm ABS 10x25 CM,148000
2018-07-02,OTCINV3324,Joseph Langat,200,1,Consumables,148000
2018-07-02,OTCINV3324,Joseph Langat,10,10,Clean Gloves,148000
2018-07-02,OTCINV3324,Joseph Langat,400,1,Food,148000
2018-07-02,OTCINV3324,Joseph Langat,1000,1,Nursing,148000
2018-07-02,OTCINV3324,Joseph Langat,130,1,Primapore ( LEUKOMED),148000
2018-07-02,OTCINV3324,Joseph Langat,100,3,Normal saline,148000
2018-07-02,OTCINV3324,Joseph Langat,10,3,syringes 10ml,148000
2018-07-02,OTCINV3324,Joseph Langat,20,4,syringes 20ml,148000
2018-07-02,OTCINV3324,Joseph Langat,5,2,Syringes 5ml,148000
2018-07-02,OTCINV3324,Joseph Langat,2,2,Needle G23,148000
2018-07-02,OTCINV3324,Joseph Langat,300,1,CitraLock 4% 5 ml vial,148000
2018-07-02,OTCINV3324,Joseph Langat,4046,1,Dialysis Outpatient,148000
2018-07-02,OTCINV3325,Peter Macharia ST  LUKE'S,500,1,Nipro / All types bloodlines,6378000
2018-07-02,OTCINV3325,Peter Macharia ST  LUKE'S,450,1,Nipro Bicarbonate Catridge,6378000
2018-07-02,OTCINV3325,Peter Macharia ST  LUKE'S,500,1,Nipro/ other  Acid Concentrate 5L,6378000
2018-07-02,OTCINV3325,Peter Macharia ST  LUKE'S,1300,1,Nipro/All types Dialysers,6378000
2018-07-02,OTCINV3325,Peter Macharia ST  LUKE'S,1000,1,Nursing,6378000
2018-07-02,OTCINV3325,Peter Macharia ST  LUKE'S,100,7,Normal saline,6378000
2018-07-02,OTCINV3325,Peter Macharia ST  LUKE'S,200,1,Consumables,6378000
2018-07-02,OTCINV3325,Peter Macharia ST  LUKE'S,10,10,Clean Gloves,6378000
2018-07-02,OTCINV3325,Peter Macharia ST  LUKE'S,130,1,Primapore ( LEUKOMED),6378000
2018-07-02,OTCINV3325,Peter Macharia ST  LUKE'S,400,1,Food,6378000
2018-07-02,OTCINV3325,Peter Macharia ST  LUKE'S,10,3,syringes 10ml,6378000
2018-07-02,OTCINV3325,Peter Macharia ST  LUKE'S,20,4,syringes 20ml,6378000
2018-07-02,OTCINV3325,Peter Macharia ST  LUKE'S,5,2,Syringes 5ml,6378000
2018-07-02,OTCINV3325,Peter Macharia ST  LUKE'S,2,2,Needle G23,6378000
2018-07-02,OTCINV3325,Peter Macharia ST  LUKE'S,4096,1,Dialysis Outpatient,6378000
2018-07-02,OTCINV3326,William Njoroge,500,2,Nipro / All types bloodlines,7058000
2018-07-02,OTCINV3326,William Njoroge,450,2,Nipro Bicarbonate Catridge,7058000
2018-07-02,OTCINV3326,William Njoroge,1300,2,Nipro/All types Dialysers,7058000
2018-07-02,OTCINV3326,William Njoroge,500,1,Nipro/ other  Acid Concentrate 5L,7058000
2018-07-02,OTCINV3326,William Njoroge,1000,1,Nursing,7058000
2018-07-02,OTCINV3326,William Njoroge,400,1,Food,7058000
2018-07-02,OTCINV3326,William Njoroge,200,1,Consumables,7058000
2018-07-02,OTCINV3326,William Njoroge,10,10,Clean Gloves,7058000
2018-07-02,OTCINV3326,William Njoroge,10,3,syringes 10ml,7058000
2018-07-02,OTCINV3326,William Njoroge,20,4,syringes 20ml,7058000
2018-07-02,OTCINV3326,William Njoroge,5,2,Syringes 5ml,7058000
2018-07-02,OTCINV3326,William Njoroge,2680,1,Dialysis Outpatient,7058000
2018-07-03,OTCINV3327,Charles Kipkemoi Mutai,2000,1,Consultation -  Dr. Koech,4121000
2018-07-03,OTCINV3328,Nancy Jeptoo Tanui,2000,1,Glycocylated Haemoglobin (Hba1c),1344000
2018-07-03,OTCINV3328,Nancy Jeptoo Tanui,2000,1,Urea/Creatinine/Electrolytes(KFT),1344000
2018-07-03,OTCINV3328,Nancy Jeptoo Tanui,1000,1,Consultation Review - Dr. Kirui,1344000
2018-07-03,OTCINV3328,Nancy Jeptoo Tanui,75,30,Treviamet 50/1000mg Tabs,1344000
2018-07-03,OTCINV3329,Ruth Wanjiku Waweru,500,1,Nipro / All types bloodlines,3763000
2018-07-03,OTCINV3329,Ruth Wanjiku Waweru,450,1,Nipro Bicarbonate Catridge,3763000
2018-07-03,OTCINV3329,Ruth Wanjiku Waweru,500,1,Nipro/ other  Acid Concentrate 5L,3763000
2018-07-03,OTCINV3329,Ruth Wanjiku Waweru,1300,1,Nipro/All types Dialysers,3763000
2018-07-03,OTCINV3329,Ruth Wanjiku Waweru,1000,1,Nursing,3763000
2018-07-03,OTCINV3329,Ruth Wanjiku Waweru,100,2,Normal saline,3763000
2018-07-03,OTCINV3329,Ruth Wanjiku Waweru,100,1,Fistula Needles Pers,3763000
2018-07-03,OTCINV3329,Ruth Wanjiku Waweru,300,1,CitraLock 4% 5 ml vial,3763000
2018-07-03,OTCINV3329,Ruth Wanjiku Waweru,130,1,Primapore ( LEUKOMED),3763000
2018-07-03,OTCINV3329,Ruth Wanjiku Waweru,10,10,Clean Gloves,3763000
2018-07-03,OTCINV3329,Ruth Wanjiku Waweru,200,1,Consumables,3763000
2018-07-03,OTCINV3329,Ruth Wanjiku Waweru,10,3,syringes 10ml,3763000
2018-07-03,OTCINV3329,Ruth Wanjiku Waweru,20,4,syringes 20ml,3763000
2018-07-03,OTCINV3329,Ruth Wanjiku Waweru,5,2,Syringes 5ml,3763000
2018-07-03,OTCINV3329,Ruth Wanjiku Waweru,2,2,Needle G23,3763000
2018-07-03,OTCINV3329,Ruth Wanjiku Waweru,400,1,Food,3763000
2018-07-03,OTCINV3329,Ruth Wanjiku Waweru,1200,1,Erythropoietin 4000 IU (EPOFIT),3763000
2018-07-03,OTCINV3329,Ruth Wanjiku Waweru,2996,1,Dialysis Outpatient,3763000
2018-07-03,OTCINV3330,Joan Jemaiyo Sang,52,30,Ideos Chewable Tabs ( Calcium Bicarbonate),2843000
2018-07-03,OTCINV3331,Rachel Chepkirui Koskei,1500,1,Consultation Dr. Maritim,7321000
2018-07-03,OTCINV3331,Rachel Chepkirui Koskei,30,1,Metoclopramide Injection(Metomed 10Mg/2ml,7321000
2018-07-03,OTCINV3331,Rachel Chepkirui Koskei,30,1,Tramadol Inj 50mg/2ml,7321000
2018-07-03,OTCINV3331,Rachel Chepkirui Koskei,20000,1,Permanent Dialysis Catheter,7321000
2018-07-03,OTCINV3331,Rachel Chepkirui Koskei,30000,1,Permcath. Insertion Doctor's fees,7321000
2018-07-03,OTCINV3331,Rachel Chepkirui Koskei,5000,1,Minor procedure,7321000
2018-07-03,OTCINV3331,Rachel Chepkirui Koskei,600,1,Sterile Gown,7321000
2018-07-03,OTCINV3331,Rachel Chepkirui Koskei,10,3,Masks,7321000
2018-07-03,OTCINV3331,Rachel Chepkirui Koskei,10,3,Surgeon  Caps,7321000
2018-07-03,OTCINV3331,Rachel Chepkirui Koskei,100,1,Lignocaine 2% inj,7321000
2018-07-03,OTCINV3331,Rachel Chepkirui Koskei,400,1,Heparin 5000iu/ml I.M/I.V inj,7321000
2018-07-03,OTCINV3331,Rachel Chepkirui Koskei,200,1,Consumables,7321000
2018-07-03,OTCINV3331,Rachel Chepkirui Koskei,1000,1,Stitching pack,7321000
2018-07-03,OTCINV3331,Rachel Chepkirui Koskei,100,1,Normal saline,7321000
2018-07-03,OTCINV3331,Rachel Chepkirui Koskei,400,1,Nylon suture 3/0RC,7321000
2018-07-03,OTCINV3331,Rachel Chepkirui Koskei,1000,1,Ethilon Nylon Suture 1/0 R/C,7321000
2018-07-03,OTCINV3331,Rachel Chepkirui Koskei,1000,1,Nursing,7321000
2018-07-03,OTCINV3331,Rachel Chepkirui Koskei,10,2,Surgical Blades,7321000
2018-07-03,OTCINV3331,Rachel Chepkirui Koskei,130,1,Primapore ( LEUKOMED),7321000
2018-07-03,OTCINV3331,Rachel Chepkirui Koskei,35,2,Surgical gloves,7321000
2018-07-03,OTCINV3331,Rachel Chepkirui Koskei,2,3,Needle G23,7321000
2018-07-03,OTCINV3331,Rachel Chepkirui Koskei,20,1,syringes 20ml,7321000
2018-07-03,OTCINV3331,Rachel Chepkirui Koskei,10,1,syringes 10ml,7321000
2018-07-03,OTCINV3331,Rachel Chepkirui Koskei,5,3,Syringes 5ml,7321000
2018-07-03,OTCINV3331,Rachel Chepkirui Koskei,10,2,Clean Gloves,7321000
2018-07-03,OTCINV3332,Joel Chelimo,500,1,Nipro / All types bloodlines,1480000
2018-07-03,OTCINV3332,Joel Chelimo,450,1,Nipro Bicarbonate Catridge,1480000
2018-07-03,OTCINV3332,Joel Chelimo,500,1,Nipro/ other  Acid Concentrate 5L,1480000
2018-07-03,OTCINV3332,Joel Chelimo,1300,1,Nipro/All types Dialysers,1480000
2018-07-03,OTCINV3332,Joel Chelimo,100,2,Normal saline,1480000
2018-07-03,OTCINV3332,Joel Chelimo,1000,1,Nursing,1480000
2018-07-03,OTCINV3332,Joel Chelimo,200,1,Consumables,1480000
2018-07-03,OTCINV3332,Joel Chelimo,10,10,Clean Gloves,1480000
2018-07-03,OTCINV3332,Joel Chelimo,130,1,Primapore ( LEUKOMED),1480000
2018-07-03,OTCINV3332,Joel Chelimo,300,1,CitraLock 4% 5 ml vial,1480000
2018-07-03,OTCINV3332,Joel Chelimo,400,1,Food,1480000
2018-07-03,OTCINV3332,Joel Chelimo,10,3,syringes 10ml,1480000
2018-07-03,OTCINV3332,Joel Chelimo,20,3,syringes 20ml,1480000
2018-07-03,OTCINV3332,Joel Chelimo,5,2,Syringes 5ml,1480000
2018-07-03,OTCINV3332,Joel Chelimo,2,2,Needle G23,1480000
2018-07-03,OTCINV3332,Joel Chelimo,1200,1,Erythropoietin 4000 IU (EPOFIT),1480000
2018-07-03,OTCINV3332,Joel Chelimo,3116,1,Dialysis Outpatient,1480000
2018-07-03,OTCINV3333,"Ngetich, Viola Chelagat",500,1,Nipro / All types bloodlines,2603000
2018-07-03,OTCINV3333,"Ngetich, Viola Chelagat",450,1,Nipro Bicarbonate Catridge,2603000
2018-07-03,OTCINV3333,"Ngetich, Viola Chelagat",500,1,Nipro/ other  Acid Concentrate 5L,2603000
2018-07-03,OTCINV3333,"Ngetich, Viola Chelagat",1300,1,Nipro/All types Dialysers,2603000
2018-07-03,OTCINV3333,"Ngetich, Viola Chelagat",1000,1,Nursing,2603000
2018-07-03,OTCINV3333,"Ngetich, Viola Chelagat",100,3,Normal saline,2603000
2018-07-03,OTCINV3333,"Ngetich, Viola Chelagat",1200,1,Erythropoietin 4000 IU (EPOFIT),2603000
2018-07-03,OTCINV3333,"Ngetich, Viola Chelagat",300,1,CitraLock 4% 5 ml vial,2603000
2018-07-03,OTCINV3333,"Ngetich, Viola Chelagat",400,1,Food,2603000
2018-07-03,OTCINV3333,"Ngetich, Viola Chelagat",10,3,syringes 10ml,2603000
2018-07-03,OTCINV3333,"Ngetich, Viola Chelagat",20,3,syringes 20ml,2603000
2018-07-03,OTCINV3333,"Ngetich, Viola Chelagat",5,2,Syringes 5ml,2603000
2018-07-03,OTCINV3333,"Ngetich, Viola Chelagat",2,2,Needle G23,2603000
2018-07-03,OTCINV3333,"Ngetich, Viola Chelagat",130,1,Primapore ( LEUKOMED),2603000
2018-07-03,OTCINV3333,"Ngetich, Viola Chelagat",10,10,Clean Gloves,2603000
2018-07-03,OTCINV3333,"Ngetich, Viola Chelagat",3216,1,Dialysis Outpatient,2603000
2018-07-03,OTCINV3334,Benard Kiprono Langat,500,1,Nipro / All types bloodlines,3015000
2018-07-03,OTCINV3334,Benard Kiprono Langat,450,1,Nipro Bicarbonate Catridge,3015000
2018-07-03,OTCINV3334,Benard Kiprono Langat,500,1,Nipro/ other  Acid Concentrate 5L,3015000
2018-07-03,OTCINV3334,Benard Kiprono Langat,1300,1,Nipro/All types Dialysers,3015000
2018-07-03,OTCINV3334,Benard Kiprono Langat,100,2,Normal saline,3015000
2018-07-03,OTCINV3334,Benard Kiprono Langat,200,1,Consumables,3015000
2018-07-03,OTCINV3334,Benard Kiprono Langat,10,10,Clean Gloves,3015000
2018-07-03,OTCINV3334,Benard Kiprono Langat,1000,1,Nursing,3015000
2018-07-03,OTCINV3334,Benard Kiprono Langat,130,1,Primapore ( LEUKOMED),3015000
2018-07-03,OTCINV3334,Benard Kiprono Langat,1200,1,Erythropoietin 4000 IU (EPOFIT),3015000
2018-07-03,OTCINV3334,Benard Kiprono Langat,400,1,Food,3015000
2018-07-03,OTCINV3334,Benard Kiprono Langat,10,3,syringes 10ml,3015000
2018-07-03,OTCINV3334,Benard Kiprono Langat,20,3,syringes 20ml,3015000
2018-07-03,OTCINV3334,Benard Kiprono Langat,5,3,Syringes 5ml,3015000
2018-07-03,OTCINV3334,Benard Kiprono Langat,2,2,Needle G23,3015000
2018-07-03,OTCINV3334,Benard Kiprono Langat,3411,1,Dialysis Outpatient,3015000
2018-07-03,OTCINV3335,Joan Jemaiyo Sang,500,1,Nipro / All types bloodlines,2843000
2018-07-03,OTCINV3335,Joan Jemaiyo Sang,450,1,Nipro Bicarbonate Catridge,2843000
2018-07-03,OTCINV3335,Joan Jemaiyo Sang,500,1,Nipro/ other  Acid Concentrate 5L,2843000
2018-07-03,OTCINV3335,Joan Jemaiyo Sang,1300,1,Nipro/All types Dialysers,2843000
2018-07-03,OTCINV3335,Joan Jemaiyo Sang,1000,1,Nursing,2843000
2018-07-03,OTCINV3335,Joan Jemaiyo Sang,100,2,Normal saline,2843000
2018-07-03,OTCINV3335,Joan Jemaiyo Sang,200,1,Consumables,2843000
2018-07-03,OTCINV3335,Joan Jemaiyo Sang,10,10,Clean Gloves,2843000
2018-07-03,OTCINV3335,Joan Jemaiyo Sang,130,1,Primapore ( LEUKOMED),2843000
2018-07-03,OTCINV3335,Joan Jemaiyo Sang,400,1,Food,2843000
2018-07-03,OTCINV3335,Joan Jemaiyo Sang,150,1,Random Blood Sugar (RBS),2843000
2018-07-03,OTCINV3335,Joan Jemaiyo Sang,10,3,syringes 10ml,2843000
2018-07-03,OTCINV3335,Joan Jemaiyo Sang,20,3,syringes 20ml,2843000
2018-07-03,OTCINV3335,Joan Jemaiyo Sang,5,2,Syringes 5ml,2843000
2018-07-03,OTCINV3335,Joan Jemaiyo Sang,2,2,Needle G23,2843000
2018-07-03,OTCINV3335,Joan Jemaiyo Sang,1200,1,Erythropoietin 4000 IU (EPOFIT),2843000
2018-07-03,OTCINV3335,Joan Jemaiyo Sang,3266,1,Dialysis Outpatient,2843000
2018-07-04,OTCINV3336,Jane Waithera Kiarie,500,1,Nipro / All types bloodlines,5423000
2018-07-04,OTCINV3336,Jane Waithera Kiarie,450,1,Nipro Bicarbonate Catridge,5423000
2018-07-04,OTCINV3336,Jane Waithera Kiarie,500,1,Nipro/ other  Acid Concentrate 5L,5423000
2018-07-04,OTCINV3336,Jane Waithera Kiarie,1300,1,Nipro/All types Dialysers,5423000
2018-07-04,OTCINV3336,Jane Waithera Kiarie,1000,1,Nursing,5423000
2018-07-04,OTCINV3336,Jane Waithera Kiarie,100,2,Normal saline,5423000
2018-07-04,OTCINV3336,Jane Waithera Kiarie,130,1,Primapore ( LEUKOMED),5423000
2018-07-04,OTCINV3336,Jane Waithera Kiarie,200,1,Consumables,5423000
2018-07-04,OTCINV3336,Jane Waithera Kiarie,10,10,Clean Gloves,5423000
2018-07-04,OTCINV3336,Jane Waithera Kiarie,300,1,CitraLock 4% 5 ml vial,5423000
2018-07-04,OTCINV3336,Jane Waithera Kiarie,400,1,Heparin 5000iu/ml I.M/I.V inj,5423000
2018-07-04,OTCINV3336,Jane Waithera Kiarie,400,1,Food,5423000
2018-07-04,OTCINV3336,Jane Waithera Kiarie,10,3,syringes 10ml,5423000
2018-07-04,OTCINV3336,Jane Waithera Kiarie,20,4,syringes 20ml,5423000
2018-07-04,OTCINV3336,Jane Waithera Kiarie,5,2,Syringes 5ml,5423000
2018-07-04,OTCINV3336,Jane Waithera Kiarie,1200,1,Erythropoietin 4000 IU (EPOFIT),5423000
2018-07-04,OTCINV3336,Jane Waithera Kiarie,52,30,Ideos Chewable Tabs ( Calcium Bicarbonate),5423000
2018-07-04,OTCINV3336,Jane Waithera Kiarie,1640,1,Dialysis Outpatient,5423000
2018-07-04,OTCINV3337,Leba M'mbone,2500,1,Consultation -  Dr. Koech,7318000
2018-07-04,OTCINV3337,Leba M'mbone,1500,1,ECG,7318000
2018-07-04,OTCINV3337,Leba M'mbone,900,1,Full Blood Count (FBC),7318000
2018-07-04,OTCINV3337,Leba M'mbone,2000,1,Urea/Creatinine/Electrolytes(KFT),7318000
2018-07-04,OTCINV3337,Leba M'mbone,1000,1,Uric Acid Levels,7318000
2018-07-04,OTCINV3337,Leba M'mbone,500,1,Phosphorus levels,7318000
2018-07-04,OTCINV3337,Leba M'mbone,250,1,Random Blood Sugar (RBS),7318000
2018-07-04,OTCINV3337,Leba M'mbone,250,1,Urinalysis/microscopy,7318000
2018-07-04,OTCINV3337,Leba M'mbone,25,30,Atorvastatin 20 mg Tabs ( COLESTOP),7318000
2018-07-04,OTCINV3337,Leba M'mbone,20,30,Presartan- H Tabs,7318000
2018-07-04,OTCINV3338,Ann Katini Kiungu,250,1,Urinalysis/microscopy,3907000
2018-07-04,OTCINV3338,Ann Katini Kiungu,2500,1,Urine Protein Creatine Ratio,3907000
2018-07-04,OTCINV3338,Ann Katini Kiungu,3500,1,ANA LANCET,3907000
2018-07-04,OTCINV3338,Ann Katini Kiungu,2000,1,C3,3907000
2018-07-04,OTCINV3338,Ann Katini Kiungu,2000,1,C-4,3907000
2018-07-04,OTCINV3338,Ann Katini Kiungu,10000,1,T - Cell Cross Match,3907000
2018-07-04,OTCINV3338,Ann Katini Kiungu,80,3,"Branulas G 18, 20, 22 BD Type",3907000
2018-07-04,OTCINV3338,Ann Katini Kiungu,150,1,Branula G 24 WITH Port BD Type,3907000
2018-07-04,OTCINV3338,Ann Katini Kiungu,100,10,Normal saline,3907000
2018-07-04,OTCINV3338,Ann Katini Kiungu,12000,5,Human Albumin 20% 100ML,3907000
2018-07-04,OTCINV3338,Ann Katini Kiungu,28000,1,Plasma flux Dialyzer,3907000
2018-07-04,OTCINV3338,Ann Katini Kiungu,10000,1,Plasmapheresis Procedure,3907000
2018-07-04,OTCINV3338,Ann Katini Kiungu,600,1,Clean gloves ( BOX),3907000
2018-07-04,OTCINV3338,Ann Katini Kiungu,35,2,Blood Administration Set,3907000
2018-07-04,OTCINV3338,Ann Katini Kiungu,35,2,Giving set,3907000
2018-07-04,OTCINV3338,Ann Katini Kiungu,250,1,Paracetamol  1000 mg iv. ( INFLUGAN),3907000
2018-07-04,OTCINV3338,Ann Katini Kiungu,30,1,Metoclopramide Injection(Metomed 10Mg/2ml,3907000
2018-07-04,OTCINV3338,Ann Katini Kiungu,10,1,Surgical Blades,3907000
2018-07-04,OTCINV3338,Ann Katini Kiungu,400,1,Heparin 5000iu/ml I.M/I.V inj,3907000
2018-07-04,OTCINV3338,Ann Katini Kiungu,10,1,Masks,3907000
2018-07-04,OTCINV3338,Ann Katini Kiungu,10,1,Surgeon  Caps,3907000
2018-07-04,OTCINV3338,Ann Katini Kiungu,400,1,Ondansetron inj ( EMADON) 4 MG/ 2ML,3907000
2018-07-04,OTCINV3338,Ann Katini Kiungu,20,7,syringes 20ml,3907000
2018-07-04,OTCINV3338,Ann Katini Kiungu,10,3,syringes 10ml,3907000
2018-07-04,OTCINV3338,Ann Katini Kiungu,5,2,Syringes 5ml,3907000
2018-07-04,OTCINV3338,Ann Katini Kiungu,2,4,Needle G23,3907000
2018-07-04,OTCINV3338,Ann Katini Kiungu,500,1,Dressing Pack,3907000
2018-07-04,OTCINV3339,Gilbert Rotich,500,1,Nipro / All types bloodlines,6980000
2018-07-04,OTCINV3339,Gilbert Rotich,450,1,Nipro Bicarbonate Catridge,6980000
2018-07-04,OTCINV3339,Gilbert Rotich,500,1,Nipro/ other  Acid Concentrate 5L,6980000
2018-07-04,OTCINV3339,Gilbert Rotich,1300,1,Nipro/All types Dialysers,6980000
2018-07-04,OTCINV3339,Gilbert Rotich,1000,1,Nursing,6980000
2018-07-04,OTCINV3339,Gilbert Rotich,100,2,Normal saline,6980000
2018-07-04,OTCINV3339,Gilbert Rotich,200,1,Consumables,6980000
2018-07-04,OTCINV3339,Gilbert Rotich,10,10,Clean Gloves,6980000
2018-07-04,OTCINV3339,Gilbert Rotich,130,1,Primapore ( LEUKOMED),6980000
2018-07-04,OTCINV3339,Gilbert Rotich,400,1,Food,6980000
2018-07-04,OTCINV3339,Gilbert Rotich,10,3,syringes 10ml,6980000
2018-07-04,OTCINV3339,Gilbert Rotich,20,3,syringes 20ml,6980000
2018-07-04,OTCINV3339,Gilbert Rotich,5,2,Syringes 5ml,6980000
2018-07-04,OTCINV3339,Gilbert Rotich,2,2,Needle G23,6980000
2018-07-04,OTCINV3339,Gilbert Rotich,300,1,CitraLock 4% 5 ml vial,6980000
2018-07-04,OTCINV3339,Gilbert Rotich,400,1,Heparin 5000iu/ml I.M/I.V inj,6980000
2018-07-04,OTCINV3339,Gilbert Rotich,10,1,Masks,6980000
2018-07-04,OTCINV3339,Gilbert Rotich,10,1,Surgeon  Caps,6980000
2018-07-04,OTCINV3339,Gilbert Rotich,3396,1,Dialysis Outpatient,6980000
2018-07-04,OTCINV3340,David Limo,2500,1,Consultation -  Dr. Koech,7584000
2018-07-04,OTCINV3340,David Limo,80,30,Ritor-SR,7584000
2018-07-04,OTCINV3340,David Limo,20,12,Buscopan Tabs 10mg (ORIGINAL),7584000
2018-07-04,OTCINV3342,Emily Chepkemoi Mutai,1500,1,Consultation Dr. Maritim,7584000
2018-07-04,OTCINV3342,Emily Chepkemoi Mutai,55,30,Septrin DS Tabs,7584000
2018-07-04,OTCINV3342,Emily Chepkemoi Mutai,10000,1,VIRAL LOAD,7584000
2018-07-04,OTCINV3342,Emily Chepkemoi Mutai,4500,1,Cd4/Cd8,7584000
2018-07-04,OTCINV3343,Alice Chebet Kokoyo,1500,1,Consultation Dr. Maritim,7584000
2018-07-04,OTCINV3344,Francis  Kipsaat Lagat,500,1,Nipro / All types bloodlines,3526000
2018-07-04,OTCINV3344,Francis  Kipsaat Lagat,450,1,Nipro Bicarbonate Catridge,3526000
2018-07-04,OTCINV3344,Francis  Kipsaat Lagat,500,1,Nipro/ other  Acid Concentrate 5L,3526000
2018-07-04,OTCINV3344,Francis  Kipsaat Lagat,1300,1,Nipro/All types Dialysers,3526000
2018-07-04,OTCINV3344,Francis  Kipsaat Lagat,1000,1,Nursing,3526000
2018-07-04,OTCINV3344,Francis  Kipsaat Lagat,100,3,Normal saline,3526000
2018-07-04,OTCINV3344,Francis  Kipsaat Lagat,200,1,Consumables,3526000
2018-07-04,OTCINV3344,Francis  Kipsaat Lagat,10,10,Clean Gloves,3526000
2018-07-04,OTCINV3344,Francis  Kipsaat Lagat,130,1,Primapore ( LEUKOMED),3526000
2018-07-04,OTCINV3344,Francis  Kipsaat Lagat,300,1,CitraLock 4% 5 ml vial,3526000
2018-07-04,OTCINV3344,Francis  Kipsaat Lagat,400,1,Food,3526000
2018-07-04,OTCINV3344,Francis  Kipsaat Lagat,10,3,syringes 10ml,3526000
2018-07-04,OTCINV3344,Francis  Kipsaat Lagat,20,3,syringes 20ml,3526000
2018-07-04,OTCINV3344,Francis  Kipsaat Lagat,5,2,Syringes 5ml,3526000
2018-07-04,OTCINV3344,Francis  Kipsaat Lagat,2,2,Needle G23,3526000
2018-07-04,OTCINV3344,Francis  Kipsaat Lagat,1200,1,Erythropoietin 4000 IU (EPOFIT),3526000
2018-07-04,OTCINV3344,Francis  Kipsaat Lagat,3016,1,Dialysis Outpatient,3526000
2018-07-04,OTCINV3345,Charles Pwaipwai Chepkania,500,1,Nipro / All types bloodlines,5857000
2018-07-04,OTCINV3345,Charles Pwaipwai Chepkania,450,1,Nipro Bicarbonate Catridge,5857000
2018-07-04,OTCINV3345,Charles Pwaipwai Chepkania,500,1,Nipro/ other  Acid Concentrate 5L,5857000
2018-07-04,OTCINV3345,Charles Pwaipwai Chepkania,1300,1,Nipro/All types Dialysers,5857000
2018-07-04,OTCINV3345,Charles Pwaipwai Chepkania,1000,1,Nursing,5857000
2018-07-04,OTCINV3345,Charles Pwaipwai Chepkania,100,2,Normal saline,5857000
2018-07-04,OTCINV3345,Charles Pwaipwai Chepkania,200,1,Consumables,5857000
2018-07-04,OTCINV3345,Charles Pwaipwai Chepkania,10,10,Clean Gloves,5857000
2018-07-04,OTCINV3345,Charles Pwaipwai Chepkania,130,1,Primapore ( LEUKOMED),5857000
2018-07-04,OTCINV3345,Charles Pwaipwai Chepkania,300,1,CitraLock 4% 5 ml vial,5857000
2018-07-04,OTCINV3345,Charles Pwaipwai Chepkania,400,1,Food,5857000
2018-07-04,OTCINV3345,Charles Pwaipwai Chepkania,10,3,syringes 10ml,5857000
2018-07-04,OTCINV3345,Charles Pwaipwai Chepkania,20,4,syringes 20ml,5857000
2018-07-04,OTCINV3345,Charles Pwaipwai Chepkania,5,2,Syringes 5ml,5857000
2018-07-04,OTCINV3345,Charles Pwaipwai Chepkania,2,2,Needle G23,5857000
2018-07-04,OTCINV3345,Charles Pwaipwai Chepkania,1200,1,Erythropoietin 4000 IU (EPOFIT),5857000
2018-07-04,OTCINV3345,Charles Pwaipwai Chepkania,3096,1,Dialysis Outpatient,5857000
2018-07-04,OTCINV3346,Kiptisha Kipsang Chepsiror,500,1,Nipro / All types bloodlines,5325000
2018-07-04,OTCINV3346,Kiptisha Kipsang Chepsiror,450,1,Nipro Bicarbonate Catridge,5325000
2018-07-04,OTCINV3346,Kiptisha Kipsang Chepsiror,500,1,Nipro/ other  Acid Concentrate 5L,5325000
2018-07-04,OTCINV3346,Kiptisha Kipsang Chepsiror,1300,1,Nipro/All types Dialysers,5325000
2018-07-04,OTCINV3346,Kiptisha Kipsang Chepsiror,1000,1,Nursing,5325000
2018-07-04,OTCINV3346,Kiptisha Kipsang Chepsiror,100,3,Normal saline,5325000
2018-07-04,OTCINV3346,Kiptisha Kipsang Chepsiror,200,1,Consumables,5325000
2018-07-04,OTCINV3346,Kiptisha Kipsang Chepsiror,10,10,Clean Gloves,5325000
2018-07-04,OTCINV3346,Kiptisha Kipsang Chepsiror,400,1,Food,5325000
2018-07-04,OTCINV3346,Kiptisha Kipsang Chepsiror,130,1,Primapore ( LEUKOMED),5325000
2018-07-04,OTCINV3346,Kiptisha Kipsang Chepsiror,1200,1,Erythropoietin 4000 IU (EPOFIT),5325000
2018-07-04,OTCINV3346,Kiptisha Kipsang Chepsiror,10,3,syringes 10ml,5325000
2018-07-04,OTCINV3346,Kiptisha Kipsang Chepsiror,20,3,syringes 20ml,5325000
2018-07-04,OTCINV3346,Kiptisha Kipsang Chepsiror,5,2,Syringes 5ml,5325000
2018-07-04,OTCINV3346,Kiptisha Kipsang Chepsiror,2,2,Needle G23,5325000
2018-07-04,OTCINV3346,Kiptisha Kipsang Chepsiror,3316,1,Dialysis Outpatient,5325000
2018-07-04,OTCINV3347,Perez  Auma Jamwa,500,1,Nipro / All types bloodlines,5346000
2018-07-04,OTCINV3347,Perez  Auma Jamwa,450,1,Nipro Bicarbonate Catridge,5346000
2018-07-04,OTCINV3347,Perez  Auma Jamwa,500,1,Nipro/ other  Acid Concentrate 5L,5346000
2018-07-04,OTCINV3347,Perez  Auma Jamwa,1300,1,Nipro/All types Dialysers,5346000
2018-07-04,OTCINV3347,Perez  Auma Jamwa,100,2,Normal saline,5346000
2018-07-04,OTCINV3347,Perez  Auma Jamwa,200,1,Consumables,5346000
2018-07-04,OTCINV3347,Perez  Auma Jamwa,10,10,Clean Gloves,5346000
2018-07-04,OTCINV3347,Perez  Auma Jamwa,130,1,Primapore ( LEUKOMED),5346000
2018-07-04,OTCINV3347,Perez  Auma Jamwa,400,1,Food,5346000
2018-07-04,OTCINV3347,Perez  Auma Jamwa,1000,1,Nursing,5346000
2018-07-04,OTCINV3347,Perez  Auma Jamwa,300,1,CitraLock 4% 5 ml vial,5346000
2018-07-04,OTCINV3347,Perez  Auma Jamwa,10,1,syringes 10ml,5346000
2018-07-04,OTCINV3347,Perez  Auma Jamwa,20,3,syringes 20ml,5346000
2018-07-04,OTCINV3347,Perez  Auma Jamwa,5,3,Syringes 5ml,5346000
2018-07-04,OTCINV3347,Perez  Auma Jamwa,2,2,Needle G23,5346000
2018-07-04,OTCINV3347,Perez  Auma Jamwa,4331,1,Dialysis Outpatient,5346000
2018-07-04,OTCINV3348,Ann Katini Kiungu,500,1,Nipro / All types bloodlines,3907000
2018-07-04,OTCINV3348,Ann Katini Kiungu,450,1,Nipro Bicarbonate Catridge,3907000
2018-07-04,OTCINV3348,Ann Katini Kiungu,500,1,Nipro/ other  Acid Concentrate 5L,3907000
2018-07-04,OTCINV3348,Ann Katini Kiungu,1300,1,Nipro/All types Dialysers,3907000
2018-07-04,OTCINV3348,Ann Katini Kiungu,1000,1,Nursing,3907000
2018-07-04,OTCINV3348,Ann Katini Kiungu,100,2,Normal saline,3907000
2018-07-04,OTCINV3348,Ann Katini Kiungu,200,1,Consumables,3907000
2018-07-04,OTCINV3348,Ann Katini Kiungu,10,10,Clean Gloves,3907000
2018-07-04,OTCINV3348,Ann Katini Kiungu,130,1,Primapore ( LEUKOMED),3907000
2018-07-04,OTCINV3348,Ann Katini Kiungu,400,1,Food,3907000
2018-07-04,OTCINV3348,Ann Katini Kiungu,300,1,CitraLock 4% 5 ml vial,3907000
2018-07-04,OTCINV3348,Ann Katini Kiungu,10,3,syringes 10ml,3907000
2018-07-04,OTCINV3348,Ann Katini Kiungu,20,4,syringes 20ml,3907000
2018-07-04,OTCINV3348,Ann Katini Kiungu,5,3,Syringes 5ml,3907000
2018-07-04,OTCINV3348,Ann Katini Kiungu,2,2,Needle G23,3907000
2018-07-04,OTCINV3348,Ann Katini Kiungu,400,1,Heparin 5000iu/ml I.M/I.V inj,3907000
2018-07-04,OTCINV3348,Ann Katini Kiungu,3891,1,Dialysis Outpatient,3907000
2018-07-05,OTCINV3349,Esther Mutai,500,1,Nipro / All types bloodlines,76000
2018-07-05,OTCINV3349,Esther Mutai,450,1,Nipro Bicarbonate Catridge,76000
2018-07-05,OTCINV3349,Esther Mutai,500,1,Nipro/ other  Acid Concentrate 5L,76000
2018-07-05,OTCINV3349,Esther Mutai,1300,1,Nipro/All types Dialysers,76000
2018-07-05,OTCINV3349,Esther Mutai,1000,1,Nursing,76000
2018-07-05,OTCINV3349,Esther Mutai,100,2,Normal saline,76000
2018-07-05,OTCINV3349,Esther Mutai,200,1,Consumables,76000
2018-07-05,OTCINV3349,Esther Mutai,10,10,Clean Gloves,76000
2018-07-05,OTCINV3349,Esther Mutai,130,1,Primapore ( LEUKOMED),76000
2018-07-05,OTCINV3349,Esther Mutai,500,1,Food,76000
2018-07-05,OTCINV3349,Esther Mutai,300,1,CitraLock 4% 5 ml vial,76000
2018-07-05,OTCINV3349,Esther Mutai,400,1,Heparin 5000iu/ml I.M/I.V inj,76000
2018-07-05,OTCINV3349,Esther Mutai,1200,1,Erythropoietin 4000 IU (EPOFIT),76000
2018-07-05,OTCINV3349,Esther Mutai,10,3,syringes 10ml,76000
2018-07-05,OTCINV3349,Esther Mutai,20,3,syringes 20ml,76000
2018-07-05,OTCINV3349,Esther Mutai,5,2,Syringes 5ml,76000
2018-07-05,OTCINV3349,Esther Mutai,2,2,Needle G23,76000
2018-07-05,OTCINV3349,Esther Mutai,2616,1,Dialysis Outpatient,76000
2018-07-05,OTCINV3350,Joel Osiemo Omwoyo,900,1,Full Blood Count (FBC),2904000
2018-07-05,OTCINV3350,Joel Osiemo Omwoyo,2000,1,Urea/Creatinine/Electrolytes(KFT),2904000
2018-07-05,OTCINV3350,Joel Osiemo Omwoyo,250,1,RBS,2904000
2018-07-05,OTCINV3350,Joel Osiemo Omwoyo,95,10,Cefixim Caps 200mg (Orix) 10’s,2904000
2018-07-05,OTCINV3350,Joel Osiemo Omwoyo,80,30,Ritor-SR,2904000
2018-07-05,OTCINV3350,Joel Osiemo Omwoyo,60,15,Diamacron MR 60mg,2904000
2018-07-05,OTCINV3351,Jackson Tikiyia Munka,250,1,Blood grouping/Du test,6341000
2018-07-05,OTCINV3351,Jackson Tikiyia Munka,500,1,HIV Test,6341000
2018-07-05,OTCINV3351,Jackson Tikiyia Munka,500,1,Hepatitis BsAg - Rapid,6341000
2018-07-05,OTCINV3351,Jackson Tikiyia Munka,500,1,Hepatitis C Test - Rapid,6341000
2018-07-05,OTCINV3351,Jackson Tikiyia Munka,500,1,VDRL,6341000
2018-07-05,OTCINV3351,Jackson Tikiyia Munka,250,1,Urinalysis/microscopy,6341000
2018-07-05,OTCINV3351,Jackson Tikiyia Munka,2000,1,Urea/Creatinine/Electrolytes(KFT),6341000
2018-07-05,OTCINV3351,Jackson Tikiyia Munka,900,1,Full Blood Count (FBC),6341000
2018-07-05,OTCINV3351,Jackson Tikiyia Munka,1500,1,Consultation-Review Dr Koech,6341000
2018-07-05,OTCINV3352,Justina  Cherugin Chepngetich,2000,1,Consultation -  Dr. Koech,4776000
2018-07-05,OTCINV3352,Justina  Cherugin Chepngetich,2000,1,Urea/Creatinine/Electrolytes(KFT),4776000
2018-07-05,OTCINV3352,Justina  Cherugin Chepngetich,150,3,Nemiderm ABS 10x25 CM,4776000
2018-07-05,OTCINV3352,Justina  Cherugin Chepngetich,35,1,Surgical gloves,4776000
2018-07-05,OTCINV3352,Justina  Cherugin Chepngetich,500,1,Dressing,4776000
2018-07-05,OTCINV3352,Justina  Cherugin Chepngetich,15,1,Actal Tums Tabs,4776000
2018-07-05,OTCINV3353,Peter Macharia ST  LUKE'S,500,1,Nipro / All types bloodlines,6378000
2018-07-05,OTCINV3353,Peter Macharia ST  LUKE'S,450,1,Nipro Bicarbonate Catridge,6378000
2018-07-05,OTCINV3353,Peter Macharia ST  LUKE'S,500,1,Nipro/ other  Acid Concentrate 5L,6378000
2018-07-05,OTCINV3353,Peter Macharia ST  LUKE'S,1300,1,Nipro/All types Dialysers,6378000
2018-07-05,OTCINV3353,Peter Macharia ST  LUKE'S,1000,1,Nursing,6378000
2018-07-05,OTCINV3353,Peter Macharia ST  LUKE'S,100,2,Normal saline,6378000
2018-07-05,OTCINV3353,Peter Macharia ST  LUKE'S,200,1,Consumables,6378000
2018-07-05,OTCINV3353,Peter Macharia ST  LUKE'S,10,1,Clean Gloves,6378000
2018-07-05,OTCINV3353,Peter Macharia ST  LUKE'S,130,1,Primapore ( LEUKOMED),6378000
2018-07-05,OTCINV3353,Peter Macharia ST  LUKE'S,400,1,Food,6378000
2018-07-05,OTCINV3353,Peter Macharia ST  LUKE'S,300,1,CitraLock 4% 5 ml vial,6378000
2018-07-05,OTCINV3353,Peter Macharia ST  LUKE'S,400,1,Heparin 5000iu/ml I.M/I.V inj,6378000
2018-07-05,OTCINV3353,Peter Macharia ST  LUKE'S,10,3,syringes 10ml,6378000
2018-07-05,OTCINV3353,Peter Macharia ST  LUKE'S,20,4,syringes 20ml,6378000
2018-07-05,OTCINV3353,Peter Macharia ST  LUKE'S,5,2,Syringes 5ml,6378000
2018-07-05,OTCINV3353,Peter Macharia ST  LUKE'S,2,2,Needle G23,6378000
2018-07-05,OTCINV3353,Peter Macharia ST  LUKE'S,10,1,Masks,6378000
2018-07-05,OTCINV3353,Peter Macharia ST  LUKE'S,10,1,Surgeon  Caps,6378000
2018-07-05,OTCINV3353,Peter Macharia ST  LUKE'S,3966,1,Dialysis Outpatient,6378000
2018-07-05,OTCINV3354,Peninah Cheruto,1500,1,Consultation Review - Dr. Kirui,76000
2018-07-05,OTCINV3354,Peninah Cheruto,60,6,Imodium  Caps  2 mg,76000
2018-07-05,OTCINV3354,Peninah Cheruto,15,14,Ciprofloxacin 500mg Tabs (CIPROINTA),76000
2018-07-05,OTCINV3354,Peninah Cheruto,15,10,Tramadol Caps(Domadol) 50mg,76000
2018-07-05,OTCINV3354,Peninah Cheruto,1,30,Metronidazole Tabs  200 mg.,76000
2018-07-05,OTCINV3355,Job Kibiwot Sitienei,500,1,Nipro / All types bloodlines,3088000
2018-07-05,OTCINV3355,Job Kibiwot Sitienei,450,1,Nipro Bicarbonate Catridge,3088000
2018-07-05,OTCINV3355,Job Kibiwot Sitienei,500,1,Nipro/ other  Acid Concentrate 5L,3088000
2018-07-05,OTCINV3355,Job Kibiwot Sitienei,1300,1,Nipro/All types Dialysers,3088000
2018-07-05,OTCINV3355,Job Kibiwot Sitienei,1000,1,Nursing,3088000
2018-07-05,OTCINV3355,Job Kibiwot Sitienei,100,2,Normal saline,3088000
2018-07-05,OTCINV3355,Job Kibiwot Sitienei,150,1,Dextrose 50%,3088000
2018-07-05,OTCINV3355,Job Kibiwot Sitienei,130,1,Primapore ( LEUKOMED),3088000
2018-07-05,OTCINV3355,Job Kibiwot Sitienei,200,1,Consumables,3088000
2018-07-05,OTCINV3355,Job Kibiwot Sitienei,10,10,Clean Gloves,3088000
2018-07-05,OTCINV3355,Job Kibiwot Sitienei,400,1,Food,3088000
2018-07-05,OTCINV3355,Job Kibiwot Sitienei,300,1,CitraLock 4% 5 ml vial,3088000
2018-07-05,OTCINV3355,Job Kibiwot Sitienei,400,1,Heparin 5000iu/ml I.M/I.V inj,3088000
2018-07-05,OTCINV3355,Job Kibiwot Sitienei,10,3,syringes 10ml,3088000
2018-07-05,OTCINV3355,Job Kibiwot Sitienei,20,4,syringes 20ml,3088000
2018-07-05,OTCINV3355,Job Kibiwot Sitienei,5,2,Syringes 5ml,3088000
2018-07-05,OTCINV3355,Job Kibiwot Sitienei,2,2,Needle G23,3088000
2018-07-05,OTCINV3355,Job Kibiwot Sitienei,3746,1,Dialysis Outpatient,3088000
2018-07-05,OTCINV3356,Johana Kipkemboi Tunge,1500,1,Consultation -  Dr. Koech,7597000
2018-07-05,OTCINV3357,Job Kibiwot Sitienei,45,10,Terbinafine Tabs 250 mg (TERBINAFORCE),3088000
2018-07-05,OTCINV3358,Musa Kirorei Sawe,2000,1,Consultation-Review Dr Koech,866000
2018-07-05,OTCINV3359,Micah K. Munai,2000,1,Consultation -  Dr. Koech,7606000
2018-07-05,OTCINV3359,Micah K. Munai,25,30,Amlodipine 5 mg Tabs (AMLIBON),7606000
2018-07-05,OTCINV3359,Micah K. Munai,92,30,Tamsulosin Tabs 0.4mg (CONTIFLO OD),7606000
2018-07-05,OTCINV3359,Micah K. Munai,180,8,Solifenacin Tabs 5 mg (SOLIFEN),7606000
2018-07-05,OTCINV3359,Micah K. Munai,280,1,Cital syrup 100ml,7606000
2018-07-05,OTCINV3359,Micah K. Munai,40,10,Esomeprazole 40 mg Tabs ( ESOP),7606000
2018-07-05,OTCINV3360,Elizabeth  C. Seile,2500,1,Consultation -  Dr. Koech,7606000
2018-07-05,OTCINV3360,Elizabeth  C. Seile,120,9,Neurogame Tabs,7606000
2018-07-05,OTCINV3361,Rheenen Van Hendrikus,2000,1,Consultation -  Dr. Koech,1283000
2018-07-05,OTCINV3362,Yusuf Ibrahim Chandbhai,2000,1,Urea/Creatinine/Electrolytes(KFT),3010000
2018-07-05,OTCINV3363,George Mukenya Mafura,500,1,Nipro / All types bloodlines,1701000
2018-07-05,OTCINV3363,George Mukenya Mafura,450,1,Nipro Bicarbonate Catridge,1701000
2018-07-05,OTCINV3363,George Mukenya Mafura,500,1,Nipro/ other  Acid Concentrate 5L,1701000
2018-07-05,OTCINV3363,George Mukenya Mafura,1300,1,Nipro/All types Dialysers,1701000
2018-07-05,OTCINV3363,George Mukenya Mafura,100,3,Normal saline,1701000
2018-07-05,OTCINV3363,George Mukenya Mafura,1000,1,Nursing,1701000
2018-07-05,OTCINV3363,George Mukenya Mafura,130,1,Primapore ( LEUKOMED),1701000
2018-07-05,OTCINV3363,George Mukenya Mafura,200,1,Consumables,1701000
2018-07-05,OTCINV3363,George Mukenya Mafura,400,1,Food,1701000
2018-07-05,OTCINV3363,George Mukenya Mafura,10,10,Clean Gloves,1701000
2018-07-05,OTCINV3363,George Mukenya Mafura,300,1,CitraLock 4% 5 ml vial,1701000
2018-07-05,OTCINV3363,George Mukenya Mafura,10,3,syringes 10ml,1701000
2018-07-05,OTCINV3363,George Mukenya Mafura,20,3,syringes 20ml,1701000
2018-07-05,OTCINV3363,George Mukenya Mafura,5,2,Syringes 5ml,1701000
2018-07-05,OTCINV3363,George Mukenya Mafura,10,1,Masks,1701000
2018-07-05,OTCINV3363,George Mukenya Mafura,10,1,Surgeon  Caps,1701000
2018-07-05,OTCINV3363,George Mukenya Mafura,4200,1,Dialysis Outpatient,1701000
2018-07-05,OTCINV3365,Mary kurgat,500,1,Nipro / All types bloodlines,101000
2018-07-05,OTCINV3365,Mary kurgat,450,1,Nipro Bicarbonate Catridge,101000
2018-07-05,OTCINV3365,Mary kurgat,500,1,Nipro/ other  Acid Concentrate 5L,101000
2018-07-05,OTCINV3365,Mary kurgat,1300,1,Nipro/All types Dialysers,101000
2018-07-05,OTCINV3365,Mary kurgat,1000,1,Nursing,101000
2018-07-05,OTCINV3365,Mary kurgat,100,3,Normal saline,101000
2018-07-05,OTCINV3365,Mary kurgat,130,1,Primapore ( LEUKOMED),101000
2018-07-05,OTCINV3365,Mary kurgat,200,1,Consumables,101000
2018-07-05,OTCINV3365,Mary kurgat,10,10,Clean Gloves,101000
2018-07-05,OTCINV3365,Mary kurgat,300,1,CitraLock 4% 5 ml vial,101000
2018-07-05,OTCINV3365,Mary kurgat,400,1,Food,101000
2018-07-05,OTCINV3365,Mary kurgat,10,1,syringes 10ml,101000
2018-07-05,OTCINV3365,Mary kurgat,20,4,syringes 20ml,101000
2018-07-05,OTCINV3365,Mary kurgat,5,2,Syringes 5ml,101000
2018-07-05,OTCINV3365,Mary kurgat,2,1,Needle G23,101000
2018-07-05,OTCINV3365,Mary kurgat,4218,1,Dialysis Outpatient,101000
2018-07-05,OTCINV3366,Joan Jemaiyo Sang,900,1,Full Blood Count (FBC),2843000
2018-07-05,OTCINV3366,Joan Jemaiyo Sang,2000,1,Urea/Creatinine/Electrolytes(KFT),2843000
2018-07-05,OTCINV3366,Joan Jemaiyo Sang,1500,1,TSH,2843000
2018-07-05,OTCINV3366,Joan Jemaiyo Sang,2000,1,C Reactive Protein,2843000
2018-07-05,OTCINV3366,Joan Jemaiyo Sang,1500,1,Consultation Fee - Dr. Karoney,2843000
2018-07-05,OTCINV3366,Joan Jemaiyo Sang,2500,1,Troponin I,2843000
2018-07-05,OTCINV3366,Joan Jemaiyo Sang,2000,1,CKMB,2843000
2018-07-05,OTCINV3366,Joan Jemaiyo Sang,130,1,Primapore ( LEUKOMED),2843000
2018-07-05,OTCINV3366,Joan Jemaiyo Sang,20,2,Frusemide Inj 10MG/2ml,2843000
2018-07-05,OTCINV3366,Joan Jemaiyo Sang,5,1,Syringes 5ml,2843000
2018-07-05,OTCINV3366,Joan Jemaiyo Sang,2,1,Needle G23,2843000
2018-07-05,OTCINV3366,Joan Jemaiyo Sang,5,30,Aspirin Tabs (Ascard) 75mg,2843000
2018-07-05,OTCINV3366,Joan Jemaiyo Sang,48,20,Lasix Tabs 40m,2843000
2018-07-05,OTCINV3366,Joan Jemaiyo Sang,620,1,Lactulose(LACTULAC) SOL 200ml,2843000
2018-07-05,OTCINV3367,William Njoroge,500,1,Nipro / All types bloodlines,7058000
2018-07-05,OTCINV3367,William Njoroge,450,1,Nipro Bicarbonate Catridge,7058000
2018-07-05,OTCINV3367,William Njoroge,500,1,Nipro/ other  Acid Concentrate 5L,7058000
2018-07-05,OTCINV3367,William Njoroge,1300,1,Nipro/All types Dialysers,7058000
2018-07-05,OTCINV3367,William Njoroge,100,3,Normal saline,7058000
2018-07-05,OTCINV3367,William Njoroge,1000,1,Nursing,7058000
2018-07-05,OTCINV3367,William Njoroge,200,1,Consumables,7058000
2018-07-05,OTCINV3367,William Njoroge,10,10,Clean Gloves,7058000
2018-07-05,OTCINV3367,William Njoroge,100,1,Fistula Needles Pers,7058000
2018-07-05,OTCINV3367,William Njoroge,400,1,Food,7058000
2018-07-05,OTCINV3367,William Njoroge,130,1,Primapore ( LEUKOMED),7058000
2018-07-05,OTCINV3367,William Njoroge,300,1,CitraLock 4% 5 ml vial,7058000
2018-07-05,OTCINV3367,William Njoroge,10,2,syringes 10ml,7058000
2018-07-05,OTCINV3367,William Njoroge,20,4,syringes 20ml,7058000
2018-07-05,OTCINV3367,William Njoroge,5,2,Syringes 5ml,7058000
2018-07-05,OTCINV3367,William Njoroge,2,2,Needle G23,7058000
2018-07-05,OTCINV3367,William Njoroge,4106,1,Dialysis Outpatient,7058000
2018-07-05,OTCINV3368,Tomdila Kipkoech,1200,1,Erythropoietin 4000 IU (EPOFIT),2463000
2018-07-05,OTCINV3368,Tomdila Kipkoech,500,1,Nipro / All types bloodlines,2463000
2018-07-05,OTCINV3368,Tomdila Kipkoech,450,1,Nipro Bicarbonate Catridge,2463000
2018-07-05,OTCINV3368,Tomdila Kipkoech,500,1,Nipro/ other  Acid Concentrate 5L,2463000
2018-07-05,OTCINV3368,Tomdila Kipkoech,1300,1,Nipro/All types Dialysers,2463000
2018-07-05,OTCINV3368,Tomdila Kipkoech,1000,1,Nursing,2463000
2018-07-05,OTCINV3368,Tomdila Kipkoech,100,2,Normal saline,2463000
2018-07-05,OTCINV3368,Tomdila Kipkoech,200,1,Consumables,2463000
2018-07-05,OTCINV3368,Tomdila Kipkoech,10,10,Clean Gloves,2463000
2018-07-05,OTCINV3368,Tomdila Kipkoech,130,1,Primapore ( LEUKOMED),2463000
2018-07-05,OTCINV3368,Tomdila Kipkoech,400,1,Food,2463000
2018-07-05,OTCINV3368,Tomdila Kipkoech,10,2,syringes 10ml,2463000
2018-07-05,OTCINV3368,Tomdila Kipkoech,20,3,syringes 20ml,2463000
2018-07-05,OTCINV3368,Tomdila Kipkoech,5,2,Syringes 5ml,2463000
2018-07-05,OTCINV3368,Tomdila Kipkoech,2,2,Needle G23,2463000
2018-07-05,OTCINV3368,Tomdila Kipkoech,3426,1,Dialysis Outpatient,2463000
2018-07-05,OTCINV3369,Joseph njuguna Kariuki,1200,1,Erythropoietin 4000 IU (EPOFIT),803000
2018-07-05,OTCINV3369,Joseph njuguna Kariuki,500,1,Nipro / All types bloodlines,803000
2018-07-05,OTCINV3369,Joseph njuguna Kariuki,450,1,Nipro Bicarbonate Catridge,803000
2018-07-05,OTCINV3369,Joseph njuguna Kariuki,500,1,Nipro/ other  Acid Concentrate 5L,803000
2018-07-05,OTCINV3369,Joseph njuguna Kariuki,1300,1,Nipro/All types Dialysers,803000
2018-07-05,OTCINV3369,Joseph njuguna Kariuki,1000,1,Nursing,803000
2018-07-05,OTCINV3369,Joseph njuguna Kariuki,200,1,Consumables,803000
2018-07-05,OTCINV3369,Joseph njuguna Kariuki,10,10,Clean Gloves,803000
2018-07-05,OTCINV3369,Joseph njuguna Kariuki,100,2,Normal saline,803000
2018-07-05,OTCINV3369,Joseph njuguna Kariuki,400,1,Food,803000
2018-07-05,OTCINV3369,Joseph njuguna Kariuki,130,1,Primapore ( LEUKOMED),803000
2018-07-05,OTCINV3369,Joseph njuguna Kariuki,10,2,syringes 10ml,803000
2018-07-05,OTCINV3369,Joseph njuguna Kariuki,20,4,syringes 20ml,803000
2018-07-05,OTCINV3369,Joseph njuguna Kariuki,5,2,Syringes 5ml,803000
2018-07-05,OTCINV3369,Joseph njuguna Kariuki,2,2,Needle G23,803000
2018-07-05,OTCINV3369,Joseph njuguna Kariuki,3406,1,Dialysis Outpatient,803000
2018-07-05,OTCINV3370,Ruth Nyegenye Peter,500,1,Nipro / All types bloodlines,76000
2018-07-05,OTCINV3370,Ruth Nyegenye Peter,450,1,Nipro Bicarbonate Catridge,76000
2018-07-05,OTCINV3370,Ruth Nyegenye Peter,500,1,Nipro/ other  Acid Concentrate 5L,76000
2018-07-05,OTCINV3370,Ruth Nyegenye Peter,1300,1,Nipro/All types Dialysers,76000
2018-07-05,OTCINV3370,Ruth Nyegenye Peter,1200,1,Erythropoietin 4000 IU (EPOFIT),76000
2018-07-05,OTCINV3370,Ruth Nyegenye Peter,1000,1,Nursing,76000
2018-07-05,OTCINV3370,Ruth Nyegenye Peter,100,2,Normal saline,76000
2018-07-05,OTCINV3370,Ruth Nyegenye Peter,200,1,Consumables,76000
2018-07-05,OTCINV3370,Ruth Nyegenye Peter,10,10,Clean Gloves,76000
2018-07-05,OTCINV3370,Ruth Nyegenye Peter,130,1,Primapore ( LEUKOMED),76000
2018-07-05,OTCINV3370,Ruth Nyegenye Peter,10,2,syringes 10ml,76000
2018-07-05,OTCINV3370,Ruth Nyegenye Peter,20,2,syringes 20ml,76000
2018-07-05,OTCINV3370,Ruth Nyegenye Peter,5,2,Syringes 5ml,76000
2018-07-05,OTCINV3370,Ruth Nyegenye Peter,2,2,Needle G23,76000
2018-07-05,OTCINV3370,Ruth Nyegenye Peter,10,1,Masks,76000
2018-07-05,OTCINV3370,Ruth Nyegenye Peter,10,1,Surgeon  Caps,76000
2018-07-05,OTCINV3370,Ruth Nyegenye Peter,3826,1,Dialysis Outpatient,76000
2018-07-05,OTCINV3371,Wilson Kimitei Kiptanui,2500,1,Consultation -  Dr. Koech,7802000
2018-07-05,OTCINV3371,Wilson Kimitei Kiptanui,90,30,Rosuvastatin Tabs ( CRESTOR) 10 mg,7802000
2018-07-05,OTCINV3371,Wilson Kimitei Kiptanui,75,30,Treviamet 50/500mg Tabs,7802000
2018-07-05,OTCINV3371,Wilson Kimitei Kiptanui,250,1,Random Blood Sugar (RBS),7802000
2018-07-05,OTCINV3371,Wilson Kimitei Kiptanui,5,1,Hydralazine Tabs 25mg,7802000
2018-07-06,OTCINV3372,Ezekiel Kiplangat Koskei,2000,1,Consultation -  Dr. Koech,81000
2018-07-06,OTCINV3373,Florence Athima Kawira,900,1,Full Blood Count (FBC),1315000
2018-07-06,OTCINV3373,Florence Athima Kawira,2000,1,Urea/Creatinine/Electrolytes(KFT),1315000
2018-07-06,OTCINV3373,Florence Athima Kawira,250,1,Urinalysis/microscopy,1315000
2018-07-06,OTCINV3373,Florence Athima Kawira,2000,1,Consultation-Review Dr Koech,1315000
2018-07-06,OTCINV3373,Florence Athima Kawira,2,60,Cotrimoxazole 480 mg loose,1315000
2018-07-06,OTCINV3373,Florence Athima Kawira,5,60,Prednisolone Tabs 5mg (BLISTERED),1315000
2018-07-06,OTCINV3373,Florence Athima Kawira,10,10,Masks,1315000
2018-07-06,OTCINV3374,Humprey Gakuru Kimunya,3500,1,Tacrolimus,1128000
2018-07-06,OTCINV3374,Humprey Gakuru Kimunya,900,1,Full Blood Count (FBC),1128000
2018-07-06,OTCINV3374,Humprey Gakuru Kimunya,2000,1,Urea/Creatinine/Electrolytes(KFT),1128000
2018-07-06,OTCINV3374,Humprey Gakuru Kimunya,250,1,Urinalysis/microscopy,1128000
2018-07-06,OTCINV3374,Humprey Gakuru Kimunya,2000,1,Consultation-Review Dr Koech,1128000
2018-07-06,OTCINV3375,Mathew Bundotich,900,1,Full Blood Count (FBC),6722000
2018-07-06,OTCINV3375,Mathew Bundotich,2000,1,Urea/Creatinine/Electrolytes(KFT),6722000
2018-07-06,OTCINV3375,Mathew Bundotich,250,1,Urinalysis/microscopy,6722000
2018-07-06,OTCINV3375,Mathew Bundotich,2000,1,Consultation-Review Dr Koech,6722000
2018-07-06,OTCINV3376,Baiya Mariko Suter,1200,1,Erythropoietin 4000 IU (EPOFIT),2486000
2018-07-06,OTCINV3376,Baiya Mariko Suter,500,1,Nipro / All types bloodlines,2486000
2018-07-06,OTCINV3376,Baiya Mariko Suter,450,1,Nipro Bicarbonate Catridge,2486000
2018-07-06,OTCINV3376,Baiya Mariko Suter,500,1,Nipro/ other  Acid Concentrate 5L,2486000
2018-07-06,OTCINV3376,Baiya Mariko Suter,1300,1,Nipro/All types Dialysers,2486000
2018-07-06,OTCINV3376,Baiya Mariko Suter,1000,1,Nursing,2486000
2018-07-06,OTCINV3376,Baiya Mariko Suter,100,2,Normal saline,2486000
2018-07-06,OTCINV3376,Baiya Mariko Suter,200,1,Consumables,2486000
2018-07-06,OTCINV3376,Baiya Mariko Suter,10,10,Clean Gloves,2486000
2018-07-06,OTCINV3376,Baiya Mariko Suter,130,1,Primapore ( LEUKOMED),2486000
2018-07-06,OTCINV3376,Baiya Mariko Suter,500,1,Food,2486000
2018-07-06,OTCINV3376,Baiya Mariko Suter,300,1,CitraLock 4% 5 ml vial,2486000
2018-07-06,OTCINV3376,Baiya Mariko Suter,3120,1,Dialysis Outpatient,2486000
2018-07-06,OTCINV3377,Agnes Jepngetich Rono,2000,1,Consultation -  Dr. Koech,2420000
2018-07-06,OTCINV3378,Hellen Njeri Kamau,500,1,Nipro / All types bloodlines,1489000
2018-07-06,OTCINV3378,Hellen Njeri Kamau,450,1,Nipro Bicarbonate Catridge,1489000
2018-07-06,OTCINV3378,Hellen Njeri Kamau,500,1,Nipro/ other  Acid Concentrate 5L,1489000
2018-07-06,OTCINV3378,Hellen Njeri Kamau,1300,1,Nipro/All types Dialysers,1489000
2018-07-06,OTCINV3378,Hellen Njeri Kamau,1000,1,Nursing,1489000
2018-07-06,OTCINV3378,Hellen Njeri Kamau,500,1,Food,1489000
2018-07-06,OTCINV3378,Hellen Njeri Kamau,200,1,Consumables,1489000
2018-07-06,OTCINV3378,Hellen Njeri Kamau,10,10,Clean Gloves,1489000
2018-07-06,OTCINV3378,Hellen Njeri Kamau,130,1,Primapore ( LEUKOMED),1489000
2018-07-06,OTCINV3378,Hellen Njeri Kamau,300,1,CitraLock 4% 5 ml vial,1489000
2018-07-06,OTCINV3378,Hellen Njeri Kamau,20,4,syringes 20ml,1489000
2018-07-06,OTCINV3378,Hellen Njeri Kamau,5,2,Syringes 5ml,1489000
2018-07-06,OTCINV3378,Hellen Njeri Kamau,2,2,Needle G23,1489000
2018-07-06,OTCINV3378,Hellen Njeri Kamau,4426,1,Dialysis Outpatient,1489000
2018-07-06,OTCINV3379,"Ngetich, Viola Chelagat",500,1,Nipro / All types bloodlines,2603000
2018-07-06,OTCINV3379,"Ngetich, Viola Chelagat",450,1,Nipro Bicarbonate Catridge,2603000
2018-07-06,OTCINV3379,"Ngetich, Viola Chelagat",500,1,Nipro/ other  Acid Concentrate 5L,2603000
2018-07-06,OTCINV3379,"Ngetich, Viola Chelagat",1300,1,Nipro/All types Dialysers,2603000
2018-07-06,OTCINV3379,"Ngetich, Viola Chelagat",1000,1,Nursing,2603000
2018-07-06,OTCINV3379,"Ngetich, Viola Chelagat",130,1,Primapore ( LEUKOMED),2603000
2018-07-06,OTCINV3379,"Ngetich, Viola Chelagat",200,1,Consumables,2603000
2018-07-06,OTCINV3379,"Ngetich, Viola Chelagat",10,10,Clean Gloves,2603000
2018-07-06,OTCINV3379,"Ngetich, Viola Chelagat",100,3,Normal saline,2603000
2018-07-06,OTCINV3379,"Ngetich, Viola Chelagat",500,1,Food,2603000
2018-07-06,OTCINV3379,"Ngetich, Viola Chelagat",300,1,CitraLock 4% 5 ml vial,2603000
2018-07-06,OTCINV3379,"Ngetich, Viola Chelagat",10,1,syringes 10ml,2603000
2018-07-06,OTCINV3379,"Ngetich, Viola Chelagat",20,4,syringes 20ml,2603000
2018-07-06,OTCINV3379,"Ngetich, Viola Chelagat",5,2,Syringes 5ml,2603000
2018-07-06,OTCINV3379,"Ngetich, Viola Chelagat",2,2,Needle G23,2603000
2018-07-06,OTCINV3379,"Ngetich, Viola Chelagat",4116,1,Dialysis Outpatient,2603000
2018-07-06,OTCINV3380,Ruth Wanjiku Waweru,500,1,Nipro / All types bloodlines,3763000
2018-07-06,OTCINV3380,Ruth Wanjiku Waweru,450,1,Nipro Bicarbonate Catridge,3763000
2018-07-06,OTCINV3380,Ruth Wanjiku Waweru,500,1,Nipro/ other  Acid Concentrate 5L,3763000
2018-07-06,OTCINV3380,Ruth Wanjiku Waweru,1300,1,Nipro/All types Dialysers,3763000
2018-07-06,OTCINV3380,Ruth Wanjiku Waweru,1000,1,Nursing,3763000
2018-07-06,OTCINV3380,Ruth Wanjiku Waweru,100,2,Normal saline,3763000
2018-07-06,OTCINV3380,Ruth Wanjiku Waweru,200,1,Consumables,3763000
2018-07-06,OTCINV3380,Ruth Wanjiku Waweru,300,1,CitraLock 4% 5 ml vial,3763000
2018-07-06,OTCINV3380,Ruth Wanjiku Waweru,400,1,Heparin 5000iu/ml I.M/I.V inj,3763000
2018-07-06,OTCINV3380,Ruth Wanjiku Waweru,500,1,Food,3763000
2018-07-06,OTCINV3380,Ruth Wanjiku Waweru,10,1,syringes 10ml,3763000
2018-07-06,OTCINV3380,Ruth Wanjiku Waweru,20,4,syringes 20ml,3763000
2018-07-06,OTCINV3380,Ruth Wanjiku Waweru,5,2,Syringes 5ml,3763000
2018-07-06,OTCINV3380,Ruth Wanjiku Waweru,2,2,Needle G23,3763000
2018-07-06,OTCINV3380,Ruth Wanjiku Waweru,100,1,Fistula Needles Pers,3763000
2018-07-06,OTCINV3380,Ruth Wanjiku Waweru,3946,1,Dialysis Outpatient,3763000
2018-07-06,OTCINV3381,Benard Kiprono Langat,500,1,Nipro / All types bloodlines,3015000
2018-07-06,OTCINV3381,Benard Kiprono Langat,450,1,Nipro Bicarbonate Catridge,3015000
2018-07-06,OTCINV3381,Benard Kiprono Langat,1300,1,Nipro/All types Dialysers,3015000
2018-07-06,OTCINV3381,Benard Kiprono Langat,500,1,Nipro/ other  Acid Concentrate 5L,3015000
2018-07-06,OTCINV3381,Benard Kiprono Langat,1000,1,Nursing,3015000
2018-07-06,OTCINV3381,Benard Kiprono Langat,100,3,Normal saline,3015000
2018-07-06,OTCINV3381,Benard Kiprono Langat,500,1,Food,3015000
2018-07-06,OTCINV3381,Benard Kiprono Langat,200,1,Consumables,3015000
2018-07-06,OTCINV3381,Benard Kiprono Langat,10,10,Clean Gloves,3015000
2018-07-06,OTCINV3381,Benard Kiprono Langat,130,1,Primapore ( LEUKOMED),3015000
2018-07-06,OTCINV3381,Benard Kiprono Langat,10,1,syringes 10ml,3015000
2018-07-06,OTCINV3381,Benard Kiprono Langat,20,4,syringes 20ml,3015000
2018-07-06,OTCINV3381,Benard Kiprono Langat,5,2,Syringes 5ml,3015000
2018-07-06,OTCINV3381,Benard Kiprono Langat,2,2,Needle G23,3015000
2018-07-06,OTCINV3381,Benard Kiprono Langat,4416,1,Dialysis Outpatient,3015000
2018-07-06,OTCINV3382,Stephen  Chepkwony,300,1,Perfusor syringe 50 ml,6197000
2018-07-06,OTCINV3383,Alexander Mathew Lopungurei,900,1,Full Blood Count (FBC),151000
2018-07-06,OTCINV3383,Alexander Mathew Lopungurei,2000,1,Urea/Creatinine/Electrolytes(KFT),151000
2018-07-06,OTCINV3383,Alexander Mathew Lopungurei,250,1,Urinalysis/microscopy,151000
2018-07-06,OTCINV3383,Alexander Mathew Lopungurei,2000,1,Consultation-Review Dr Koech,151000
2018-07-06,OTCINV3383,Alexander Mathew Lopungurei,24,30,Azathioprine Tabs 50mg,151000
2018-07-06,OTCINV3383,Alexander Mathew Lopungurei,5,30,Prednisolone Tabs 5mg (BLISTERED),151000
2018-07-06,OTCINV3384,Joel Chelimo,500,1,Nipro / All types bloodlines,1480000
2018-07-06,OTCINV3384,Joel Chelimo,450,1,Nipro Bicarbonate Catridge,1480000
2018-07-06,OTCINV3384,Joel Chelimo,500,1,Nipro/ other  Acid Concentrate 5L,1480000
2018-07-06,OTCINV3384,Joel Chelimo,1300,1,Nipro/All types Dialysers,1480000
2018-07-06,OTCINV3384,Joel Chelimo,1000,1,Nursing,1480000
2018-07-06,OTCINV3384,Joel Chelimo,100,2,Normal saline,1480000
2018-07-06,OTCINV3384,Joel Chelimo,500,1,Food,1480000
2018-07-06,OTCINV3384,Joel Chelimo,200,1,Consumables,1480000
2018-07-06,OTCINV3384,Joel Chelimo,10,10,Clean Gloves,1480000
2018-07-06,OTCINV3384,Joel Chelimo,130,1,Primapore ( LEUKOMED),1480000
2018-07-06,OTCINV3384,Joel Chelimo,300,1,CitraLock 4% 5 ml vial,1480000
2018-07-06,OTCINV3384,Joel Chelimo,10,1,syringes 10ml,1480000
2018-07-06,OTCINV3384,Joel Chelimo,20,4,syringes 20ml,1480000
2018-07-06,OTCINV3384,Joel Chelimo,5,2,Syringes 5ml,1480000
2018-07-06,OTCINV3384,Joel Chelimo,2,2,Needle G23,1480000
2018-07-06,OTCINV3384,Joel Chelimo,4216,1,Dialysis Outpatient,1480000
2018-07-06,OTCINV3385,James Cheptoo Cherogony,85,30,Amtel 80/10 Tabs,3110000
2018-07-06,OTCINV3386,Anneth chepkemoi Koech,120,15,Neurogame Tabs,7838000
2018-07-06,OTCINV3386,Anneth chepkemoi Koech,25,18,Myospaz Tabs,7838000
2018-07-06,OTCINV3387,Agnes Jepngetich Rono,1500,1,Consultation -  Dr. Koech,2420000
2018-07-07,OTCINV3388,Florence Athima Kawira,70,28,Tacrolimus 1 mg Tabs ( VINGRAF),1315000
2018-07-07,OTCINV3388,Florence Athima Kawira,130,6,Mycophenolate Mofetil Tab 500mg (Mycept),1315000
2018-07-07,OTCINV3388,Florence Athima Kawira,126.66666,27,Mycophenolate Tabs 500mg ( MOFILET),1315000
2018-07-07,OTCINV3389,Joseph Kiptoo Biwott,1500,1,Consultation Review - Dr. Kirui,6585000
2018-07-07,OTCINV3389,Joseph Kiptoo Biwott,75,30,Treviamet 50/1000mg Tabs,6585000
2018-07-07,OTCINV3389,Joseph Kiptoo Biwott,20,30,Metformin Tabs (Glucophage) 1000mg,6585000
2018-07-07,OTCINV3390,Ann Katini Kiungu,9500,8,Dialysis Outpatient,3907000
2018-07-07,OTCINV3391,Eugene Kola James,900,1,Full Blood Count (FBC),7855000
2018-07-07,OTCINV3391,Eugene Kola James,2000,1,Glycocylated Haemoglobin (Hba1c),7855000
2018-07-07,OTCINV3391,Eugene Kola James,2000,1,Urea/Creatinine/Electrolytes(KFT),7855000
2018-07-07,OTCINV3391,Eugene Kola James,250,1,Urinalysis/microscopy,7855000
2018-07-07,OTCINV3391,Eugene Kola James,500,1,Calcium Levels,7855000
2018-07-07,OTCINV3391,Eugene Kola James,500,1,Phosphorus levels,7855000
2018-07-07,OTCINV3391,Eugene Kola James,3500,1,Liver Funtion Test Full,7855000
2018-07-07,OTCINV3391,Eugene Kola James,2000,1,PSA,7855000
2018-07-07,OTCINV3391,Eugene Kola James,1500,1,TSH,7855000
2018-07-07,OTCINV3391,Eugene Kola James,500,1,HIV Test,7855000
2018-07-07,OTCINV3391,Eugene Kola James,500,1,Hepatitis BsAg - Rapid,7855000
2018-07-07,OTCINV3391,Eugene Kola James,500,1,Hepatitis C Test - Rapid,7855000
2018-07-07,OTCINV3391,Eugene Kola James,500,1,VDRL,7855000
2018-07-07,OTCINV3391,Eugene Kola James,1000,1,Uric Acid Levels,7855000
2018-07-07,OTCINV3391,Eugene Kola James,1000,1,Ldh,7855000
2018-07-07,OTCINV3391,Eugene Kola James,2500,1,Urine Protein Creatine Ratio,7855000
2018-07-07,OTCINV3391,Eugene Kola James,6000,1,Hb Eletrophroresis,7855000
2018-07-07,OTCINV3391,Eugene Kola James,3000,1,G6PD,7855000
2018-07-07,OTCINV3391,Eugene Kola James,5000,1,CMV IgG/IgM antibodies,7855000
2018-07-07,OTCINV3391,Eugene Kola James,250,1,Blood grouping/Du test,7855000
2018-07-07,OTCINV3391,Eugene Kola James,2000,1,Lipid profile:full,7855000
